### 403873.MGPy8EG_A14N23LO_LV_400_10_LLE12k
403873   201   0.0005058020   1.  1.  0.0131037330
403873   203   0.0000000000   1.  1.  1.0000000000
403873   210   0.0000000000   1.  1.  1.0000000000
403873   204   0.0000000000   1.  1.  1.0000000000
403873   211   0.0000000000   1.  1.  1.0000000000
403873   205   0.0000000000   1.  1.  1.0000000000
403873   206   0.0005058020   1.  1.  0.0131037330
403873   216   0.0005058020   1.  1.  0.0131037330
403873   218   0.0000000000   1.  1.  1.0000000000
403873   219   0.0000000000   1.  1.  1.0000000000
403873   220   0.0000000000   1.  1.  1.0000000000
### 403874.MGPy8EG_A14N23LO_LV_400_50_LLE12k
403874   201   0.0005058020   1.  1.  0.0131037330
403874   203   0.0000000000   1.  1.  1.0000000000
403874   210   0.0000000000   1.  1.  1.0000000000
403874   204   0.0000000000   1.  1.  1.0000000000
403874   211   0.0000000000   1.  1.  1.0000000000
403874   205   0.0000000000   1.  1.  1.0000000000
403874   206   0.0005058020   1.  1.  0.0131037330
403874   216   0.0005058020   1.  1.  0.0131037330
403874   218   0.0000000000   1.  1.  1.0000000000
403874   219   0.0000000000   1.  1.  1.0000000000
403874   220   0.0000000000   1.  1.  1.0000000000
### 403875.MGPy8EG_A14N23LO_LV_400_200_LLE12k
403875   201   0.0005058020   1.  1.  0.0131037330
403875   203   0.0000000000   1.  1.  1.0000000000
403875   210   0.0000000000   1.  1.  1.0000000000
403875   204   0.0000000000   1.  1.  1.0000000000
403875   211   0.0000000000   1.  1.  1.0000000000
403875   205   0.0000000000   1.  1.  1.0000000000
403875   206   0.0005058020   1.  1.  0.0131037330
403875   216   0.0005058020   1.  1.  0.0131037330
403875   218   0.0000000000   1.  1.  1.0000000000
403875   219   0.0000000000   1.  1.  1.0000000000
403875   220   0.0000000000   1.  1.  1.0000000000
### 403876.MGPy8EG_A14N23LO_LV_400_390_LLE12k
403876   201   0.0005058020   1.  1.  0.0131037330
403876   203   0.0000000000   1.  1.  1.0000000000
403876   210   0.0000000000   1.  1.  1.0000000000
403876   204   0.0000000000   1.  1.  1.0000000000
403876   211   0.0000000000   1.  1.  1.0000000000
403876   205   0.0000000000   1.  1.  1.0000000000
403876   206   0.0005058020   1.  1.  0.0131037330
403876   216   0.0005058020   1.  1.  0.0131037330
403876   218   0.0000000000   1.  1.  1.0000000000
403876   219   0.0000000000   1.  1.  1.0000000000
403876   220   0.0000000000   1.  1.  1.0000000000
### 403877.MGPy8EG_A14N23LO_LV_600_10_LLE12k
403877   201   0.0000756570   1.  1.  0.0164390870
403877   203   0.0000000000   1.  1.  1.0000000000
403877   210   0.0000000000   1.  1.  1.0000000000
403877   204   0.0000000000   1.  1.  1.0000000000
403877   211   0.0000000000   1.  1.  1.0000000000
403877   205   0.0000000000   1.  1.  1.0000000000
403877   206   0.0000756570   1.  1.  0.0164390870
403877   216   0.0000756570   1.  1.  0.0164390870
403877   218   0.0000000000   1.  1.  1.0000000000
403877   219   0.0000000000   1.  1.  1.0000000000
403877   220   0.0000000000   1.  1.  1.0000000000
### 403878.MGPy8EG_A14N23LO_LV_600_50_LLE12k
403878   201   0.0000756570   1.  1.  0.0164390870
403878   203   0.0000000000   1.  1.  1.0000000000
403878   210   0.0000000000   1.  1.  1.0000000000
403878   204   0.0000000000   1.  1.  1.0000000000
403878   211   0.0000000000   1.  1.  1.0000000000
403878   205   0.0000000000   1.  1.  1.0000000000
403878   206   0.0000756570   1.  1.  0.0164390870
403878   216   0.0000756570   1.  1.  0.0164390870
403878   218   0.0000000000   1.  1.  1.0000000000
403878   219   0.0000000000   1.  1.  1.0000000000
403878   220   0.0000000000   1.  1.  1.0000000000
### 403879.MGPy8EG_A14N23LO_LV_600_200_LLE12k
403879   201   0.0000756570   1.  1.  0.0164390870
403879   203   0.0000000000   1.  1.  1.0000000000
403879   210   0.0000000000   1.  1.  1.0000000000
403879   204   0.0000000000   1.  1.  1.0000000000
403879   211   0.0000000000   1.  1.  1.0000000000
403879   205   0.0000000000   1.  1.  1.0000000000
403879   206   0.0000756570   1.  1.  0.0164390870
403879   216   0.0000756570   1.  1.  0.0164390870
403879   218   0.0000000000   1.  1.  1.0000000000
403879   219   0.0000000000   1.  1.  1.0000000000
403879   220   0.0000000000   1.  1.  1.0000000000
### 403880.MGPy8EG_A14N23LO_LV_600_400_LLE12k
403880   201   0.0000756570   1.  1.  0.0164390870
403880   203   0.0000000000   1.  1.  1.0000000000
403880   210   0.0000000000   1.  1.  1.0000000000
403880   204   0.0000000000   1.  1.  1.0000000000
403880   211   0.0000000000   1.  1.  1.0000000000
403880   205   0.0000000000   1.  1.  1.0000000000
403880   206   0.0000756570   1.  1.  0.0164390870
403880   216   0.0000756570   1.  1.  0.0164390870
403880   218   0.0000000000   1.  1.  1.0000000000
403880   219   0.0000000000   1.  1.  1.0000000000
403880   220   0.0000000000   1.  1.  1.0000000000
### 403881.MGPy8EG_A14N23LO_LV_600_590_LLE12k
403881   201   0.0000756570   1.  1.  0.0164390870
403881   203   0.0000000000   1.  1.  1.0000000000
403881   210   0.0000000000   1.  1.  1.0000000000
403881   204   0.0000000000   1.  1.  1.0000000000
403881   211   0.0000000000   1.  1.  1.0000000000
403881   205   0.0000000000   1.  1.  1.0000000000
403881   206   0.0000756570   1.  1.  0.0164390870
403881   216   0.0000756570   1.  1.  0.0164390870
403881   218   0.0000000000   1.  1.  1.0000000000
403881   219   0.0000000000   1.  1.  1.0000000000
403881   220   0.0000000000   1.  1.  1.0000000000
### 403882.MGPy8EG_A14N23LO_LV_800_10_LLE12k
403882   201   0.0000162680   1.  1.  0.0385145685
403882   203   0.0000000000   1.  1.  1.0000000000
403882   210   0.0000000000   1.  1.  1.0000000000
403882   204   0.0000000000   1.  1.  1.0000000000
403882   211   0.0000000000   1.  1.  1.0000000000
403882   205   0.0000000000   1.  1.  1.0000000000
403882   206   0.0000162680   1.  1.  0.0385145685
403882   216   0.0000162680   1.  1.  0.0385145685
403882   218   0.0000000000   1.  1.  1.0000000000
403882   219   0.0000000000   1.  1.  1.0000000000
403882   220   0.0000000000   1.  1.  1.0000000000
### 403883.MGPy8EG_A14N23LO_LV_800_50_LLE12k
403883   201   0.0000162680   1.  1.  0.0385145685
403883   203   0.0000000000   1.  1.  1.0000000000
403883   210   0.0000000000   1.  1.  1.0000000000
403883   204   0.0000000000   1.  1.  1.0000000000
403883   211   0.0000000000   1.  1.  1.0000000000
403883   205   0.0000000000   1.  1.  1.0000000000
403883   206   0.0000162680   1.  1.  0.0385145685
403883   216   0.0000162680   1.  1.  0.0385145685
403883   218   0.0000000000   1.  1.  1.0000000000
403883   219   0.0000000000   1.  1.  1.0000000000
403883   220   0.0000000000   1.  1.  1.0000000000
### 403884.MGPy8EG_A14N23LO_LV_800_200_LLE12k
403884   201   0.0000162680   1.  1.  0.0385145685
403884   203   0.0000000000   1.  1.  1.0000000000
403884   210   0.0000000000   1.  1.  1.0000000000
403884   204   0.0000000000   1.  1.  1.0000000000
403884   211   0.0000000000   1.  1.  1.0000000000
403884   205   0.0000000000   1.  1.  1.0000000000
403884   206   0.0000162680   1.  1.  0.0385145685
403884   216   0.0000162680   1.  1.  0.0385145685
403884   218   0.0000000000   1.  1.  1.0000000000
403884   219   0.0000000000   1.  1.  1.0000000000
403884   220   0.0000000000   1.  1.  1.0000000000
### 403885.MGPy8EG_A14N23LO_LV_800_400_LLE12k
403885   201   0.0000162680   1.  1.  0.0385145685
403885   203   0.0000000000   1.  1.  1.0000000000
403885   210   0.0000000000   1.  1.  1.0000000000
403885   204   0.0000000000   1.  1.  1.0000000000
403885   211   0.0000000000   1.  1.  1.0000000000
403885   205   0.0000000000   1.  1.  1.0000000000
403885   206   0.0000162680   1.  1.  0.0385145685
403885   216   0.0000162680   1.  1.  0.0385145685
403885   218   0.0000000000   1.  1.  1.0000000000
403885   219   0.0000000000   1.  1.  1.0000000000
403885   220   0.0000000000   1.  1.  1.0000000000
### 403886.MGPy8EG_A14N23LO_LV_800_790_LLE12k
403886   201   0.0000162680   1.  1.  0.0385145685
403886   203   0.0000000000   1.  1.  1.0000000000
403886   210   0.0000000000   1.  1.  1.0000000000
403886   204   0.0000000000   1.  1.  1.0000000000
403886   211   0.0000000000   1.  1.  1.0000000000
403886   205   0.0000000000   1.  1.  1.0000000000
403886   206   0.0000162680   1.  1.  0.0385145685
403886   216   0.0000162680   1.  1.  0.0385145685
403886   218   0.0000000000   1.  1.  1.0000000000
403886   219   0.0000000000   1.  1.  1.0000000000
403886   220   0.0000000000   1.  1.  1.0000000000
### 403887.MGPy8EG_A14N23LO_LV_900_10_LLE12k
403887   201   0.0000081660   1.  1.  0.0742791965
403887   203   0.0000000000   1.  1.  1.0000000000
403887   210   0.0000000000   1.  1.  1.0000000000
403887   204   0.0000000000   1.  1.  1.0000000000
403887   211   0.0000000000   1.  1.  1.0000000000
403887   205   0.0000000000   1.  1.  1.0000000000
403887   206   0.0000081660   1.  1.  0.0742791965
403887   216   0.0000081660   1.  1.  0.0742791965
403887   218   0.0000000000   1.  1.  1.0000000000
403887   219   0.0000000000   1.  1.  1.0000000000
403887   220   0.0000000000   1.  1.  1.0000000000
### 403888.MGPy8EG_A14N23LO_LV_900_50_LLE12k
403888   201   0.0000081660   1.  1.  0.0742791965
403888   203   0.0000000000   1.  1.  1.0000000000
403888   210   0.0000000000   1.  1.  1.0000000000
403888   204   0.0000000000   1.  1.  1.0000000000
403888   211   0.0000000000   1.  1.  1.0000000000
403888   205   0.0000000000   1.  1.  1.0000000000
403888   206   0.0000081660   1.  1.  0.0742791965
403888   216   0.0000081660   1.  1.  0.0742791965
403888   218   0.0000000000   1.  1.  1.0000000000
403888   219   0.0000000000   1.  1.  1.0000000000
403888   220   0.0000000000   1.  1.  1.0000000000
### 403889.MGPy8EG_A14N23LO_LV_900_200_LLE12k
403889   201   0.0000081660   1.  1.  0.0742791965
403889   203   0.0000000000   1.  1.  1.0000000000
403889   210   0.0000000000   1.  1.  1.0000000000
403889   204   0.0000000000   1.  1.  1.0000000000
403889   211   0.0000000000   1.  1.  1.0000000000
403889   205   0.0000000000   1.  1.  1.0000000000
403889   206   0.0000081660   1.  1.  0.0742791965
403889   216   0.0000081660   1.  1.  0.0742791965
403889   218   0.0000000000   1.  1.  1.0000000000
403889   219   0.0000000000   1.  1.  1.0000000000
403889   220   0.0000000000   1.  1.  1.0000000000
### 403890.MGPy8EG_A14N23LO_LV_900_400_LLE12k
403890   201   0.0000081660   1.  1.  0.0742791965
403890   203   0.0000000000   1.  1.  1.0000000000
403890   210   0.0000000000   1.  1.  1.0000000000
403890   204   0.0000000000   1.  1.  1.0000000000
403890   211   0.0000000000   1.  1.  1.0000000000
403890   205   0.0000000000   1.  1.  1.0000000000
403890   206   0.0000081660   1.  1.  0.0742791965
403890   216   0.0000081660   1.  1.  0.0742791965
403890   218   0.0000000000   1.  1.  1.0000000000
403890   219   0.0000000000   1.  1.  1.0000000000
403890   220   0.0000000000   1.  1.  1.0000000000
### 403891.MGPy8EG_A14N23LO_LV_900_890_LLE12k
403891   201   0.0000081660   1.  1.  0.0742791965
403891   203   0.0000000000   1.  1.  1.0000000000
403891   210   0.0000000000   1.  1.  1.0000000000
403891   204   0.0000000000   1.  1.  1.0000000000
403891   211   0.0000000000   1.  1.  1.0000000000
403891   205   0.0000000000   1.  1.  1.0000000000
403891   206   0.0000081660   1.  1.  0.0742791965
403891   216   0.0000081660   1.  1.  0.0742791965
403891   218   0.0000000000   1.  1.  1.0000000000
403891   219   0.0000000000   1.  1.  1.0000000000
403891   220   0.0000000000   1.  1.  1.0000000000
### 403892.MGPy8EG_A14N23LO_LV_1100_10_LLE12k
403892   201   0.0000022860   1.  1.  0.2734727980
403892   203   0.0000000000   1.  1.  1.0000000000
403892   210   0.0000000000   1.  1.  1.0000000000
403892   204   0.0000000000   1.  1.  1.0000000000
403892   211   0.0000000000   1.  1.  1.0000000000
403892   205   0.0000000000   1.  1.  1.0000000000
403892   206   0.0000022860   1.  1.  0.2734727980
403892   216   0.0000022860   1.  1.  0.2734727980
403892   218   0.0000000000   1.  1.  1.0000000000
403892   219   0.0000000000   1.  1.  1.0000000000
403892   220   0.0000000000   1.  1.  1.0000000000
### 403893.MGPy8EG_A14N23LO_LV_1100_50_LLE12k
403893   201   0.0000022860   1.  1.  0.2734727980
403893   203   0.0000000000   1.  1.  1.0000000000
403893   210   0.0000000000   1.  1.  1.0000000000
403893   204   0.0000000000   1.  1.  1.0000000000
403893   211   0.0000000000   1.  1.  1.0000000000
403893   205   0.0000000000   1.  1.  1.0000000000
403893   206   0.0000022860   1.  1.  0.2734727980
403893   216   0.0000022860   1.  1.  0.2734727980
403893   218   0.0000000000   1.  1.  1.0000000000
403893   219   0.0000000000   1.  1.  1.0000000000
403893   220   0.0000000000   1.  1.  1.0000000000
### 403894.MGPy8EG_A14N23LO_LV_1100_200_LLE12k
403894   201   0.0000022860   1.  1.  0.2734727980
403894   203   0.0000000000   1.  1.  1.0000000000
403894   210   0.0000000000   1.  1.  1.0000000000
403894   204   0.0000000000   1.  1.  1.0000000000
403894   211   0.0000000000   1.  1.  1.0000000000
403894   205   0.0000000000   1.  1.  1.0000000000
403894   206   0.0000022860   1.  1.  0.2734727980
403894   216   0.0000022860   1.  1.  0.2734727980
403894   218   0.0000000000   1.  1.  1.0000000000
403894   219   0.0000000000   1.  1.  1.0000000000
403894   220   0.0000000000   1.  1.  1.0000000000
### 403895.MGPy8EG_A14N23LO_LV_1100_600_LLE12k
403895   201   0.0000022860   1.  1.  0.2734727980
403895   203   0.0000000000   1.  1.  1.0000000000
403895   210   0.0000000000   1.  1.  1.0000000000
403895   204   0.0000000000   1.  1.  1.0000000000
403895   211   0.0000000000   1.  1.  1.0000000000
403895   205   0.0000000000   1.  1.  1.0000000000
403895   206   0.0000022860   1.  1.  0.2734727980
403895   216   0.0000022860   1.  1.  0.2734727980
403895   218   0.0000000000   1.  1.  1.0000000000
403895   219   0.0000000000   1.  1.  1.0000000000
403895   220   0.0000000000   1.  1.  1.0000000000
### 403896.MGPy8EG_A14N23LO_LV_1100_1000_LLE12k
403896   201   0.0000022860   1.  1.  0.2734727980
403896   203   0.0000000000   1.  1.  1.0000000000
403896   210   0.0000000000   1.  1.  1.0000000000
403896   204   0.0000000000   1.  1.  1.0000000000
403896   211   0.0000000000   1.  1.  1.0000000000
403896   205   0.0000000000   1.  1.  1.0000000000
403896   206   0.0000022860   1.  1.  0.2734727980
403896   216   0.0000022860   1.  1.  0.2734727980
403896   218   0.0000000000   1.  1.  1.0000000000
403896   219   0.0000000000   1.  1.  1.0000000000
403896   220   0.0000000000   1.  1.  1.0000000000
### 403897.MGPy8EG_A14N23LO_LV_1100_1090_LLE12k
403897   201   0.0000022860   1.  1.  0.2734727980
403897   203   0.0000000000   1.  1.  1.0000000000
403897   210   0.0000000000   1.  1.  1.0000000000
403897   204   0.0000000000   1.  1.  1.0000000000
403897   211   0.0000000000   1.  1.  1.0000000000
403897   205   0.0000000000   1.  1.  1.0000000000
403897   206   0.0000022860   1.  1.  0.2734727980
403897   216   0.0000022860   1.  1.  0.2734727980
403897   218   0.0000000000   1.  1.  1.0000000000
403897   219   0.0000000000   1.  1.  1.0000000000
403897   220   0.0000000000   1.  1.  1.0000000000
### 403898.MGPy8EG_A14N23LO_LV_1200_10_LLE12k
403898   201   0.0000012580   1.  1.  0.4979417127
403898   203   0.0000000000   1.  1.  1.0000000000
403898   210   0.0000000000   1.  1.  1.0000000000
403898   204   0.0000000000   1.  1.  1.0000000000
403898   211   0.0000000000   1.  1.  1.0000000000
403898   205   0.0000000000   1.  1.  1.0000000000
403898   206   0.0000012580   1.  1.  0.4979417127
403898   216   0.0000012580   1.  1.  0.4979417127
403898   218   0.0000000000   1.  1.  1.0000000000
403898   219   0.0000000000   1.  1.  1.0000000000
403898   220   0.0000000000   1.  1.  1.0000000000
### 403899.MGPy8EG_A14N23LO_LV_1200_50_LLE12k
403899   201   0.0000012580   1.  1.  0.4979417127
403899   203   0.0000000000   1.  1.  1.0000000000
403899   210   0.0000000000   1.  1.  1.0000000000
403899   204   0.0000000000   1.  1.  1.0000000000
403899   211   0.0000000000   1.  1.  1.0000000000
403899   205   0.0000000000   1.  1.  1.0000000000
403899   206   0.0000012580   1.  1.  0.4979417127
403899   216   0.0000012580   1.  1.  0.4979417127
403899   218   0.0000000000   1.  1.  1.0000000000
403899   219   0.0000000000   1.  1.  1.0000000000
403899   220   0.0000000000   1.  1.  1.0000000000
### 403900.MGPy8EG_A14N23LO_LV_1200_200_LLE12k
403900   201   0.0000012580   1.  1.  0.4979417127
403900   203   0.0000000000   1.  1.  1.0000000000
403900   210   0.0000000000   1.  1.  1.0000000000
403900   204   0.0000000000   1.  1.  1.0000000000
403900   211   0.0000000000   1.  1.  1.0000000000
403900   205   0.0000000000   1.  1.  1.0000000000
403900   206   0.0000012580   1.  1.  0.4979417127
403900   216   0.0000012580   1.  1.  0.4979417127
403900   218   0.0000000000   1.  1.  1.0000000000
403900   219   0.0000000000   1.  1.  1.0000000000
403900   220   0.0000000000   1.  1.  1.0000000000
### 403901.MGPy8EG_A14N23LO_LV_1200_600_LLE12k
403901   201   0.0000012580   1.  1.  0.4979417127
403901   203   0.0000000000   1.  1.  1.0000000000
403901   210   0.0000000000   1.  1.  1.0000000000
403901   204   0.0000000000   1.  1.  1.0000000000
403901   211   0.0000000000   1.  1.  1.0000000000
403901   205   0.0000000000   1.  1.  1.0000000000
403901   206   0.0000012580   1.  1.  0.4979417127
403901   216   0.0000012580   1.  1.  0.4979417127
403901   218   0.0000000000   1.  1.  1.0000000000
403901   219   0.0000000000   1.  1.  1.0000000000
403901   220   0.0000000000   1.  1.  1.0000000000
### 403902.MGPy8EG_A14N23LO_LV_1200_1000_LLE12k
403902   201   0.0000012580   1.  1.  0.4979417127
403902   203   0.0000000000   1.  1.  1.0000000000
403902   210   0.0000000000   1.  1.  1.0000000000
403902   204   0.0000000000   1.  1.  1.0000000000
403902   211   0.0000000000   1.  1.  1.0000000000
403902   205   0.0000000000   1.  1.  1.0000000000
403902   206   0.0000012580   1.  1.  0.4979417127
403902   216   0.0000012580   1.  1.  0.4979417127
403902   218   0.0000000000   1.  1.  1.0000000000
403902   219   0.0000000000   1.  1.  1.0000000000
403902   220   0.0000000000   1.  1.  1.0000000000
### 403903.MGPy8EG_A14N23LO_LV_1200_1190_LLE12k
403903   201   0.0000012580   1.  1.  0.4979417127
403903   203   0.0000000000   1.  1.  1.0000000000
403903   210   0.0000000000   1.  1.  1.0000000000
403903   204   0.0000000000   1.  1.  1.0000000000
403903   211   0.0000000000   1.  1.  1.0000000000
403903   205   0.0000000000   1.  1.  1.0000000000
403903   206   0.0000012580   1.  1.  0.4979417127
403903   216   0.0000012580   1.  1.  0.4979417127
403903   218   0.0000000000   1.  1.  1.0000000000
403903   219   0.0000000000   1.  1.  1.0000000000
403903   220   0.0000000000   1.  1.  1.0000000000
### 403904.MGPy8EG_A14N23LO_LV_400_100_LLEi33
403904   201   0.0005058020   1.  1.  0.0131037330
403904   203   0.0000000000   1.  1.  1.0000000000
403904   210   0.0000000000   1.  1.  1.0000000000
403904   204   0.0000000000   1.  1.  1.0000000000
403904   211   0.0000000000   1.  1.  1.0000000000
403904   205   0.0000000000   1.  1.  1.0000000000
403904   206   0.0005058020   1.  1.  0.0131037330
403904   216   0.0005058020   1.  1.  0.0131037330
403904   218   0.0000000000   1.  1.  1.0000000000
403904   219   0.0000000000   1.  1.  1.0000000000
403904   220   0.0000000000   1.  1.  1.0000000000
### 403905.MGPy8EG_A14N23LO_LV_400_300_LLEi33
403905   201   0.0005058020   1.  1.  0.0131037330
403905   203   0.0000000000   1.  1.  1.0000000000
403905   210   0.0000000000   1.  1.  1.0000000000
403905   204   0.0000000000   1.  1.  1.0000000000
403905   211   0.0000000000   1.  1.  1.0000000000
403905   205   0.0000000000   1.  1.  1.0000000000
403905   206   0.0005058020   1.  1.  0.0131037330
403905   216   0.0005058020   1.  1.  0.0131037330
403905   218   0.0000000000   1.  1.  1.0000000000
403905   219   0.0000000000   1.  1.  1.0000000000
403905   220   0.0000000000   1.  1.  1.0000000000
### 403906.MGPy8EG_A14N23LO_LV_400_390_LLEi33
403906   201   0.0005058020   1.  1.  0.0131037330
403906   203   0.0000000000   1.  1.  1.0000000000
403906   210   0.0000000000   1.  1.  1.0000000000
403906   204   0.0000000000   1.  1.  1.0000000000
403906   211   0.0000000000   1.  1.  1.0000000000
403906   205   0.0000000000   1.  1.  1.0000000000
403906   206   0.0005058020   1.  1.  0.0131037330
403906   216   0.0005058020   1.  1.  0.0131037330
403906   218   0.0000000000   1.  1.  1.0000000000
403906   219   0.0000000000   1.  1.  1.0000000000
403906   220   0.0000000000   1.  1.  1.0000000000
### 403907.MGPy8EG_A14N23LO_LV_600_100_LLEi33
403907   201   0.0000756570   1.  1.  0.0164390870
403907   203   0.0000000000   1.  1.  1.0000000000
403907   210   0.0000000000   1.  1.  1.0000000000
403907   204   0.0000000000   1.  1.  1.0000000000
403907   211   0.0000000000   1.  1.  1.0000000000
403907   205   0.0000000000   1.  1.  1.0000000000
403907   206   0.0000756570   1.  1.  0.0164390870
403907   216   0.0000756570   1.  1.  0.0164390870
403907   218   0.0000000000   1.  1.  1.0000000000
403907   219   0.0000000000   1.  1.  1.0000000000
403907   220   0.0000000000   1.  1.  1.0000000000
### 403908.MGPy8EG_A14N23LO_LV_600_300_LLEi33
403908   201   0.0000756570   1.  1.  0.0164390870
403908   203   0.0000000000   1.  1.  1.0000000000
403908   210   0.0000000000   1.  1.  1.0000000000
403908   204   0.0000000000   1.  1.  1.0000000000
403908   211   0.0000000000   1.  1.  1.0000000000
403908   205   0.0000000000   1.  1.  1.0000000000
403908   206   0.0000756570   1.  1.  0.0164390870
403908   216   0.0000756570   1.  1.  0.0164390870
403908   218   0.0000000000   1.  1.  1.0000000000
403908   219   0.0000000000   1.  1.  1.0000000000
403908   220   0.0000000000   1.  1.  1.0000000000
### 403909.MGPy8EG_A14N23LO_LV_600_500_LLEi33
403909   201   0.0000756570   1.  1.  0.0164390870
403909   203   0.0000000000   1.  1.  1.0000000000
403909   210   0.0000000000   1.  1.  1.0000000000
403909   204   0.0000000000   1.  1.  1.0000000000
403909   211   0.0000000000   1.  1.  1.0000000000
403909   205   0.0000000000   1.  1.  1.0000000000
403909   206   0.0000756570   1.  1.  0.0164390870
403909   216   0.0000756570   1.  1.  0.0164390870
403909   218   0.0000000000   1.  1.  1.0000000000
403909   219   0.0000000000   1.  1.  1.0000000000
403909   220   0.0000000000   1.  1.  1.0000000000
### 403910.MGPy8EG_A14N23LO_LV_600_590_LLEi33
403910   201   0.0000756570   1.  1.  0.0164390870
403910   203   0.0000000000   1.  1.  1.0000000000
403910   210   0.0000000000   1.  1.  1.0000000000
403910   204   0.0000000000   1.  1.  1.0000000000
403910   211   0.0000000000   1.  1.  1.0000000000
403910   205   0.0000000000   1.  1.  1.0000000000
403910   206   0.0000756570   1.  1.  0.0164390870
403910   216   0.0000756570   1.  1.  0.0164390870
403910   218   0.0000000000   1.  1.  1.0000000000
403910   219   0.0000000000   1.  1.  1.0000000000
403910   220   0.0000000000   1.  1.  1.0000000000
### 403911.MGPy8EG_A14N23LO_LV_800_100_LLEi33
403911   201   0.0000162680   1.  1.  0.0385145685
403911   203   0.0000000000   1.  1.  1.0000000000
403911   210   0.0000000000   1.  1.  1.0000000000
403911   204   0.0000000000   1.  1.  1.0000000000
403911   211   0.0000000000   1.  1.  1.0000000000
403911   205   0.0000000000   1.  1.  1.0000000000
403911   206   0.0000162680   1.  1.  0.0385145685
403911   216   0.0000162680   1.  1.  0.0385145685
403911   218   0.0000000000   1.  1.  1.0000000000
403911   219   0.0000000000   1.  1.  1.0000000000
403911   220   0.0000000000   1.  1.  1.0000000000
### 403912.MGPy8EG_A14N23LO_LV_800_300_LLEi33
403912   201   0.0000162680   1.  1.  0.0385145685
403912   203   0.0000000000   1.  1.  1.0000000000
403912   210   0.0000000000   1.  1.  1.0000000000
403912   204   0.0000000000   1.  1.  1.0000000000
403912   211   0.0000000000   1.  1.  1.0000000000
403912   205   0.0000000000   1.  1.  1.0000000000
403912   206   0.0000162680   1.  1.  0.0385145685
403912   216   0.0000162680   1.  1.  0.0385145685
403912   218   0.0000000000   1.  1.  1.0000000000
403912   219   0.0000000000   1.  1.  1.0000000000
403912   220   0.0000000000   1.  1.  1.0000000000
### 403913.MGPy8EG_A14N23LO_LV_800_700_LLEi33
403913   201   0.0000162680   1.  1.  0.0385145685
403913   203   0.0000000000   1.  1.  1.0000000000
403913   210   0.0000000000   1.  1.  1.0000000000
403913   204   0.0000000000   1.  1.  1.0000000000
403913   211   0.0000000000   1.  1.  1.0000000000
403913   205   0.0000000000   1.  1.  1.0000000000
403913   206   0.0000162680   1.  1.  0.0385145685
403913   216   0.0000162680   1.  1.  0.0385145685
403913   218   0.0000000000   1.  1.  1.0000000000
403913   219   0.0000000000   1.  1.  1.0000000000
403913   220   0.0000000000   1.  1.  1.0000000000
### 403914.MGPy8EG_A14N23LO_LV_800_790_LLEi33
403914   201   0.0000162680   1.  1.  0.0385145685
403914   203   0.0000000000   1.  1.  1.0000000000
403914   210   0.0000000000   1.  1.  1.0000000000
403914   204   0.0000000000   1.  1.  1.0000000000
403914   211   0.0000000000   1.  1.  1.0000000000
403914   205   0.0000000000   1.  1.  1.0000000000
403914   206   0.0000162680   1.  1.  0.0385145685
403914   216   0.0000162680   1.  1.  0.0385145685
403914   218   0.0000000000   1.  1.  1.0000000000
403914   219   0.0000000000   1.  1.  1.0000000000
403914   220   0.0000000000   1.  1.  1.0000000000
### 403915.MGPy8EG_A14N23LO_LV_900_100_LLEi33
403915   201   0.0000081660   1.  1.  0.0742791965
403915   203   0.0000000000   1.  1.  1.0000000000
403915   210   0.0000000000   1.  1.  1.0000000000
403915   204   0.0000000000   1.  1.  1.0000000000
403915   211   0.0000000000   1.  1.  1.0000000000
403915   205   0.0000000000   1.  1.  1.0000000000
403915   206   0.0000081660   1.  1.  0.0742791965
403915   216   0.0000081660   1.  1.  0.0742791965
403915   218   0.0000000000   1.  1.  1.0000000000
403915   219   0.0000000000   1.  1.  1.0000000000
403915   220   0.0000000000   1.  1.  1.0000000000
### 403916.MGPy8EG_A14N23LO_LV_900_300_LLEi33
403916   201   0.0000081660   1.  1.  0.0742791965
403916   203   0.0000000000   1.  1.  1.0000000000
403916   210   0.0000000000   1.  1.  1.0000000000
403916   204   0.0000000000   1.  1.  1.0000000000
403916   211   0.0000000000   1.  1.  1.0000000000
403916   205   0.0000000000   1.  1.  1.0000000000
403916   206   0.0000081660   1.  1.  0.0742791965
403916   216   0.0000081660   1.  1.  0.0742791965
403916   218   0.0000000000   1.  1.  1.0000000000
403916   219   0.0000000000   1.  1.  1.0000000000
403916   220   0.0000000000   1.  1.  1.0000000000
### 403917.MGPy8EG_A14N23LO_LV_900_800_LLEi33
403917   201   0.0000081660   1.  1.  0.0742791965
403917   203   0.0000000000   1.  1.  1.0000000000
403917   210   0.0000000000   1.  1.  1.0000000000
403917   204   0.0000000000   1.  1.  1.0000000000
403917   211   0.0000000000   1.  1.  1.0000000000
403917   205   0.0000000000   1.  1.  1.0000000000
403917   206   0.0000081660   1.  1.  0.0742791965
403917   216   0.0000081660   1.  1.  0.0742791965
403917   218   0.0000000000   1.  1.  1.0000000000
403917   219   0.0000000000   1.  1.  1.0000000000
403917   220   0.0000000000   1.  1.  1.0000000000
### 403918.MGPy8EG_A14N23LO_LV_900_890_LLEi33
403918   201   0.0000081660   1.  1.  0.0742791965
403918   203   0.0000000000   1.  1.  1.0000000000
403918   210   0.0000000000   1.  1.  1.0000000000
403918   204   0.0000000000   1.  1.  1.0000000000
403918   211   0.0000000000   1.  1.  1.0000000000
403918   205   0.0000000000   1.  1.  1.0000000000
403918   206   0.0000081660   1.  1.  0.0742791965
403918   216   0.0000081660   1.  1.  0.0742791965
403918   218   0.0000000000   1.  1.  1.0000000000
403918   219   0.0000000000   1.  1.  1.0000000000
403918   220   0.0000000000   1.  1.  1.0000000000
### 403919.MGPy8EG_A14N23LO_LV_400_directLLE12k
403919   201   0.0005058020   1.  1.  0.0131037330
403919   203   0.0000000000   1.  1.  1.0000000000
403919   210   0.0000000000   1.  1.  1.0000000000
403919   204   0.0000000000   1.  1.  1.0000000000
403919   211   0.0000000000   1.  1.  1.0000000000
403919   205   0.0000000000   1.  1.  1.0000000000
403919   206   0.0005058020   1.  1.  0.0131037330
403919   216   0.0005058020   1.  1.  0.0131037330
403919   218   0.0000000000   1.  1.  1.0000000000
403919   219   0.0000000000   1.  1.  1.0000000000
403919   220   0.0000000000   1.  1.  1.0000000000
### 403920.MGPy8EG_A14N23LO_LV_600_directLLE12k
403920   201   0.0000756570   1.  1.  0.0164390870
403920   203   0.0000000000   1.  1.  1.0000000000
403920   210   0.0000000000   1.  1.  1.0000000000
403920   204   0.0000000000   1.  1.  1.0000000000
403920   211   0.0000000000   1.  1.  1.0000000000
403920   205   0.0000000000   1.  1.  1.0000000000
403920   206   0.0000756570   1.  1.  0.0164390870
403920   216   0.0000756570   1.  1.  0.0164390870
403920   218   0.0000000000   1.  1.  1.0000000000
403920   219   0.0000000000   1.  1.  1.0000000000
403920   220   0.0000000000   1.  1.  1.0000000000
### 403921.MGPy8EG_A14N23LO_LV_800_directLLE12k
403921   201   0.0000162680   1.  1.  0.0385145685
403921   203   0.0000000000   1.  1.  1.0000000000
403921   210   0.0000000000   1.  1.  1.0000000000
403921   204   0.0000000000   1.  1.  1.0000000000
403921   211   0.0000000000   1.  1.  1.0000000000
403921   205   0.0000000000   1.  1.  1.0000000000
403921   206   0.0000162680   1.  1.  0.0385145685
403921   216   0.0000162680   1.  1.  0.0385145685
403921   218   0.0000000000   1.  1.  1.0000000000
403921   219   0.0000000000   1.  1.  1.0000000000
403921   220   0.0000000000   1.  1.  1.0000000000
### 403922.MGPy8EG_A14N23LO_LV_400_10_LLEi33
403922   201   0.0005058020   1.  1.  0.0131037330
403922   203   0.0000000000   1.  1.  1.0000000000
403922   210   0.0000000000   1.  1.  1.0000000000
403922   204   0.0000000000   1.  1.  1.0000000000
403922   211   0.0000000000   1.  1.  1.0000000000
403922   205   0.0000000000   1.  1.  1.0000000000
403922   206   0.0005058020   1.  1.  0.0131037330
403922   216   0.0005058020   1.  1.  0.0131037330
403922   218   0.0000000000   1.  1.  1.0000000000
403922   219   0.0000000000   1.  1.  1.0000000000
403922   220   0.0000000000   1.  1.  1.0000000000
### 403923.MGPy8EG_A14N23LO_LV_400_50_LLEi33
403923   201   0.0005058020   1.  1.  0.0131037330
403923   203   0.0000000000   1.  1.  1.0000000000
403923   210   0.0000000000   1.  1.  1.0000000000
403923   204   0.0000000000   1.  1.  1.0000000000
403923   211   0.0000000000   1.  1.  1.0000000000
403923   205   0.0000000000   1.  1.  1.0000000000
403923   206   0.0005058020   1.  1.  0.0131037330
403923   216   0.0005058020   1.  1.  0.0131037330
403923   218   0.0000000000   1.  1.  1.0000000000
403923   219   0.0000000000   1.  1.  1.0000000000
403923   220   0.0000000000   1.  1.  1.0000000000
### 403924.MGPy8EG_A14N23LO_LV_600_10_LLEi33
403924   201   0.0000756570   1.  1.  0.0164390870
403924   203   0.0000000000   1.  1.  1.0000000000
403924   210   0.0000000000   1.  1.  1.0000000000
403924   204   0.0000000000   1.  1.  1.0000000000
403924   211   0.0000000000   1.  1.  1.0000000000
403924   205   0.0000000000   1.  1.  1.0000000000
403924   206   0.0000756570   1.  1.  0.0164390870
403924   216   0.0000756570   1.  1.  0.0164390870
403924   218   0.0000000000   1.  1.  1.0000000000
403924   219   0.0000000000   1.  1.  1.0000000000
403924   220   0.0000000000   1.  1.  1.0000000000
### 403925.MGPy8EG_A14N23LO_LV_600_50_LLEi33
403925   201   0.0000756570   1.  1.  0.0164390870
403925   203   0.0000000000   1.  1.  1.0000000000
403925   210   0.0000000000   1.  1.  1.0000000000
403925   204   0.0000000000   1.  1.  1.0000000000
403925   211   0.0000000000   1.  1.  1.0000000000
403925   205   0.0000000000   1.  1.  1.0000000000
403925   206   0.0000756570   1.  1.  0.0164390870
403925   216   0.0000756570   1.  1.  0.0164390870
403925   218   0.0000000000   1.  1.  1.0000000000
403925   219   0.0000000000   1.  1.  1.0000000000
403925   220   0.0000000000   1.  1.  1.0000000000
