#Mad of the official PMG file... Does not make much sense at all
301000		PowhegPythia8EvtGen_AZNLOCTEQ6L1_DYee_120M180		17.477		1.0000E+00		1.0		0.0		0.0		Powheg(v1_r2856)+Pythia8(v8.186)+EvtGen(v1.2.0)+Photospp
301001		PowhegPythia8EvtGen_AZNLOCTEQ6L1_DYee_180M250		2.9215		1.0000E+00		1.0		0.0		0.0		Powheg(v1_r2856)+Pythia8(v8.186)+EvtGen(v1.2.0)+Photospp
301002		PowhegPythia8EvtGen_AZNLOCTEQ6L1_DYee_250M400		1.0819		1.0000E+00		1.0		0.0		0.0		Powheg(v1_r2856)+Pythia8(v8.186)+EvtGen(v1.2.0)+Photospp
301003		PowhegPythia8EvtGen_AZNLOCTEQ6L1_DYee_400M600		0.19551		1.0000E+00		1.0		0.0		0.0		Powheg(v1_r2856)+Pythia8(v8.186)+EvtGen(v1.2.0)+Photospp
301004		PowhegPythia8EvtGen_AZNLOCTEQ6L1_DYee_600M800		0.037403		1.0000E+00		1.0		0.0		0.0		Powheg(v1_r2856)+Pythia8(v8.186)+EvtGen(v1.2.0)+Photospp
301005		PowhegPythia8EvtGen_AZNLOCTEQ6L1_DYee_800M1000		0.010607		1.0000E+00		1.0		0.0		0.0		Powheg(v1_r2856)+Pythia8(v8.186)+EvtGen(v1.2.0)+Photospp
301006		PowhegPythia8EvtGen_AZNLOCTEQ6L1_DYee_1000M1250		0.0042586		1.0000E+00		1.0		0.0		0.0		Powheg(v1_r2856)+Pythia8(v8.186)+EvtGen(v1.2.0)+Photospp
301007		PowhegPythia8EvtGen_AZNLOCTEQ6L1_DYee_1250M1500		0.001422		1.0000E+00		1.0		0.0		0.0		Powheg(v1_r2856)+Pythia8(v8.186)+EvtGen(v1.2.0)+Photospp
301008		PowhegPythia8EvtGen_AZNLOCTEQ6L1_DYee_1500M1750		0.00054526		1.0000E+00		1.0		0.0		0.0		Powheg(v1_r2856)+Pythia8(v8.186)+EvtGen(v1.2.0)+Photospp
301009		PowhegPythia8EvtGen_AZNLOCTEQ6L1_DYee_1750M2000		0.00022993		1.0000E+00		1.0		0.0		0.0		Powheg(v1_r2856)+Pythia8(v8.186)+EvtGen(v1.2.0)+Photospp
301010		PowhegPythia8EvtGen_AZNLOCTEQ6L1_DYee_2000M2250		0.00010386		1.0000E+00		1.0		0.0		0.0		Powheg(v1_r2856)+Pythia8(v8.186)+EvtGen(v1.2.0)+Photospp
301011		PowhegPythia8EvtGen_AZNLOCTEQ6L1_DYee_2250M2500		4.9403e-05		1.0000E+00		1.0		0.0		0.0		Powheg(v1_r2856)+Pythia8(v8.186)+EvtGen(v1.2.0)+Photospp
301012		PowhegPythia8EvtGen_AZNLOCTEQ6L1_DYee_2500M2750		2.4454e-05		1.0000E+00		1.0		0.0		0.0		Powheg(v1_r2856)+Pythia8(v8.186)+EvtGen(v1.2.0)+Photospp
301013		PowhegPythia8EvtGen_AZNLOCTEQ6L1_DYee_2750M3000		1.249e-05		1.0000E+00		1.0		0.0		0.0		Powheg(v1_r2856)+Pythia8(v8.186)+EvtGen(v1.2.0)+Photospp
301014		PowhegPythia8EvtGen_AZNLOCTEQ6L1_DYee_3000M3500		1.003e-05		1.0000E+00		1.0		0.0		0.0		Powheg(v1_r2856)+Pythia8(v8.186)+EvtGen(v1.2.0)+Photospp
301015		PowhegPythia8EvtGen_AZNLOCTEQ6L1_DYee_3500M4000		2.9344e-06		1.0000E+00		1.0		0.0		0.0		Powheg(v1_r2856)+Pythia8(v8.186)+EvtGen(v1.2.0)+Photospp
301016		PowhegPythia8EvtGen_AZNLOCTEQ6L1_DYee_4000M4500		8.9767e-07		1.0000E+00		1.0		0.0		0.0		Powheg(v1_r2856)+Pythia8(v8.186)+EvtGen(v1.2.0)+Photospp
301017		PowhegPythia8EvtGen_AZNLOCTEQ6L1_DYee_4500M5000		2.8071e-07		1.0000E+00		1.0		0.0		0.0		Powheg(v1_r2856)+Pythia8(v8.186)+EvtGen(v1.2.0)+Photospp
301018		PowhegPythia8EvtGen_AZNLOCTEQ6L1_DYee_5000M		1.2647e-07		1.0000E+00		1.0		0.0		0.0		Powheg(v1_r2856)+Pythia8(v8.186)+EvtGen(v1.2.0)+Photospp
301020		PowhegPythia8EvtGen_AZNLOCTEQ6L1_DYmumu_120M180		17.477		1.0000E+00		1.0		0.0		0.0		Powheg(v1_r2856)+Pythia8(v8.186)+EvtGen(v1.2.0)+Photospp
301021		PowhegPythia8EvtGen_AZNLOCTEQ6L1_DYmumu_180M250		2.9215		1.0000E+00		1.0		0.0		0.0		Powheg(v1_r2856)+Pythia8(v8.186)+EvtGen(v1.2.0)+Photospp
301022		PowhegPythia8EvtGen_AZNLOCTEQ6L1_DYmumu_250M400		1.0819		1.0000E+00		1.0		0.0		0.0		Powheg(v1_r2856)+Pythia8(v8.186)+EvtGen(v1.2.0)+Photospp
301023		PowhegPythia8EvtGen_AZNLOCTEQ6L1_DYmumu_400M600		0.19551		1.0000E+00		1.0		0.0		0.0		Powheg(v1_r2856)+Pythia8(v8.186)+EvtGen(v1.2.0)+Photospp
301024		PowhegPythia8EvtGen_AZNLOCTEQ6L1_DYmumu_600M800		0.037403		1.0000E+00		1.0		0.0		0.0		Powheg(v1_r2856)+Pythia8(v8.186)+EvtGen(v1.2.0)+Photospp
301025		PowhegPythia8EvtGen_AZNLOCTEQ6L1_DYmumu_800M1000		0.010607		1.0000E+00		1.0		0.0		0.0		Powheg(v1_r2856)+Pythia8(v8.186)+EvtGen(v1.2.0)+Photospp
301026		PowhegPythia8EvtGen_AZNLOCTEQ6L1_DYmumu_1000M1250		0.0042586		1.0000E+00		1.0		0.0		0.0		Powheg(v1_r2856)+Pythia8(v8.186)+EvtGen(v1.2.0)+Photospp
301027		PowhegPythia8EvtGen_AZNLOCTEQ6L1_DYmumu_1250M1500		0.001422		1.0000E+00		1.0		0.0		0.0		Powheg(v1_r2856)+Pythia8(v8.186)+EvtGen(v1.2.0)+Photospp
301028		PowhegPythia8EvtGen_AZNLOCTEQ6L1_DYmumu_1500M1750		0.00054526		1.0000E+00		1.0		0.0		0.0		Powheg(v1_r2856)+Pythia8(v8.186)+EvtGen(v1.2.0)+Photospp
301029		PowhegPythia8EvtGen_AZNLOCTEQ6L1_DYmumu_1750M2000		0.00022992		1.0000E+00		1.0		0.0		0.0		Powheg(v1_r2856)+Pythia8(v8.186)+EvtGen(v1.2.0)+Photospp
301030		PowhegPythia8EvtGen_AZNLOCTEQ6L1_DYmumu_2000M2250		0.00010386		1.0000E+00		1.0		0.0		0.0		Powheg(v1_r2856)+Pythia8(v8.186)+EvtGen(v1.2.0)+Photospp
301031		PowhegPythia8EvtGen_AZNLOCTEQ6L1_DYmumu_2250M2500		4.9404e-05		1.0000E+00		1.0		0.0		0.0		Powheg(v1_r2856)+Pythia8(v8.186)+EvtGen(v1.2.0)+Photospp
301032		PowhegPythia8EvtGen_AZNLOCTEQ6L1_DYmumu_2500M2750		2.4454e-05		1.0000E+00		1.0		0.0		0.0		Powheg(v1_r2856)+Pythia8(v8.186)+EvtGen(v1.2.0)+Photospp
301033		PowhegPythia8EvtGen_AZNLOCTEQ6L1_DYmumu_2750M3000		1.249e-05		1.0000E+00		1.0		0.0		0.0		Powheg(v1_r2856)+Pythia8(v8.186)+EvtGen(v1.2.0)+Photospp
301034		PowhegPythia8EvtGen_AZNLOCTEQ6L1_DYmumu_3000M3500		1.003e-05		1.0000E+00		1.0		0.0		0.0		Powheg(v1_r2856)+Pythia8(v8.186)+EvtGen(v1.2.0)+Photospp
301035		PowhegPythia8EvtGen_AZNLOCTEQ6L1_DYmumu_3500M4000		2.9344e-06		1.0000E+00		1.0		0.0		0.0		Powheg(v1_r2856)+Pythia8(v8.186)+EvtGen(v1.2.0)+Photospp
301036		PowhegPythia8EvtGen_AZNLOCTEQ6L1_DYmumu_4000M4500		8.9767e-07		1.0000E+00		1.0		0.0		0.0		Powheg(v1_r2856)+Pythia8(v8.186)+EvtGen(v1.2.0)+Photospp
301037		PowhegPythia8EvtGen_AZNLOCTEQ6L1_DYmumu_4500M5000		2.8071e-07		1.0000E+00		1.0		0.0		0.0		Powheg(v1_r2856)+Pythia8(v8.186)+EvtGen(v1.2.0)+Photospp
301038		PowhegPythia8EvtGen_AZNLOCTEQ6L1_DYmumu_5000M		1.2648e-07		1.0000E+00		1.0		0.0		0.0		Powheg(v1_r2856)+Pythia8(v8.186)+EvtGen(v1.2.0)+Photospp
301040		PowhegPythia8EvtGen_AZNLOCTEQ6L1_DYtautau_120M180		17.476		1.0000E+00		1.0		0.0		0.0		Powheg(v1_r2856)+Pythia8(v8.186)+EvtGen(v1.2.0)
301041		PowhegPythia8EvtGen_AZNLOCTEQ6L1_DYtautau_180M250		2.9211		1.0000E+00		1.0		0.0		0.0		Powheg(v1_r2856)+Pythia8(v8.186)+EvtGen(v1.2.0)
301042		PowhegPythia8EvtGen_AZNLOCTEQ6L1_DYtautau_250M400		1.082		1.0000E+00		1.0		0.0		0.0		Powheg(v1_r2856)+Pythia8(v8.186)+EvtGen(v1.2.0)
301043		PowhegPythia8EvtGen_AZNLOCTEQ6L1_DYtautau_400M600		0.19551		1.0000E+00		1.0		0.0		0.0		Powheg(v1_r2856)+Pythia8(v8.186)+EvtGen(v1.2.0)
301044		PowhegPythia8EvtGen_AZNLOCTEQ6L1_DYtautau_600M800		0.037402		1.0000E+00		1.0		0.0		0.0		Powheg(v1_r2856)+Pythia8(v8.186)+EvtGen(v1.2.0)
301045		PowhegPythia8EvtGen_AZNLOCTEQ6L1_DYtautau_800M1000		0.010607		1.0000E+00		1.0		0.0		0.0		Powheg(v1_r2856)+Pythia8(v8.186)+EvtGen(v1.2.0)
301046		PowhegPythia8EvtGen_AZNLOCTEQ6L1_DYtautau_1000M1250		0.0042584		1.0000E+00		1.0		0.0		0.0		Powheg(v1_r2856)+Pythia8(v8.186)+EvtGen(v1.2.0)
301047		PowhegPythia8EvtGen_AZNLOCTEQ6L1_DYtautau_1250M1500		0.001422		1.0000E+00		1.0		0.0		0.0		Powheg(v1_r2856)+Pythia8(v8.186)+EvtGen(v1.2.0)
301048		PowhegPythia8EvtGen_AZNLOCTEQ6L1_DYtautau_1500M1750		0.00054527		1.0000E+00		1.0		0.0		0.0		Powheg(v1_r2856)+Pythia8(v8.186)+EvtGen(v1.2.0)
301049		PowhegPythia8EvtGen_AZNLOCTEQ6L1_DYtautau_1750M2000		0.00022992		1.0000E+00		1.0		0.0		0.0		Powheg(v1_r2856)+Pythia8(v8.186)+EvtGen(v1.2.0)
301050		PowhegPythia8EvtGen_AZNLOCTEQ6L1_DYtautau_2000M2250		0.00010387		1.0000E+00		1.0		0.0		0.0		Powheg(v1_r2856)+Pythia8(v8.186)+EvtGen(v1.2.0)
301051		PowhegPythia8EvtGen_AZNLOCTEQ6L1_DYtautau_2250M2500		4.9404e-05		1.0000E+00		1.0		0.0		0.0		Powheg(v1_r2856)+Pythia8(v8.186)+EvtGen(v1.2.0)
301052		PowhegPythia8EvtGen_AZNLOCTEQ6L1_DYtautau_2500M2750		2.4455e-05		1.0000E+00		1.0		0.0		0.0		Powheg(v1_r2856)+Pythia8(v8.186)+EvtGen(v1.2.0)
301053		PowhegPythia8EvtGen_AZNLOCTEQ6L1_DYtautau_2750M3000		1.249e-05		1.0000E+00		1.0		0.0		0.0		Powheg(v1_r2856)+Pythia8(v8.186)+EvtGen(v1.2.0)
301054		PowhegPythia8EvtGen_AZNLOCTEQ6L1_DYtautau_3000M3500		1.003e-05		1.0000E+00		1.0		0.0		0.0		Powheg(v1_r2856)+Pythia8(v8.186)+EvtGen(v1.2.0)
301055		PowhegPythia8EvtGen_AZNLOCTEQ6L1_DYtautau_3500M4000		2.934e-06		1.0000E+00		1.0		0.0		0.0		Powheg(v1_r2856)+Pythia8(v8.186)+EvtGen(v1.2.0)
301056		PowhegPythia8EvtGen_AZNLOCTEQ6L1_DYtautau_4000M4500		8.9769e-07		1.0000E+00		1.0		0.0		0.0		Powheg(v1_r2856)+Pythia8(v8.186)+EvtGen(v1.2.0)
301057		PowhegPythia8EvtGen_AZNLOCTEQ6L1_DYtautau_4500M5000		2.8073e-07		1.0000E+00		1.0		0.0		0.0		Powheg(v1_r2856)+Pythia8(v8.186)+EvtGen(v1.2.0)
301058		PowhegPythia8EvtGen_AZNLOCTEQ6L1_DYtautau_5000M		1.2648e-07		1.0000E+00		1.0		0.0		0.0		Powheg(v1_r2856)+Pythia8(v8.186)+EvtGen(v1.2.0)
301060		PowhegPythia8EvtGen_AZNLOCTEQ6L1_Wplusenu_120M180		32.06		1.0000E+00		1.0		0.0		0.0		Powheg(v1_r2856)+Pythia8(v8.186)+EvtGen(v1.2.0)+Photospp
301061		PowhegPythia8EvtGen_AZNLOCTEQ6L1_Wplusenu_180M250		5.0034		1.0000E+00		1.0		0.0		0.0		Powheg(v1_r2856)+Pythia8(v8.186)+EvtGen(v1.2.0)+Photospp
301062		PowhegPythia8EvtGen_AZNLOCTEQ6L1_Wplusenu_250M400		1.7546		1.0000E+00		1.0		0.0		0.0		Powheg(v1_r2856)+Pythia8(v8.186)+EvtGen(v1.2.0)+Photospp
301063		PowhegPythia8EvtGen_AZNLOCTEQ6L1_Wplusenu_400M600		0.31237		1.0000E+00		1.0		0.0		0.0		Powheg(v1_r2856)+Pythia8(v8.186)+EvtGen(v1.2.0)+Photospp
301064		PowhegPythia8EvtGen_AZNLOCTEQ6L1_Wplusenu_600M800		0.060788		1.0000E+00		1.0		0.0		0.0		Powheg(v1_r2856)+Pythia8(v8.186)+EvtGen(v1.2.0)+Photospp
301065		PowhegPythia8EvtGen_AZNLOCTEQ6L1_Wplusenu_800M1000		0.017666		1.0000E+00		1.0		0.0		0.0		Powheg(v1_r2856)+Pythia8(v8.186)+EvtGen(v1.2.0)+Photospp
301066		PowhegPythia8EvtGen_AZNLOCTEQ6L1_Wplusenu_1000M1250		0.0072889		1.0000E+00		1.0		0.0		0.0		Powheg(v1_r2856)+Pythia8(v8.186)+EvtGen(v1.2.0)+Photospp
301067		PowhegPythia8EvtGen_AZNLOCTEQ6L1_Wplusenu_1250M1500		0.0025068		1.0000E+00		1.0		0.0		0.0		Powheg(v1_r2856)+Pythia8(v8.186)+EvtGen(v1.2.0)+Photospp
301068		PowhegPythia8EvtGen_AZNLOCTEQ6L1_Wplusenu_1500M1750		0.00098618		1.0000E+00		1.0		0.0		0.0		Powheg(v1_r2856)+Pythia8(v8.186)+EvtGen(v1.2.0)+Photospp
301069		PowhegPythia8EvtGen_AZNLOCTEQ6L1_Wplusenu_1750M2000		0.0004245		1.0000E+00		1.0		0.0		0.0		Powheg(v1_r2856)+Pythia8(v8.186)+EvtGen(v1.2.0)+Photospp
301070		PowhegPythia8EvtGen_AZNLOCTEQ6L1_Wplusenu_2000M2250		0.00019462		1.0000E+00		1.0		0.0		0.0		Powheg(v1_r2856)+Pythia8(v8.186)+EvtGen(v1.2.0)+Photospp
301071		PowhegPythia8EvtGen_AZNLOCTEQ6L1_Wplusenu_2250M2500		9.334e-05		1.0000E+00		1.0		0.0		0.0		Powheg(v1_r2856)+Pythia8(v8.186)+EvtGen(v1.2.0)+Photospp
301072		PowhegPythia8EvtGen_AZNLOCTEQ6L1_Wplusenu_2500M2750		4.6256e-05		1.0000E+00		1.0		0.0		0.0		Powheg(v1_r2856)+Pythia8(v8.186)+EvtGen(v1.2.0)+Photospp
301073		PowhegPythia8EvtGen_AZNLOCTEQ6L1_Wplusenu_2750M3000		2.3473e-05		1.0000E+00		1.0		0.0		0.0		Powheg(v1_r2856)+Pythia8(v8.186)+EvtGen(v1.2.0)+Photospp
301074		PowhegPythia8EvtGen_AZNLOCTEQ6L1_Wplusenu_3000M3500		1.8447e-05		1.0000E+00		1.0		0.0		0.0		Powheg(v1_r2856)+Pythia8(v8.186)+EvtGen(v1.2.0)+Photospp
301075		PowhegPythia8EvtGen_AZNLOCTEQ6L1_Wplusenu_3500M4000		5.0963e-06		1.0000E+00		1.0		0.0		0.0		Powheg(v1_r2856)+Pythia8(v8.186)+EvtGen(v1.2.0)+Photospp
301076		PowhegPythia8EvtGen_AZNLOCTEQ6L1_Wplusenu_4000M4500		1.4305e-06		1.0000E+00		1.0		0.0		0.0		Powheg(v1_r2856)+Pythia8(v8.186)+EvtGen(v1.2.0)+Photospp
301077		PowhegPythia8EvtGen_AZNLOCTEQ6L1_Wplusenu_4500M5000		4.0123e-07		1.0000E+00		1.0		0.0		0.0		Powheg(v1_r2856)+Pythia8(v8.186)+EvtGen(v1.2.0)+Photospp
301078		PowhegPythia8EvtGen_AZNLOCTEQ6L1_Wplusenu_5000M		1.5341e-07		1.0000E+00		1.0		0.0		0.0		Powheg(v1_r2856)+Pythia8(v8.186)+EvtGen(v1.2.0)+Photospp
301080		PowhegPythia8EvtGen_AZNLOCTEQ6L1_Wminenu_120M180		22.194		1.0000E+00		1.0		0.0		0.0		Powheg(v1_r2856)+Pythia8(v8.186)+EvtGen(v1.2.0)+Photospp
301081		PowhegPythia8EvtGen_AZNLOCTEQ6L1_Wminenu_180M250		3.2847		1.0000E+00		1.0		0.0		0.0		Powheg(v1_r2856)+Pythia8(v8.186)+EvtGen(v1.2.0)+Photospp
301082		PowhegPythia8EvtGen_AZNLOCTEQ6L1_Wminenu_250M400		1.083		1.0000E+00		1.0		0.0		0.0		Powheg(v1_r2856)+Pythia8(v8.186)+EvtGen(v1.2.0)+Photospp
301083		PowhegPythia8EvtGen_AZNLOCTEQ6L1_Wminenu_400M600		0.1754		1.0000E+00		1.0		0.0		0.0		Powheg(v1_r2856)+Pythia8(v8.186)+EvtGen(v1.2.0)+Photospp
301084		PowhegPythia8EvtGen_AZNLOCTEQ6L1_Wminenu_600M800		0.030979		1.0000E+00		1.0		0.0		0.0		Powheg(v1_r2856)+Pythia8(v8.186)+EvtGen(v1.2.0)+Photospp
301085		PowhegPythia8EvtGen_AZNLOCTEQ6L1_Wminenu_800M1000		0.0082863		1.0000E+00		1.0		0.0		0.0		Powheg(v1_r2856)+Pythia8(v8.186)+EvtGen(v1.2.0)+Photospp
301086		PowhegPythia8EvtGen_AZNLOCTEQ6L1_Wminenu_1000M1250		0.0031592		1.0000E+00		1.0		0.0		0.0		Powheg(v1_r2856)+Pythia8(v8.186)+EvtGen(v1.2.0)+Photospp
301087		PowhegPythia8EvtGen_AZNLOCTEQ6L1_Wminenu_1250M1500		0.0010025		1.0000E+00		1.0		0.0		0.0		Powheg(v1_r2856)+Pythia8(v8.186)+EvtGen(v1.2.0)+Photospp
301088		PowhegPythia8EvtGen_AZNLOCTEQ6L1_Wminenu_1500M1750		0.00036812		1.0000E+00		1.0		0.0		0.0		Powheg(v1_r2856)+Pythia8(v8.186)+EvtGen(v1.2.0)+Photospp
301089		PowhegPythia8EvtGen_AZNLOCTEQ6L1_Wminenu_1750M2000		0.00014946		1.0000E+00		1.0		0.0		0.0		Powheg(v1_r2856)+Pythia8(v8.186)+EvtGen(v1.2.0)+Photospp
301090		PowhegPythia8EvtGen_AZNLOCTEQ6L1_Wminenu_2000M2250		6.5308e-05		1.0000E+00		1.0		0.0		0.0		Powheg(v1_r2856)+Pythia8(v8.186)+EvtGen(v1.2.0)+Photospp
301091		PowhegPythia8EvtGen_AZNLOCTEQ6L1_Wminenu_2250M2500		3.0167e-05		1.0000E+00		1.0		0.0		0.0		Powheg(v1_r2856)+Pythia8(v8.186)+EvtGen(v1.2.0)+Photospp
301092		PowhegPythia8EvtGen_AZNLOCTEQ6L1_Wminenu_2500M2750		1.4548e-05		1.0000E+00		1.0		0.0		0.0		Powheg(v1_r2856)+Pythia8(v8.186)+EvtGen(v1.2.0)+Photospp
301093		PowhegPythia8EvtGen_AZNLOCTEQ6L1_Wminenu_2750M3000		7.2586e-06		1.0000E+00		1.0		0.0		0.0		Powheg(v1_r2856)+Pythia8(v8.186)+EvtGen(v1.2.0)+Photospp
301094		PowhegPythia8EvtGen_AZNLOCTEQ6L1_Wminenu_3000M3500		5.6689e-06		1.0000E+00		1.0		0.0		0.0		Powheg(v1_r2856)+Pythia8(v8.186)+EvtGen(v1.2.0)+Photospp
301095		PowhegPythia8EvtGen_AZNLOCTEQ6L1_Wminenu_3500M4000		1.5973e-06		1.0000E+00		1.0		0.0		0.0		Powheg(v1_r2856)+Pythia8(v8.186)+EvtGen(v1.2.0)+Photospp
301096		PowhegPythia8EvtGen_AZNLOCTEQ6L1_Wminenu_4000M4500		4.7207e-07		1.0000E+00		1.0		0.0		0.0		Powheg(v1_r2856)+Pythia8(v8.186)+EvtGen(v1.2.0)+Photospp
301097		PowhegPythia8EvtGen_AZNLOCTEQ6L1_Wminenu_4500M5000		1.4279e-07		1.0000E+00		1.0		0.0		0.0		Powheg(v1_r2856)+Pythia8(v8.186)+EvtGen(v1.2.0)+Photospp
301098		PowhegPythia8EvtGen_AZNLOCTEQ6L1_Wminenu_5000M		6.1619e-08		1.0000E+00		1.0		0.0		0.0		Powheg(v1_r2856)+Pythia8(v8.186)+EvtGen(v1.2.0)+Photospp
301100		PowhegPythia8EvtGen_AZNLOCTEQ6L1_Wplusmunu_120M180		32.06		1.0000E+00		1.0		0.0		0.0		Powheg(v1_r2856)+Pythia8(v8.186)+EvtGen(v1.2.0)+Photospp
301101		PowhegPythia8EvtGen_AZNLOCTEQ6L1_Wplusmunu_180M250		5.0034		1.0000E+00		1.0		0.0		0.0		Powheg(v1_r2856)+Pythia8(v8.186)+EvtGen(v1.2.0)+Photospp
301102		PowhegPythia8EvtGen_AZNLOCTEQ6L1_Wplusmunu_250M400		1.7546		1.0000E+00		1.0		0.0		0.0		Powheg(v1_r2856)+Pythia8(v8.186)+EvtGen(v1.2.0)+Photospp
301103		PowhegPythia8EvtGen_AZNLOCTEQ6L1_Wplusmunu_400M600		0.31237		1.0000E+00		1.0		0.0		0.0		Powheg(v1_r2856)+Pythia8(v8.186)+EvtGen(v1.2.0)+Photospp
301104		PowhegPythia8EvtGen_AZNLOCTEQ6L1_Wplusmunu_600M800		0.060788		1.0000E+00		1.0		0.0		0.0		Powheg(v1_r2856)+Pythia8(v8.186)+EvtGen(v1.2.0)+Photospp
301105		PowhegPythia8EvtGen_AZNLOCTEQ6L1_Wplusmunu_800M1000		0.017666		1.0000E+00		1.0		0.0		0.0		Powheg(v1_r2856)+Pythia8(v8.186)+EvtGen(v1.2.0)+Photospp
301106		PowhegPythia8EvtGen_AZNLOCTEQ6L1_Wplusmunu_1000M1250		0.0072888		1.0000E+00		1.0		0.0		0.0		Powheg(v1_r2856)+Pythia8(v8.186)+EvtGen(v1.2.0)+Photospp
301107		PowhegPythia8EvtGen_AZNLOCTEQ6L1_Wplusmunu_1250M1500		0.0025068		1.0000E+00		1.0		0.0		0.0		Powheg(v1_r2856)+Pythia8(v8.186)+EvtGen(v1.2.0)+Photospp
301108		PowhegPythia8EvtGen_AZNLOCTEQ6L1_Wplusmunu_1500M1750		0.00098621		1.0000E+00		1.0		0.0		0.0		Powheg(v1_r2856)+Pythia8(v8.186)+EvtGen(v1.2.0)+Photospp
301109		PowhegPythia8EvtGen_AZNLOCTEQ6L1_Wplusmunu_1750M2000		0.00042453		1.0000E+00		1.0		0.0		0.0		Powheg(v1_r2856)+Pythia8(v8.186)+EvtGen(v1.2.0)+Photospp
301110		PowhegPythia8EvtGen_AZNLOCTEQ6L1_Wplusmunu_2000M2250		0.00019462		1.0000E+00		1.0		0.0		0.0		Powheg(v1_r2856)+Pythia8(v8.186)+EvtGen(v1.2.0)+Photospp
301111		PowhegPythia8EvtGen_AZNLOCTEQ6L1_Wplusmunu_2250M2500		9.334e-05		1.0000E+00		1.0		0.0		0.0		Powheg(v1_r2856)+Pythia8(v8.186)+EvtGen(v1.2.0)+Photospp
301112		PowhegPythia8EvtGen_AZNLOCTEQ6L1_Wplusmunu_2500M2750		4.6256e-05		1.0000E+00		1.0		0.0		0.0		Powheg(v1_r2856)+Pythia8(v8.186)+EvtGen(v1.2.0)+Photospp
301113		PowhegPythia8EvtGen_AZNLOCTEQ6L1_Wplusmunu_2750M3000		2.3473e-05		1.0000E+00		1.0		0.0		0.0		Powheg(v1_r2856)+Pythia8(v8.186)+EvtGen(v1.2.0)+Photospp
301114		PowhegPythia8EvtGen_AZNLOCTEQ6L1_Wplusmunu_3000M3500		1.8447e-05		1.0000E+00		1.0		0.0		0.0		Powheg(v1_r2856)+Pythia8(v8.186)+EvtGen(v1.2.0)+Photospp
301115		PowhegPythia8EvtGen_AZNLOCTEQ6L1_Wplusmunu_3500M4000		5.0963e-06		1.0000E+00		1.0		0.0		0.0		Powheg(v1_r2856)+Pythia8(v8.186)+EvtGen(v1.2.0)+Photospp
301116		PowhegPythia8EvtGen_AZNLOCTEQ6L1_Wplusmunu_4000M4500		1.4305e-06		1.0000E+00		1.0		0.0		0.0		Powheg(v1_r2856)+Pythia8(v8.186)+EvtGen(v1.2.0)+Photospp
301117		PowhegPythia8EvtGen_AZNLOCTEQ6L1_Wplusmunu_4500M5000		4.0124e-07		1.0000E+00		1.0		0.0		0.0		Powheg(v1_r2856)+Pythia8(v8.186)+EvtGen(v1.2.0)+Photospp
301118		PowhegPythia8EvtGen_AZNLOCTEQ6L1_Wplusmunu_5000M		1.5341e-07		1.0000E+00		1.0		0.0		0.0		Powheg(v1_r2856)+Pythia8(v8.186)+EvtGen(v1.2.0)+Photospp
301120		PowhegPythia8EvtGen_AZNLOCTEQ6L1_Wminmunu_120M180		22.194		1.0000E+00		1.0		0.0		0.0		Powheg(v1_r2856)+Pythia8(v8.186)+EvtGen(v1.2.0)+Photospp
301121		PowhegPythia8EvtGen_AZNLOCTEQ6L1_Wminmunu_180M250		3.2848		1.0000E+00		1.0		0.0		0.0		Powheg(v1_r2856)+Pythia8(v8.186)+EvtGen(v1.2.0)+Photospp
301122		PowhegPythia8EvtGen_AZNLOCTEQ6L1_Wminmunu_250M400		1.083		1.0000E+00		1.0		0.0		0.0		Powheg(v1_r2856)+Pythia8(v8.186)+EvtGen(v1.2.0)+Photospp
301123		PowhegPythia8EvtGen_AZNLOCTEQ6L1_Wminmunu_400M600		0.1754		1.0000E+00		1.0		0.0		0.0		Powheg(v1_r2856)+Pythia8(v8.186)+EvtGen(v1.2.0)+Photospp
301124		PowhegPythia8EvtGen_AZNLOCTEQ6L1_Wminmunu_600M800		0.030979		1.0000E+00		1.0		0.0		0.0		Powheg(v1_r2856)+Pythia8(v8.186)+EvtGen(v1.2.0)+Photospp
301125		PowhegPythia8EvtGen_AZNLOCTEQ6L1_Wminmunu_800M1000		0.0082863		1.0000E+00		1.0		0.0		0.0		Powheg(v1_r2856)+Pythia8(v8.186)+EvtGen(v1.2.0)+Photospp
301126		PowhegPythia8EvtGen_AZNLOCTEQ6L1_Wminmunu_1000M1250		0.0031592		1.0000E+00		1.0		0.0		0.0		Powheg(v1_r2856)+Pythia8(v8.186)+EvtGen(v1.2.0)+Photospp
301127		PowhegPythia8EvtGen_AZNLOCTEQ6L1_Wminmunu_1250M1500		0.0010027		1.0000E+00		1.0		0.0		0.0		Powheg(v1_r2856)+Pythia8(v8.186)+EvtGen(v1.2.0)+Photospp
301128		PowhegPythia8EvtGen_AZNLOCTEQ6L1_Wminmunu_1500M1750		0.00036812		1.0000E+00		1.0		0.0		0.0		Powheg(v1_r2856)+Pythia8(v8.186)+EvtGen(v1.2.0)+Photospp
301129		PowhegPythia8EvtGen_AZNLOCTEQ6L1_Wminmunu_1750M2000		0.00014946		1.0000E+00		1.0		0.0		0.0		Powheg(v1_r2856)+Pythia8(v8.186)+EvtGen(v1.2.0)+Photospp
301130		PowhegPythia8EvtGen_AZNLOCTEQ6L1_Wminmunu_2000M2250		6.5308e-05		1.0000E+00		1.0		0.0		0.0		Powheg(v1_r2856)+Pythia8(v8.186)+EvtGen(v1.2.0)+Photospp
301131		PowhegPythia8EvtGen_AZNLOCTEQ6L1_Wminmunu_2250M2500		3.0167e-05		1.0000E+00		1.0		0.0		0.0		Powheg(v1_r2856)+Pythia8(v8.186)+EvtGen(v1.2.0)+Photospp
301132		PowhegPythia8EvtGen_AZNLOCTEQ6L1_Wminmunu_2500M2750		1.4548e-05		1.0000E+00		1.0		0.0		0.0		Powheg(v1_r2856)+Pythia8(v8.186)+EvtGen(v1.2.0)+Photospp
301133		PowhegPythia8EvtGen_AZNLOCTEQ6L1_Wminmunu_2750M3000		7.2586e-06		1.0000E+00		1.0		0.0		0.0		Powheg(v1_r2856)+Pythia8(v8.186)+EvtGen(v1.2.0)+Photospp
301134		PowhegPythia8EvtGen_AZNLOCTEQ6L1_Wminmunu_3000M3500		5.6689e-06		1.0000E+00		1.0		0.0		0.0		Powheg(v1_r2856)+Pythia8(v8.186)+EvtGen(v1.2.0)+Photospp
301135		PowhegPythia8EvtGen_AZNLOCTEQ6L1_Wminmunu_3500M4000		1.5973e-06		1.0000E+00		1.0		0.0		0.0		Powheg(v1_r2856)+Pythia8(v8.186)+EvtGen(v1.2.0)+Photospp
301136		PowhegPythia8EvtGen_AZNLOCTEQ6L1_Wminmunu_4000M4500		4.7207e-07		1.0000E+00		1.0		0.0		0.0		Powheg(v1_r2856)+Pythia8(v8.186)+EvtGen(v1.2.0)+Photospp
301137		PowhegPythia8EvtGen_AZNLOCTEQ6L1_Wminmunu_4500M5000		1.4279e-07		1.0000E+00		1.0		0.0		0.0		Powheg(v1_r2856)+Pythia8(v8.186)+EvtGen(v1.2.0)+Photospp
301138		PowhegPythia8EvtGen_AZNLOCTEQ6L1_Wminmunu_5000M		6.1619e-08		1.0000E+00		1.0		0.0		0.0		Powheg(v1_r2856)+Pythia8(v8.186)+EvtGen(v1.2.0)+Photospp
301140		PowhegPythia8EvtGen_AZNLOCTEQ6L1_Wplustaunu_120M180		32.059		1.0000E+00		1.0		0.0		0.0		Powheg(v1_r2856)+Pythia8(v8.186)+EvtGen(v1.2.0)
301141		PowhegPythia8EvtGen_AZNLOCTEQ6L1_Wplustaunu_180M250		5.0033		1.0000E+00		1.0		0.0		0.0		Powheg(v1_r2856)+Pythia8(v8.186)+EvtGen(v1.2.0)
301142		PowhegPythia8EvtGen_AZNLOCTEQ6L1_Wplustaunu_250M400		1.7545		1.0000E+00		1.0		0.0		0.0		Powheg(v1_r2856)+Pythia8(v8.186)+EvtGen(v1.2.0)
301143		PowhegPythia8EvtGen_AZNLOCTEQ6L1_Wplustaunu_400M600		0.31237		1.0000E+00		1.0		0.0		0.0		Powheg(v1_r2856)+Pythia8(v8.186)+EvtGen(v1.2.0)
301144		PowhegPythia8EvtGen_AZNLOCTEQ6L1_Wplustaunu_600M800		0.060788		1.0000E+00		1.0		0.0		0.0		Powheg(v1_r2856)+Pythia8(v8.186)+EvtGen(v1.2.0)
301145		PowhegPythia8EvtGen_AZNLOCTEQ6L1_Wplustaunu_800M1000		0.017666		1.0000E+00		1.0		0.0		0.0		Powheg(v1_r2856)+Pythia8(v8.186)+EvtGen(v1.2.0)
301146		PowhegPythia8EvtGen_AZNLOCTEQ6L1_Wplustaunu_1000M1250		0.0072888		1.0000E+00		1.0		0.0		0.0		Powheg(v1_r2856)+Pythia8(v8.186)+EvtGen(v1.2.0)
301147		PowhegPythia8EvtGen_AZNLOCTEQ6L1_Wplustaunu_1250M1500		0.0025068		1.0000E+00		1.0		0.0		0.0		Powheg(v1_r2856)+Pythia8(v8.186)+EvtGen(v1.2.0)
301148		PowhegPythia8EvtGen_AZNLOCTEQ6L1_Wplustaunu_1500M1750		0.00098621		1.0000E+00		1.0		0.0		0.0		Powheg(v1_r2856)+Pythia8(v8.186)+EvtGen(v1.2.0)
301149		PowhegPythia8EvtGen_AZNLOCTEQ6L1_Wplustaunu_1750M2000		0.00042453		1.0000E+00		1.0		0.0		0.0		Powheg(v1_r2856)+Pythia8(v8.186)+EvtGen(v1.2.0)
301150		PowhegPythia8EvtGen_AZNLOCTEQ6L1_Wplustaunu_2000M2250		0.00019462		1.0000E+00		1.0		0.0		0.0		Powheg(v1_r2856)+Pythia8(v8.186)+EvtGen(v1.2.0)
301151		PowhegPythia8EvtGen_AZNLOCTEQ6L1_Wplustaunu_2250M2500		9.334e-05		1.0000E+00		1.0		0.0		0.0		Powheg(v1_r2856)+Pythia8(v8.186)+EvtGen(v1.2.0)
301152		PowhegPythia8EvtGen_AZNLOCTEQ6L1_Wplustaunu_2500M2750		4.6256e-05		1.0000E+00		1.0		0.0		0.0		Powheg(v1_r2856)+Pythia8(v8.186)+EvtGen(v1.2.0)
301153		PowhegPythia8EvtGen_AZNLOCTEQ6L1_Wplustaunu_2750M3000		2.3473e-05		1.0000E+00		1.0		0.0		0.0		Powheg(v1_r2856)+Pythia8(v8.186)+EvtGen(v1.2.0)
301154		PowhegPythia8EvtGen_AZNLOCTEQ6L1_Wplustaunu_3000M3500		1.8446e-05		1.0000E+00		1.0		0.0		0.0		Powheg(v1_r2856)+Pythia8(v8.186)+EvtGen(v1.2.0)
301155		PowhegPythia8EvtGen_AZNLOCTEQ6L1_Wplustaunu_3500M4000		5.0963e-06		1.0000E+00		1.0		0.0		0.0		Powheg(v1_r2856)+Pythia8(v8.186)+EvtGen(v1.2.0)
301156		PowhegPythia8EvtGen_AZNLOCTEQ6L1_Wplustaunu_4000M4500		1.4305e-06		1.0000E+00		1.0		0.0		0.0		Powheg(v1_r2856)+Pythia8(v8.186)+EvtGen(v1.2.0)
301157		PowhegPythia8EvtGen_AZNLOCTEQ6L1_Wplustaunu_4500M5000		4.0123e-07		1.0000E+00		1.0		0.0		0.0		Powheg(v1_r2856)+Pythia8(v8.186)+EvtGen(v1.2.0)
301158		PowhegPythia8EvtGen_AZNLOCTEQ6L1_Wplustaunu_5000M		1.5342e-07		1.0000E+00		1.0		0.0		0.0		Powheg(v1_r2856)+Pythia8(v8.186)+EvtGen(v1.2.0)
301160		PowhegPythia8EvtGen_AZNLOCTEQ6L1_Wmintaunu_120M180		22.193		1.0000E+00		1.0		0.0		0.0		Powheg(v1_r2856)+Pythia8(v8.186)+EvtGen(v1.2.0)
301161		PowhegPythia8EvtGen_AZNLOCTEQ6L1_Wmintaunu_180M250		3.2849		1.0000E+00		1.0		0.0		0.0		Powheg(v1_r2856)+Pythia8(v8.186)+EvtGen(v1.2.0)
301162		PowhegPythia8EvtGen_AZNLOCTEQ6L1_Wmintaunu_250M400		1.0831		1.0000E+00		1.0		0.0		0.0		Powheg(v1_r2856)+Pythia8(v8.186)+EvtGen(v1.2.0)
301163		PowhegPythia8EvtGen_AZNLOCTEQ6L1_Wmintaunu_400M600		0.1754		1.0000E+00		1.0		0.0		0.0		Powheg(v1_r2856)+Pythia8(v8.186)+EvtGen(v1.2.0)
301164		PowhegPythia8EvtGen_AZNLOCTEQ6L1_Wmintaunu_600M800		0.030979		1.0000E+00		1.0		0.0		0.0		Powheg(v1_r2856)+Pythia8(v8.186)+EvtGen(v1.2.0)
301165		PowhegPythia8EvtGen_AZNLOCTEQ6L1_Wmintaunu_800M1000		0.0082862		1.0000E+00		1.0		0.0		0.0		Powheg(v1_r2856)+Pythia8(v8.186)+EvtGen(v1.2.0)
301166		PowhegPythia8EvtGen_AZNLOCTEQ6L1_Wmintaunu_1000M1250		0.0031593		1.0000E+00		1.0		0.0		0.0		Powheg(v1_r2856)+Pythia8(v8.186)+EvtGen(v1.2.0)
301167		PowhegPythia8EvtGen_AZNLOCTEQ6L1_Wmintaunu_1250M1500		0.0010027		1.0000E+00		1.0		0.0		0.0		Powheg(v1_r2856)+Pythia8(v8.186)+EvtGen(v1.2.0)
301168		PowhegPythia8EvtGen_AZNLOCTEQ6L1_Wmintaunu_1500M1750		0.00036812		1.0000E+00		1.0		0.0		0.0		Powheg(v1_r2856)+Pythia8(v8.186)+EvtGen(v1.2.0)
301169		PowhegPythia8EvtGen_AZNLOCTEQ6L1_Wmintaunu_1750M2000		0.00014946		1.0000E+00		1.0		0.0		0.0		Powheg(v1_r2856)+Pythia8(v8.186)+EvtGen(v1.2.0)
301170		PowhegPythia8EvtGen_AZNLOCTEQ6L1_Wmintaunu_2000M2250		6.5307e-05		1.0000E+00		1.0		0.0		0.0		Powheg(v1_r2856)+Pythia8(v8.186)+EvtGen(v1.2.0)
301171		PowhegPythia8EvtGen_AZNLOCTEQ6L1_Wmintaunu_2250M2500		3.0167e-05		1.0000E+00		1.0		0.0		0.0		Powheg(v1_r2856)+Pythia8(v8.186)+EvtGen(v1.2.0)
301172		PowhegPythia8EvtGen_AZNLOCTEQ6L1_Wmintaunu_2500M2750		1.4548e-05		1.0000E+00		1.0		0.0		0.0		Powheg(v1_r2856)+Pythia8(v8.186)+EvtGen(v1.2.0)
301173		PowhegPythia8EvtGen_AZNLOCTEQ6L1_Wmintaunu_2750M3000		7.2586e-06		1.0000E+00		1.0		0.0		0.0		Powheg(v1_r2856)+Pythia8(v8.186)+EvtGen(v1.2.0)
301174		PowhegPythia8EvtGen_AZNLOCTEQ6L1_Wmintaunu_3000M3500		5.6689e-06		1.0000E+00		1.0		0.0		0.0		Powheg(v1_r2856)+Pythia8(v8.186)+EvtGen(v1.2.0)
301175		PowhegPythia8EvtGen_AZNLOCTEQ6L1_Wmintaunu_3500M4000		1.5973e-06		1.0000E+00		1.0		0.0		0.0		Powheg(v1_r2856)+Pythia8(v8.186)+EvtGen(v1.2.0)
301176		PowhegPythia8EvtGen_AZNLOCTEQ6L1_Wmintaunu_4000M4500		4.7207e-07		1.0000E+00		1.0		0.0		0.0		Powheg(v1_r2856)+Pythia8(v8.186)+EvtGen(v1.2.0)
301177		PowhegPythia8EvtGen_AZNLOCTEQ6L1_Wmintaunu_4500M5000		1.4279e-07		1.0000E+00		1.0		0.0		0.0		Powheg(v1_r2856)+Pythia8(v8.186)+EvtGen(v1.2.0)
301178		PowhegPythia8EvtGen_AZNLOCTEQ6L1_Wmintaunu_5000M		6.1619e-08		1.0000E+00		1.0		0.0		0.0		Powheg(v1_r2856)+Pythia8(v8.186)+EvtGen(v1.2.0)
304014		MadGraphPythia8EvtGen_A14NNPDF23_3top_SM		0.0016396		1.0000E+00		1.0		0.0		0.0		MadGraph5_aMC@NLO(v2.2.2.p6)+Pythia8(v8.186)+EvtGen(v1.2.0)
341421		PowhegPythia8EvtGen_CT10_AZNLO_WmH125J_MINLO_eveWWlvlv		0.00133517		1.0		1.0		0.0		0.0		Powheg(v2_r3033)+Pythia8(v8.186)+EvtGen(v1.2.0)
341422		PowhegPythia8EvtGen_CT10_AZNLO_WmH125J_MINLO_eveWWlvqq		0.01260673		0.43721		1.0		0.0		0.0		Powheg(v2_r3033)+Pythia8(v8.186)+EvtGen(v1.2.0)
341423		PowhegPythia8EvtGen_CT10_AZNLO_WmH125J_MINLO_muvmuWWlvlv		0.00133477		1.0		1.0		0.0		0.0		Powheg(v2_r3033)+Pythia8(v8.186)+EvtGen(v1.2.0)
341424		PowhegPythia8EvtGen_CT10_AZNLO_WmH125J_MINLO_muvmuWWlvqq		0.01266394		0.43691		1.0		0.0		0.0		Powheg(v2_r3033)+Pythia8(v8.186)+EvtGen(v1.2.0)
341425		PowhegPythia8EvtGen_CT10_AZNLO_WmH125J_MINLO_qqWWlvlv		0.0081733828		1.0		1.0		0.0		0.0		Powheg(v2_r3033)+Pythia8(v8.186)+EvtGen(v1.2.0)
341426		PowhegPythia8EvtGen_CT10_AZNLO_WmH125J_MINLO_qqWWlvqq		0.0774086		0.43638		1.0		0.0		0.0		Powheg(v2_r3033)+Pythia8(v8.186)+EvtGen(v1.2.0)
341427		PowhegPythia8EvtGen_CT10_AZNLO_WmH125J_MINLO_tauvtauWWlvlv		0.00119259351		1.0		1.0		0.0		0.0		Powheg(v2_r3033)+Pythia8(v8.186)+EvtGen(v1.2.0)
341428		PowhegPythia8EvtGen_CT10_AZNLO_WmH125J_MINLO_tauvtauWWlvqq		0.01132663		0.43882		1.0		0.0		0.0		Powheg(v2_r3033)+Pythia8(v8.186)+EvtGen(v1.2.0)
341429		PowhegPythia8EvtGen_CT10_AZNLO_WpH125J_MINLO_eveWWlvlv		0.0019265216		1.0		1.0		0.0		0.0		Powheg(v2_r3033)+Pythia8(v8.186)+EvtGen(v1.2.0)
341430		PowhegPythia8EvtGen_CT10_AZNLO_WpH125J_MINLO_eveWWlvqq		0.01829542		0.43565		1.0		0.0		0.0		Powheg(v2_r3033)+Pythia8(v8.186)+EvtGen(v1.2.0)
341431		PowhegPythia8EvtGen_CT10_AZNLO_WpH125J_MINLO_muvmuWWlvlv		0.0019265216		1.0		1.0		0.0		0.0		Powheg(v2_r3033)+Pythia8(v8.186)+EvtGen(v1.2.0)
341432		PowhegPythia8EvtGen_CT10_AZNLO_WpH125J_MINLO_muvmuWWlvqq		0.01828382		0.43778		1.0		0.0		0.0		Powheg(v2_r3033)+Pythia8(v8.186)+EvtGen(v1.2.0)
341433		PowhegPythia8EvtGen_CT10_AZNLO_WpH125J_MINLO_qqWWlvlv		0.01202130631		1.0		1.0		0.0		0.0		Powheg(v2_r3033)+Pythia8(v8.186)+EvtGen(v1.2.0)
341434		PowhegPythia8EvtGen_CT10_AZNLO_WpH125J_MINLO_qqWWlvqq		0.11404024		0.43909		1.0		0.0		0.0		Powheg(v2_r3033)+Pythia8(v8.186)+EvtGen(v1.2.0)
341435		PowhegPythia8EvtGen_CT10_AZNLO_WpH125J_MINLO_tauvtauWWlvlv		0.00192665752		1.0		1.0		0.0		0.0		Powheg(v2_r3033)+Pythia8(v8.186)+EvtGen(v1.2.0)
341436		PowhegPythia8EvtGen_CT10_AZNLO_WpH125J_MINLO_tauvtauWWlvqq		0.01829757		0.43823		1.0		0.0		0.0		Powheg(v2_r3033)+Pythia8(v8.186)+EvtGen(v1.2.0)
341449		PowhegPythia8EvtGen_CT10_AZNLO_ZH125J_MINLO_eeWWlvlv_VpT		0.00057647		1.0000E+00		1.0		0.0		0.0		Powheg(v2_r3033)+Pythia8(v8.186)+EvtGen(v1.2.0)
341450		PowhegPythia8EvtGen_CT10_AZNLO_ZH125J_MINLO_eeWWlvqq_VpT		0.025166		4.3738E-01		1.0		0.0		0.0		Powheg(v2_r3033)+Pythia8(v8.186)+EvtGen(v1.2.0)
341451		PowhegPythia8EvtGen_CT10_AZNLO_ZH125J_MINLO_mumuWWlvlv_VpT		0.00057645		1.0000E+00		1.0		0.0		0.0		Powheg(v2_r3033)+Pythia8(v8.186)+EvtGen(v1.2.0)
341452		PowhegPythia8EvtGen_CT10_AZNLO_ZH125J_MINLO_mumuWWlvqq_VpT		0.026475		4.3769E-01		1.0		0.0		0.0		Powheg(v2_r3033)+Pythia8(v8.186)+EvtGen(v1.2.0)
341453		PowhegPythia8EvtGen_CT10_AZNLO_ZH125J_MINLO_tautauWWlvlv_VpT		0.00058263		1.0000E+00		1.0		0.0		0.0		Powheg(v2_r3033)+Pythia8(v8.186)+EvtGen(v1.2.0)
341454		PowhegPythia8EvtGen_CT10_AZNLO_ZH125J_MINLO_tautauWWlvqq_VpT		0.025395		4.3717E-01		1.0		0.0		0.0		Powheg(v2_r3033)+Pythia8(v8.186)+EvtGen(v1.2.0)
341455		PowhegPythia8EvtGen_CT10_AZNLO_ZH125J_MINLO_veveWWlvlv_VpT		0.04917		1.0000E+00		1.0		0.0		0.0		Powheg(v2_r3033)+Pythia8(v8.186)+EvtGen(v1.2.0)
341456		PowhegPythia8EvtGen_CT10_AZNLO_ZH125J_MINLO_veveWWlvqq_VpT		0.049674		4.3807E-01		1.0		0.0		0.0		Powheg(v2_r3033)+Pythia8(v8.186)+EvtGen(v1.2.0)
341457		PowhegPythia8EvtGen_CT10_AZNLO_ZH125J_MINLO_vmuvmuWWlvlv_VpT		0.05013		1.0000E+00		1.0		0.0		0.0		Powheg(v2_r3033)+Pythia8(v8.186)+EvtGen(v1.2.0)
341458		PowhegPythia8EvtGen_CT10_AZNLO_ZH125J_MINLO_vmuvmuWWlvqq_VpT		0.049803		4.3750E-01		1.0		0.0		0.0		Powheg(v2_r3033)+Pythia8(v8.186)+EvtGen(v1.2.0)
341459		PowhegPy8EG_CT10_AZNLO_ZH125J_MINLO_vtauvtauWWlvlv_VpT		0.050856		1.0000E+00		1.0		0.0		0.0		Powheg(v2_r3033)+Pythia8(v8.186)+EvtGen(v1.2.0)
341460		PowhegPy8EG_CT10_AZNLO_ZH125J_MINLO_vtauvtauWWlvqq_VpT		0.051173		4.3582E-01		1.0		0.0		0.0		Powheg(v2_r3033)+Pythia8(v8.186)+EvtGen(v1.2.0)
341461		PowhegPythia8EvtGen_CT10_AZNLO_ZH125J_MINLO_qqWWlvlv_VpT		0.55292		1.0000E+00		1.0		0.0		0.0		Powheg(v2_r3033)+Pythia8(v8.186)+EvtGen(v1.2.0)
341462		PowhegPythia8EvtGen_CT10_AZNLO_ZH125J_MINLO_qqWWlvqq_VpT		0.64646		4.4224E-01		1.0		0.0		0.0		Powheg(v2_r3033)+Pythia8(v8.186)+EvtGen(v1.2.0)
341471		PowhegPythia8EvtGen_CT10_AZNLOCTEQ6L1_ggH125_ZZ4lep		0.013335		1.0		1.0		0.0		0.0		Powheg(v1_r2856)+Pythia8(v8.186)+EvtGen(v1.2.0)
341488		PowhegPythia8EvtGen_CT10_AZNLOCTEQ6L1_VBFH125_ZZ4lep		0.001038		1.0000E+00		0.978615629651		0.0		0.0		Powheg(v1_r2856)+Pythia8(v8.186)+EvtGen(v1.2.0)
341947		Pythia8EvtGen_A14NNPDF23LO_ZH125_ZZ4l		0.0002089		0.010256		1.0		0.0		0.0		Pythia8(v8.186)+EvtGen(v1.2.0)
341964		Pythia8EvtGen_A14NNPDF23LO_WH125_ZZ4l		0.0003769		1.0		1.0		0.0		0.0		Pythia8(v8.186)+EvtGen(v1.2.0)
343365		aMcAtNloPythia8EvtGen_A14_NNPDF23_NNPDF30ME_ttH125_dilep		0.05343		1.0		1.0		0.0		0.0		MadGraph5_aMC@NLO(v2.2.3.p4)+Pythia8(v8.210)+EvtGen(v1.2.0)
343366		aMcAtNloPythia8EvtGen_A14_NNPDF23_NNPDF30ME_ttH125_semilep		0.22276		1.0		1.0		0.0		0.0		MadGraph5_aMC@NLO(v2.2.3.p4)+Pythia8(v8.210)+EvtGen(v1.2.0)
343367		aMcAtNloPythia8EvtGen_A14_NNPDF23_NNPDF30ME_ttH125_allhad		0.23082		1.0		1.0		0.0		0.0		MadGraph5_aMC@NLO(v2.2.3.p4)+Pythia8(v8.210)+EvtGen(v1.2.0)
345038		PowhegPythia8EvtGen_NNPDF30_AZNLO_ZH125J_Zincl_MINLO		0.76078		1.0000E+00		1.0		0.0		0.0		Powheg(v2_r3133)+Pythia8(v8.212)+EvtGen(v1.2.0)
345039		PowhegPythia8EvtGen_NNPDF30_AZNLO_WpH125J_Wincl_MINLO		0.84		1.0000E+00		1.0		0.0		0.0		Powheg(v2_r3133)+Pythia8(v8.212)+EvtGen(v1.2.0)
345040		PowhegPythia8EvtGen_NNPDF30_AZNLO_WmH125J_Wincl_MINLO		0.53		1.0000E+00		1.0		0.0		0.0		Powheg(v2_r3133)+Pythia8(v8.212)+EvtGen(v1.2.0)
345060		PowhegPythia8EvtGen_NNLOPS_nnlo_30_ggH125_ZZ4l		0.0060239		1.0000E+00		1.0		0.0		0.0		Powheg(v2_r3080)+Pythia8(v8.212)+EvtGen(v1.2.0)
345103		PowhegPythia8EvtGen_NNPDF30_AZNLO_ZH125J_Hmumu_Zincl_MINLO		0.0001667		1.0000E+00		1.0		0.0		0.0		Powheg+Pythia8(v8.212)+EvtGen(v1.2.0)
345104		PowhegPythia8EvtGen_NNPDF30_AZNLO_WpH125J_Hmumu_Wincl_MINLO		0.00020932		1.0000E+00		1.0		0.0		0.0		Powheg+Pythia8(v8.212)+EvtGen(v1.2.0)
345105		PowhegPythia8EvtGen_NNPDF30_AZNLO_WmH125J_Hmumu_Wincl_MINLO		0.00013341		1.0000E+00		1.0		0.0		0.0		Powheg+Pythia8(v8.212)+EvtGen(v1.2.0)
345705		Sherpa_222_NNPDF30NNLO_ggllll_0M4l130		0.0099577		1.0000E+00		1.0		0.0		0.0		Sherpa(v2.2.2)
345706		Sherpa_222_NNPDF30NNLO_ggllll_130M4l		0.010163		1.0000E+00		1.0		0.0		0.0		Sherpa(v2.2.2)
345708		Sherpa_222_NNPDF30NNLO_ggllllNoHiggs_0M4l130		0.0047394		1.0000E+00		1.0		0.0		0.0		Sherpa(v2.2.2)
345709		Sherpa_222_NNPDF30NNLO_ggllllNoHiggs_130M4l		0.010561		1.0000E+00		1.0		0.0		0.0		Sherpa(v2.2.2)
361100		PowhegPythia8EvtGen_AZNLOCTEQ6L1_Wplusenu		11300.0		1.0		1.01723999646		0.0		0.0		Powheg(v1_r2856)+Pythia8(v8.186)+EvtGen(v1.2.0)+Photospp
361101		PowhegPythia8EvtGen_AZNLOCTEQ6L1_Wplusmunu		11263.0		1.0000E+00		1.01723999646		0.0		0.0		Powheg(v1_r2856)+Pythia8(v8.186)+EvtGen(v1.2.0)+Photospp
361102		PowhegPythia8EvtGen_AZNLOCTEQ6L1_Wplustaunu		11306.0		1.0000E+00		1.01723999646		0.0		0.0		Powheg(v1_r2856)+Pythia8(v8.186)+EvtGen(v1.2.0)+Photospp
361103		PowhegPythia8EvtGen_AZNLOCTEQ6L1_Wminusenu		8283.1		1.0000E+00		1.03577349174		0.0		0.0		Powheg(v1_r2856)+Pythia8(v8.186)+EvtGen(v1.2.0)+Photospp
361104		PowhegPythia8EvtGen_AZNLOCTEQ6L1_Wminusmunu		8283.1		1.0000E+00		1.03576098662		0.0		0.0		Powheg(v1_r2856)+Pythia8(v8.186)+EvtGen(v1.2.0)+Photospp
361105		PowhegPythia8EvtGen_AZNLOCTEQ6L1_Wminustaunu		8282.9		1.0000E+00		1.03578599715		0.0		0.0		Powheg(v1_r2856)+Pythia8(v8.186)+EvtGen(v1.2.0)+Photospp
361106		PowhegPythia8EvtGen_AZNLOCTEQ6L1_Zee		1896.8		1.0000E+00		1.02600047339		0.0		0.0		Powheg(v1_r2856)+Pythia8(v8.186)+EvtGen(v1.2.0)+Photospp
361107		PowhegPythia8EvtGen_AZNLOCTEQ6L1_Zmumu		1898.5		1.0000E+00		1.0		0.0		0.0		Powheg(v1_r2856)+Pythia8(v8.186)+EvtGen(v1.2.0)
361108		PowhegPythia8EvtGen_AZNLOCTEQ6L1_Ztautau		1898.0		1.0000E+00		1.0		0.0		0.0		Powheg(v1_r2856)+Pythia8(v8.186)+EvtGen(v1.2.0)
361510		MadGraphPythia8EvtGen_A14NNPDF23LO_Ztautau_Np0		1398.8		1.0000E+00		1.232		0.0		0.0		MadGraph5_aMC@NLO(v2.2.2.p5)+Pythia8(v8.186)+EvtGen(v1.2.0)
361511		MadGraphPythia8EvtGen_A14NNPDF23LO_Ztautau_Np1		211.44		1.0000E+00		1.232		0.0		0.0		MadGraph5_aMC@NLO(v2.2.2.p5)+Pythia8(v8.186)+EvtGen(v1.2.0)
361512		MadGraphPythia8EvtGen_A14NNPDF23LO_Ztautau_Np2		67.197		1.0000E+00		1.232		0.0		0.0		MadGraph5_aMC@NLO(v2.2.2.p5)+Pythia8(v8.186)+EvtGen(v1.2.0)
361513		MadGraphPythia8EvtGen_A14NNPDF23LO_Ztautau_Np3		18.612		1.0000E+00		1.232		0.0		0.0		MadGraph5_aMC@NLO(v2.2.2.p5)+Pythia8(v8.186)+EvtGen(v1.2.0)
361514		MadGraphPythia8EvtGen_A14NNPDF23LO_Ztautau_Np4		7.2598		1.0000E+00		1.232		0.0		0.0		MadGraph5_aMC@NLO(v2.2.2.p5)+Pythia8(v8.186)+EvtGen(v1.2.0)
361600		PowhegPy8EG_CT10nloME_AZNLOCTEQ6L1_WWlvlv		10.636		1.0000E+00		1.0		0.0		0.0		Powheg(v2_r2819)+Pythia8(v8.210)+EvtGen(v1.2.0)
361601		PowhegPy8EG_CT10nloME_AZNLOCTEQ6L1_WZlvll_mll4		4.4821		1.0000E+00		1.0		0.0		0.0		Powheg(v2_r2819)+Pythia8(v8.186)+EvtGen(v1.2.0)
361602		PowhegPy8EG_CT10nloME_AZNLOCTEQ6L1_WZlvvv_mll4		2.7781		1.0000E+00		1.0		0.0		0.0		Powheg(v2_r2819)+Pythia8(v8.186)+EvtGen(v1.2.0)
361603		PowhegPy8EG_CT10nloME_AZNLOCTEQ6L1_ZZllll_mll4		1.269		1.0000E+00		1.0		0.0		0.0		Powheg(v2_r2819)+Pythia8(v8.210)+EvtGen(v1.2.0)
361604		PowhegPy8EG_CT10nloME_AZNLOCTEQ6L1_ZZvvll_mll4		0.92208		1.0000E+00		1.0		0.0		0.0		Powheg(v2_r2819)+Pythia8(v8.210)+EvtGen(v1.2.0)
361605		PowhegPy8EG_CT10nloME_AZNLOCTEQ6L1_ZZvvvv_mll4		0.54889		1.0000E+00		1.0		0.0		0.0		Powheg(v2_r2819)+Pythia8(v8.186)+EvtGen(v1.2.0)
361606		PowhegPy8EG_CT10nloME_AZNLOCTEQ6L1_WWlvqq		44.176		1.0000E+00		1.0		0.0		0.0		Powheg(v2_r2819)+Pythia8(v8.210)+EvtGen(v1.2.0)
361607		PowhegPy8EG_CT10nloME_AZNLOCTEQ6L1_WZqqll_mll20		3.2882		1.0000E+00		1.0		0.0		0.0		Powheg(v2_r2819)+Pythia8(v8.210)+EvtGen(v1.2.0)
361608		PowhegPy8EG_CT10nloME_AZNLOCTEQ6L1_WZqqvv		5.7747		1.0000E+00		1.0		0.0		0.0		Powheg(v2_r2819)+Pythia8(v8.210)+EvtGen(v1.2.0)
361609		PowhegPy8EG_CT10nloME_AZNLOCTEQ6L1_WZlvqq_mqq20		10.095		1.0000E+00		1.0		0.0		0.0		Powheg(v2_r2819)+Pythia8(v8.210)+EvtGen(v1.2.0)
361610		PowhegPy8EG_CT10nloME_AZNLOCTEQ6L1_ZZqqll_mqq20mll20		2.2759		1.0000E+00		1.0		0.0		0.0		Powheg(v2_r2819)+Pythia8(v8.210)+EvtGen(v1.2.0)
361664		PowhegPythia8EvtGen_AZNLOCTEQ6L1_DYee_6M10		13960.0		5.1411E-02		1.0		0.0		0.0		Powheg(v1_r2856)+Pythia8(v8.186)+EvtGen(v1.2.0)+Photospp
361665		PowhegPythia8EvtGen_AZNLOCTEQ6L1_DYee_10M60		6621.5		2.6642E-01		1.0		0.0		0.0		Powheg(v1_r2856)+Pythia8(v8.186)+EvtGen(v1.2.0)+Photospp
361666		PowhegPythia8EvtGen_AZNLOCTEQ6L1_DYmumu_6M10		13960.0		5.4481E-02		1.0		0.0		0.0		Powheg(v1_r2856)+Pythia8(v8.186)+EvtGen(v1.2.0)+Photospp
361667		PowhegPythia8EvtGen_AZNLOCTEQ6L1_DYmumu_10M60		6621.5		2.7369E-01		1.0		0.0		0.0		Powheg(v1_r2856)+Pythia8(v8.186)+EvtGen(v1.2.0)+Photospp
361668		PowhegPythia8EvtGen_AZNLOCTEQ6L1_DYtautau_6M10		13960.0		5.9244E-04		1.0		0.0		0.0		Powheg(v1_r2856)+Pythia8(v8.186)+EvtGen(v1.2.0)
361669		PowhegPythia8EvtGen_AZNLOCTEQ6L1_DYtautau_10M60		6621.8		1.5147E-02		1.0		0.0		0.0		Powheg(v1_r2856)+Pythia8(v8.186)+EvtGen(v1.2.0)+Photospp
363123		MGPy8EG_N30NLO_Zmumu_Ht0_70_CVetoBVeto		1714.9		8.3167E-01		1.141		0.0		0.0		MadGraph5_aMC@NLO(v2.2.3.p4)+Pythia8(v8.210)+EvtGen(v1.2.0)
363124		MGPy8EG_N30NLO_Zmumu_Ht0_70_CFilterBVeto		1715.2		1.0879E-01		1.141		0.0		0.0		MadGraph5_aMC@NLO(v2.2.3.p4)+Pythia8(v8.210)+EvtGen(v1.2.0)
363125		MGPy8EG_N30NLO_Zmumu_Ht0_70_BFilter		1715.6		5.9371E-02		1.141		0.0		0.0		MadGraph5_aMC@NLO(v2.2.3.p4)+Pythia8(v8.210)+EvtGen(v1.2.0)
363126		MGPy8EG_N30NLO_Zmumu_Ht70_140_CVetoBVeto		84.576		7.1882E-01		1.141		0.0		0.0		MadGraph5_aMC@NLO(v2.2.3.p4)+Pythia8(v8.210)+EvtGen(v1.2.0)
363127		MGPy8EG_N30NLO_Zmumu_Ht70_140_CFilterBVeto		84.572		1.7409E-01		1.141		0.0		0.0		MadGraph5_aMC@NLO(v2.2.3.p4)+Pythia8(v8.210)+EvtGen(v1.2.0)
363128		MGPy8EG_N30NLO_Zmumu_Ht70_140_BFilter		84.748		1.0841E-01		1.141		0.0		0.0		MadGraph5_aMC@NLO(v2.2.3.p4)+Pythia8(v8.210)+EvtGen(v1.2.0)
363129		MGPy8EG_N30NLO_Zmumu_Ht140_280_CVetoBVeto		35.886		6.7447E-01		1.141		0.0		0.0		MadGraph5_aMC@NLO(v2.2.3.p4)+Pythia8(v8.210)+EvtGen(v1.2.0)
363130		MGPy8EG_N30NLO_Zmumu_Ht140_280_CFilterBVeto		35.888		2.0036E-01		1.141		0.0		0.0		MadGraph5_aMC@NLO(v2.2.3.p4)+Pythia8(v8.210)+EvtGen(v1.2.0)
363131		MGPy8EG_N30NLO_Zmumu_Ht140_280_BFilter		35.88		1.2631E-01		1.141		0.0		0.0		MadGraph5_aMC@NLO(v2.2.3.p4)+Pythia8(v8.210)+EvtGen(v1.2.0)
363132		MGPy8EG_N30NLO_Zmumu_Ht280_500_CVetoBVeto		8.1928		6.2869E-01		1.141		0.0		0.0		MadGraph5_aMC@NLO(v2.2.3.p4)+Pythia8(v8.210)+EvtGen(v1.2.0)
363133		MGPy8EG_N30NLO_Zmumu_Ht280_500_CFilterBVeto		8.1804		2.2876E-01		1.141		0.0		0.0		MadGraph5_aMC@NLO(v2.2.3.p4)+Pythia8(v8.210)+EvtGen(v1.2.0)
363134		MGPy8EG_N30NLO_Zmumu_Ht280_500_BFilter		8.1747		1.4307E-01		1.141		0.0		0.0		MadGraph5_aMC@NLO(v2.2.3.p4)+Pythia8(v8.210)+EvtGen(v1.2.0)
363135		MGPy8EG_N30NLO_Zmumu_Ht500_700_CVetoBVeto		1.2715		5.9670E-01		1.141		0.0		0.0		MadGraph5_aMC@NLO(v2.2.3.p4)+Pythia8(v8.210)+EvtGen(v1.2.0)
363136		MGPy8EG_N30NLO_Zmumu_Ht500_700_CFilterBVeto		1.2674		2.4962E-01		1.141		0.0		0.0		MadGraph5_aMC@NLO(v2.2.3.p4)+Pythia8(v8.210)+EvtGen(v1.2.0)
363137		MGPy8EG_N30NLO_Zmumu_Ht500_700_BFilter		1.269		1.5385E-01		1.141		0.0		0.0		MadGraph5_aMC@NLO(v2.2.3.p4)+Pythia8(v8.210)+EvtGen(v1.2.0)
363138		MGPy8EG_N30NLO_Zmumu_Ht700_1000_CVetoBVeto		0.4428		5.7754E-01		1.141		0.0		0.0		MadGraph5_aMC@NLO(v2.2.3.p4)+Pythia8(v8.210)+EvtGen(v1.2.0)
363139		MGPy8EG_N30NLO_Zmumu_Ht700_1000_CFilterBVeto		0.44356		2.6195E-01		1.141		0.0		0.0		MadGraph5_aMC@NLO(v2.2.3.p4)+Pythia8(v8.210)+EvtGen(v1.2.0)
363140		MGPy8EG_N30NLO_Zmumu_Ht700_1000_BFilter		0.44384		1.6178E-01		1.141		0.0		0.0		MadGraph5_aMC@NLO(v2.2.3.p4)+Pythia8(v8.210)+EvtGen(v1.2.0)
363141		MGPy8EG_N30NLO_Zmumu_Ht1000_2000_CVetoBVeto		0.14715		5.5345E-01		1.141		0.0		0.0		MadGraph5_aMC@NLO(v2.2.3.p4)+Pythia8(v8.210)+EvtGen(v1.2.0)
363142		MGPy8EG_N30NLO_Zmumu_Ht1000_2000_CFilterBVeto		0.14728		2.7710E-01		1.141		0.0		0.0		MadGraph5_aMC@NLO(v2.2.3.p4)+Pythia8(v8.210)+EvtGen(v1.2.0)
363143		MGPy8EG_N30NLO_Zmumu_Ht1000_2000_BFilter		0.14753		1.7031E-01		1.141		0.0		0.0		MadGraph5_aMC@NLO(v2.2.3.p4)+Pythia8(v8.210)+EvtGen(v1.2.0)
363144		MGPy8EG_N30NLO_Zmumu_Ht2000_E_CMS_CVetoBVeto		0.0055036		5.3671E-01		1.141		0.0		0.0		MadGraph5_aMC@NLO(v2.2.3.p4)+Pythia8(v8.210)+EvtGen(v1.2.0)
363145		MGPy8EG_N30NLO_Zmumu_Ht2000_E_CMS_CFilterBVeto		0.0055322		2.9170E-01		1.141		0.0		0.0		MadGraph5_aMC@NLO(v2.2.3.p4)+Pythia8(v8.210)+EvtGen(v1.2.0)
363146		MGPy8EG_N30NLO_Zmumu_Ht2000_E_CMS_BFilter		0.005549		1.7460E-01		1.141		0.0		0.0		MadGraph5_aMC@NLO(v2.2.3.p4)+Pythia8(v8.210)+EvtGen(v1.2.0)
363147		MGPy8EG_N30NLO_Zee_Ht0_70_CVetoBVeto		1719.3		8.3307E-01		1.141		0.0		0.0		MadGraph5_aMC@NLO(v2.3.2.p1)+Pythia8(v8.210)+EvtGen(v1.2.0)
363148		MGPy8EG_N30NLO_Zee_Ht0_70_CFilterBVeto		1718.8		1.0865E-01		1.141		0.0		0.0		MadGraph5_aMC@NLO(v2.3.2.p1)+Pythia8(v8.210)+EvtGen(v1.2.0)
363149		MGPy8EG_N30NLO_Zee_Ht0_70_BFilter		1719.4		6.0314E-02		1.141		0.0		0.0		MadGraph5_aMC@NLO(v2.3.2.p1)+Pythia8(v8.210)+EvtGen(v1.2.0)
363150		MGPy8EG_N30NLO_Zee_Ht70_140_CVetoBVeto		85.079		7.1890E-01		1.141		0.0		0.0		MadGraph5_aMC@NLO(v2.3.2.p1)+Pythia8(v8.210)+EvtGen(v1.2.0)
363151		MGPy8EG_N30NLO_Zee_Ht70_140_CFilterBVeto		85.056		1.7683E-01		1.141		0.0		0.0		MadGraph5_aMC@NLO(v2.3.2.p1)+Pythia8(v8.210)+EvtGen(v1.2.0)
363152		MGPy8EG_N30NLO_Zee_Ht70_140_BFilter		85.164		1.1320E-01		1.141		0.0		0.0		MadGraph5_aMC@NLO(v2.3.2.p1)+Pythia8(v8.210)+EvtGen(v1.2.0)
363153		MGPy8EG_N30NLO_Zee_Ht140_280_CVetoBVeto		36.001		6.7412E-01		1.141		0.0		0.0		MadGraph5_aMC@NLO(v2.3.2.p1)+Pythia8(v8.210)+EvtGen(v1.2.0)
363154		MGPy8EG_N30NLO_Zee_Ht140_280_CFilterBVeto		36.012		2.0365E-01		1.141		0.0		0.0		MadGraph5_aMC@NLO(v2.3.2.p1)+Pythia8(v8.210)+EvtGen(v1.2.0)
363155		MGPy8EG_N30NLO_Zee_Ht140_280_BFilter		36.053		1.3187E-01		1.141		0.0		0.0		MadGraph5_aMC@NLO(v2.3.2.p1)+Pythia8(v8.210)+EvtGen(v1.2.0)
363156		MGPy8EG_N30NLO_Zee_Ht280_500_CVetoBVeto		8.2037		6.2992E-01		1.141		0.0		0.0		MadGraph5_aMC@NLO(v2.3.2.p1)+Pythia8(v8.210)+EvtGen(v1.2.0)
363157		MGPy8EG_N30NLO_Zee_Ht280_500_CFilterBVeto		8.2139		2.3183E-01		1.141		0.0		0.0		MadGraph5_aMC@NLO(v2.3.2.p1)+Pythia8(v8.210)+EvtGen(v1.2.0)
363158		MGPy8EG_N30NLO_Zee_Ht280_500_BFilter		8.2425		1.5010E-01		1.141		0.0		0.0		MadGraph5_aMC@NLO(v2.3.2.p1)+Pythia8(v8.210)+EvtGen(v1.2.0)
363159		MGPy8EG_N30NLO_Zee_Ht500_700_CVetoBVeto		1.2756		5.9918E-01		1.141		0.0		0.0		MadGraph5_aMC@NLO(v2.3.2.p1)+Pythia8(v8.210)+EvtGen(v1.2.0)
363160		MGPy8EG_N30NLO_Zee_Ht500_700_CFilterBVeto		1.2754		2.5301E-01		1.141		0.0		0.0		MadGraph5_aMC@NLO(v2.3.2.p1)+Pythia8(v8.210)+EvtGen(v1.2.0)
363161		MGPy8EG_N30NLO_Zee_Ht500_700_BFilter		1.2741		1.6130E-01		1.141		0.0		0.0		MadGraph5_aMC@NLO(v2.3.2.p1)+Pythia8(v8.210)+EvtGen(v1.2.0)
363162		MGPy8EG_N30NLO_Zee_Ht700_1000_CVetoBVeto		0.44557		5.7769E-01		1.141		0.0		0.0		MadGraph5_aMC@NLO(v2.3.2.p1)+Pythia8(v8.210)+EvtGen(v1.2.0)
363163		MGPy8EG_N30NLO_Zee_Ht700_1000_CFilterBVeto		0.44592		2.6649E-01		1.141		0.0		0.0		MadGraph5_aMC@NLO(v2.3.2.p1)+Pythia8(v8.210)+EvtGen(v1.2.0)
363164		MGPy8EG_N30NLO_Zee_Ht700_1000_BFilter		0.44637		1.6931E-01		1.141		0.0		0.0		MadGraph5_aMC@NLO(v2.3.2.p1)+Pythia8(v8.210)+EvtGen(v1.2.0)
363165		MGPy8EG_N30NLO_Zee_Ht1000_2000_CVetoBVeto		0.15224		5.6096E-01		1.141		0.0		0.0		MadGraph5_aMC@NLO(v2.3.2.p1)+Pythia8(v8.210)+EvtGen(v1.2.0)
363166		MGPy8EG_N30NLO_Zee_Ht1000_2000_CFilterBVeto		0.15287		2.8674E-01		1.141		0.0		0.0		MadGraph5_aMC@NLO(v2.3.2.p1)+Pythia8(v8.210)+EvtGen(v1.2.0)
363167		MGPy8EG_N30NLO_Zee_Ht1000_2000_BFilter		0.15379		1.8318E-01		1.141		0.0		0.0		MadGraph5_aMC@NLO(v2.3.2.p1)+Pythia8(v8.210)+EvtGen(v1.2.0)
363168		MGPy8EG_N30NLO_Zee_Ht2000_E_CMS_CVetoBVeto		0.0056842		5.3650E-01		1.141		0.0		0.0		MadGraph5_aMC@NLO(v2.3.2.p1)+Pythia8(v8.210)+EvtGen(v1.2.0)
363169		MGPy8EG_N30NLO_Zee_Ht2000_E_CMS_CFilterBVeto		0.0057315		3.0300E-01		1.141		0.0		0.0		MadGraph5_aMC@NLO(v2.3.2.p1)+Pythia8(v8.210)+EvtGen(v1.2.0)
363170		MGPy8EG_N30NLO_Zee_Ht2000_E_CMS_BFilter		0.0057604		1.9217E-01		1.141		0.0		0.0		MadGraph5_aMC@NLO(v2.3.2.p1)+Pythia8(v8.210)+EvtGen(v1.2.0)
363355		Sherpa_221_NNPDF30NNLO_ZqqZvv		15.56		2.7686E-01		1.0		0.0		0.0		Sherpa(v2.2.1)
363356		Sherpa_221_NNPDF30NNLO_ZqqZll		15.564		1.4158E-01		1.0		0.0		0.0		Sherpa(v2.2.1)
363357		Sherpa_221_NNPDF30NNLO_WqqZvv		6.7951		1.0000E+00		1.0		0.0		0.0		Sherpa(v2.2.1)
363358		Sherpa_221_NNPDF30NNLO_WqqZll		3.4328		1.0000E+00		1.0		0.0		0.0		Sherpa(v2.2.1)
363359		Sherpa_221_NNPDF30NNLO_WpqqWmlv		24.708		1.0000E+00		1.0		0.0		0.0		Sherpa(v2.2.1)
363360		Sherpa_221_NNPDF30NNLO_WplvWmqq		24.724		1.0000E+00		1.0		0.0		0.0		Sherpa(v2.2.1)
363489		Sherpa_221_NNPDF30NNLO_WlvZqq		11.42		1.0000E+00		1.0		0.0		0.0		Sherpa(v2.2.1)
363494		Sherpa_221_NNPDF30NNLO_vvvv		0.60293		1.0000E+00		1.0		0.0		0.0		Sherpa(v2.2.1)
363507		Sherpa_222_NNPDF30NNLO_WWZ_3l1v2j_EW6		0.017047		4.3938E-01		1.0		0.0		0.0		Sherpa(v2.2.2)
363508		Sherpa_222_NNPDF30NNLO_WZZ_4l2j_EW6		0.00038998		1.0000E+00		1.0		0.0		0.0		Sherpa(v2.2.2)
363509		Sherpa_222_NNPDF30NNLO_WZZ_3l1v2j_EW6		0.011815		2.2058E-01		1.0		0.0		0.0		Sherpa(v2.2.2)
364100		Sherpa_221_NNPDF30NNLO_Zmumu_MAXHTPTV0_70_CVetoBVeto		1982.5		8.2172E-01		0.9751		0.0		0.0		Sherpa(v2.2.1)
364101		Sherpa_221_NNPDF30NNLO_Zmumu_MAXHTPTV0_70_CFilterBVeto		1982.2		1.1355E-01		0.9751		0.0		0.0		Sherpa(v2.2.1)
364102		Sherpa_221_NNPDF30NNLO_Zmumu_MAXHTPTV0_70_BFilter		1981.5		6.5697E-02		0.9751		0.0		0.0		Sherpa(v2.2.1)
364103		Sherpa_221_NNPDF30NNLO_Zmumu_MAXHTPTV70_140_CVetoBVeto		109.14		6.8992E-01		0.9751		0.0		0.0		Sherpa(v2.2.1)
364104		Sherpa_221_NNPDF30NNLO_Zmumu_MAXHTPTV70_140_CFilterBVeto		108.98		1.9665E-01		0.9751		0.0		0.0		Sherpa(v2.2.1)
364105		Sherpa_221_NNPDF30NNLO_Zmumu_MAXHTPTV70_140_BFilter		101.54		1.1100E-01		0.9751		0.0		0.0		Sherpa(v2.2.1)
364106		Sherpa_221_NNPDF30NNLO_Zmumu_MAXHTPTV140_280_CVetoBVeto		39.87		5.9942E-01		0.9751		0.0		0.0		Sherpa(v2.2.1)
364107		Sherpa_221_NNPDF30NNLO_Zmumu_MAXHTPTV140_280_CFilterBVeto		39.857		2.3527E-01		0.9751		0.0		0.0		Sherpa(v2.2.1)
364108		Sherpa_221_NNPDF30NNLO_Zmumu_MAXHTPTV140_280_BFilter		36.187		1.5821E-01		0.9751		0.0		0.0		Sherpa(v2.2.1)
364109		Sherpa_221_NNPDF30NNLO_Zmumu_MAXHTPTV280_500_CVetoBVeto		8.5256		5.6023E-01		0.9751		0.0		0.0		Sherpa(v2.2.1)
364110		Sherpa_221_NNPDF30NNLO_Zmumu_MAXHTPTV280_500_CFilterBVeto		8.5259		2.6641E-01		0.9751		0.0		0.0		Sherpa(v2.2.1)
364111		Sherpa_221_NNPDF30NNLO_Zmumu_MAXHTPTV280_500_BFilter		8.5218		1.7674E-01		0.9751		0.0		0.0		Sherpa(v2.2.1)
364112		Sherpa_221_NNPDF30NNLO_Zmumu_MAXHTPTV500_1000		1.787		1.0000E+00		0.9751		0.0		0.0		Sherpa(v2.2.1)
364113		Sherpa_221_NNPDF30NNLO_Zmumu_MAXHTPTV1000_E_CMS		0.1476		1.0000E+00		0.9751		0.0		0.0		Sherpa(v2.2.1)
364114		Sherpa_221_NNPDF30NNLO_Zee_MAXHTPTV0_70_CVetoBVeto		1981.6		8.2133E-01		0.9751		0.0		0.0		Sherpa(v2.2.1)
364115		Sherpa_221_NNPDF30NNLO_Zee_MAXHTPTV0_70_CFilterBVeto		1981.5		1.1386E-01		0.9751		0.0		0.0		Sherpa(v2.2.1)
364116		Sherpa_221_NNPDF30NNLO_Zee_MAXHTPTV0_70_BFilter		1982.0		6.5757E-02		0.9751		0.0		0.0		Sherpa(v2.2.1)
364117		Sherpa_221_NNPDF30NNLO_Zee_MAXHTPTV70_140_CVetoBVeto		110.64		6.9426E-01		0.9751		0.0		0.0		Sherpa(v2.2.1)
364118		Sherpa_221_NNPDF30NNLO_Zee_MAXHTPTV70_140_CFilterBVeto		110.5		1.8855E-01		0.9751		0.0		0.0		Sherpa(v2.2.1)
364119		Sherpa_221_NNPDF30NNLO_Zee_MAXHTPTV70_140_BFilter		110.46		1.1827E-01		0.9751		0.0		0.0		Sherpa(v2.2.1)
364120		Sherpa_221_NNPDF30NNLO_Zee_MAXHTPTV140_280_CVetoBVeto		40.645		6.1615E-01		0.9751		0.0		0.0		Sherpa(v2.2.1)
364121		Sherpa_221_NNPDF30NNLO_Zee_MAXHTPTV140_280_CFilterBVeto		40.671		2.3291E-01		0.9751		0.0		0.0		Sherpa(v2.2.1)
364122		Sherpa_221_NNPDF30NNLO_Zee_MAXHTPTV140_280_BFilter		40.674		1.5333E-01		0.9751		0.0		0.0		Sherpa(v2.2.1)
364123		Sherpa_221_NNPDF30NNLO_Zee_MAXHTPTV280_500_CVetoBVeto		8.6703		5.6739E-01		0.9751		0.0		0.0		Sherpa(v2.2.1)
364124		Sherpa_221_NNPDF30NNLO_Zee_MAXHTPTV280_500_CFilterBVeto		8.6668		2.6620E-01		0.9751		0.0		0.0		Sherpa(v2.2.1)
364125		Sherpa_221_NNPDF30NNLO_Zee_MAXHTPTV280_500_BFilter		8.6812		1.7653E-01		0.9751		0.0		0.0		Sherpa(v2.2.1)
364126		Sherpa_221_NNPDF30NNLO_Zee_MAXHTPTV500_1000		1.8092		1.0000E+00		0.9751		0.0		0.0		Sherpa(v2.2.1)
364127		Sherpa_221_NNPDF30NNLO_Zee_MAXHTPTV1000_E_CMS		0.14875		1.0000E+00		0.9751		0.0		0.0		Sherpa(v2.2.1)
364128		Sherpa_221_NNPDF30NNLO_Ztautau_MAXHTPTV0_70_CVetoBVeto		1982.0		8.3444E-01		0.9751		0.0		0.0		Sherpa(v2.2.1)
364129		Sherpa_221_NNPDF30NNLO_Ztautau_MAXHTPTV0_70_CFilterBVeto		1981.9		1.1365E-01		0.9751		0.0		0.0		Sherpa(v2.2.1)
364130		Sherpa_221_NNPDF30NNLO_Ztautau_MAXHTPTV0_70_BFilter		1979.3		6.5727E-02		0.9751		0.0		0.0		Sherpa(v2.2.1)
364131		Sherpa_221_NNPDF30NNLO_Ztautau_MAXHTPTV70_140_CVetoBVeto		110.66		6.9264E-01		0.9751		0.0		0.0		Sherpa(v2.2.1)
364132		Sherpa_221_NNPDF30NNLO_Ztautau_MAXHTPTV70_140_CFilterBVeto		110.46		1.9060E-01		0.9751		0.0		0.0		Sherpa(v2.2.1)
364133		Sherpa_221_NNPDF30NNLO_Ztautau_MAXHTPTV70_140_BFilter		92.41		0.110886		0.9751		0.0		0.0		Sherpa(v2.2.1)
364134		Sherpa_221_NNPDF30NNLO_Ztautau_MAXHTPTV140_280_CVetoBVeto		40.756		6.1880E-01		0.9751		0.0		0.0		Sherpa(v2.2.1)
364135		Sherpa_221_NNPDF30NNLO_Ztautau_MAXHTPTV140_280_CFilterBVeto		40.716		2.3432E-01		0.9751		0.0		0.0		Sherpa(v2.2.1)
364136		Sherpa_221_NNPDF30NNLO_Ztautau_MAXHTPTV140_280_BFilter		37.15		1.5646E-01		0.9751		0.0		0.0		Sherpa(v2.2.1)
364137		Sherpa_221_NNPDF30NNLO_Ztautau_MAXHTPTV280_500_CVetoBVeto		8.6672		5.6380E-01		0.9751		0.0		0.0		Sherpa(v2.2.1)
364138		Sherpa_221_NNPDF30NNLO_Ztautau_MAXHTPTV280_500_CFilterBVeto		8.6757		2.6432E-01		0.9751		0.0		0.0		Sherpa(v2.2.1)
364139		Sherpa_221_NNPDF30NNLO_Ztautau_MAXHTPTV280_500_BFilter		8.6667		1.7625E-01		0.9751		0.0		0.0		Sherpa(v2.2.1)
364140		Sherpa_221_NNPDF30NNLO_Ztautau_MAXHTPTV500_1000		1.8078		1.0000E+00		0.9751		0.0		0.0		Sherpa(v2.2.1)
364141		Sherpa_221_NNPDF30NNLO_Ztautau_MAXHTPTV1000_E_CMS		0.14826		1.0000E+00		0.9751		0.0		0.0		Sherpa(v2.2.1)
364156		Sherpa_221_NNPDF30NNLO_Wmunu_MAXHTPTV0_70_CVetoBVeto		19149.0		8.2450E-01		0.9702		0.0		0.0		Sherpa(v2.2.1)
364157		Sherpa_221_NNPDF30NNLO_Wmunu_MAXHTPTV0_70_CFilterBVeto		19142.0		1.3091E-01		0.9702		0.0		0.0		Sherpa(v2.2.1)
364158		Sherpa_221_NNPDF30NNLO_Wmunu_MAXHTPTV0_70_BFilter		19138.0		4.4641E-02		0.9702		0.0		0.0		Sherpa(v2.2.1)
364159		Sherpa_221_NNPDF30NNLO_Wmunu_MAXHTPTV70_140_CVetoBVeto		945.52		6.7430E-01		0.9702		0.0		0.0		Sherpa(v2.2.1)
364160		Sherpa_221_NNPDF30NNLO_Wmunu_MAXHTPTV70_140_CFilterBVeto		945.38		2.4352E-01		0.9702		0.0		0.0		Sherpa(v2.2.1)
364161		Sherpa_221_NNPDF30NNLO_Wmunu_MAXHTPTV70_140_BFilter		944.34		8.3746E-02		0.9702		0.0		0.0		Sherpa(v2.2.1)
364162		Sherpa_221_NNPDF30NNLO_Wmunu_MAXHTPTV140_280_CVetoBVeto		339.73		6.0009E-01		0.9702		0.0		0.0		Sherpa(v2.2.1)
364163		Sherpa_221_NNPDF30NNLO_Wmunu_MAXHTPTV140_280_CFilterBVeto		339.8		2.9256E-01		0.9702		0.0		0.0		Sherpa(v2.2.1)
364164		Sherpa_221_NNPDF30NNLO_Wmunu_MAXHTPTV140_280_BFilter		339.64		0.110298		0.9702		0.0		0.0		Sherpa(v2.2.1)
364165		Sherpa_221_NNPDF30NNLO_Wmunu_MAXHTPTV280_500_CVetoBVeto		72.079		5.4768E-01		0.9702		0.0		0.0		Sherpa(v2.2.1)
364166		Sherpa_221_NNPDF30NNLO_Wmunu_MAXHTPTV280_500_CFilterBVeto		72.1		3.2016E-01		0.9702		0.0		0.0		Sherpa(v2.2.1)
364167		Sherpa_221_NNPDF30NNLO_Wmunu_MAXHTPTV280_500_BFilter		72.058		1.2542E-01		0.9702		0.0		0.0		Sherpa(v2.2.1)
364168		Sherpa_221_NNPDF30NNLO_Wmunu_MAXHTPTV500_1000		15.006		1.0000E+00		0.9702		0.0		0.0		Sherpa(v2.2.1)
364169		Sherpa_221_NNPDF30NNLO_Wmunu_MAXHTPTV1000_E_CMS		1.2348		1.0000E+00		0.9702		0.0		0.0		Sherpa(v2.2.1)
364170		Sherpa_221_NNPDF30NNLO_Wenu_MAXHTPTV0_70_CVetoBVeto		19153.0		8.2467E-01		0.9702		0.0		0.0		Sherpa(v2.2.1)
364171		Sherpa_221_NNPDF30NNLO_Wenu_MAXHTPTV0_70_CFilterBVeto		19145.0		1.3086E-01		0.9702		0.0		0.0		Sherpa(v2.2.1)
364172		Sherpa_221_NNPDF30NNLO_Wenu_MAXHTPTV0_70_BFilter		19138.0		4.4820E-02		0.9702		0.0		0.0		Sherpa(v2.2.1)
364173		Sherpa_221_NNPDF30NNLO_Wenu_MAXHTPTV70_140_CVetoBVeto		944.98		6.7483E-01		0.9702		0.0		0.0		Sherpa(v2.2.1)
364174		Sherpa_221_NNPDF30NNLO_Wenu_MAXHTPTV70_140_CFilterBVeto		945.74		2.4413E-01		0.9702		0.0		0.0		Sherpa(v2.2.1)
364175		Sherpa_221_NNPDF30NNLO_Wenu_MAXHTPTV70_140_BFilter		945.77		0.10341		0.9702		0.0		0.0		Sherpa(v2.2.1)
364176		Sherpa_221_NNPDF30NNLO_Wenu_MAXHTPTV140_280_CVetoBVeto		339.75		5.9858E-01		0.9702		0.0		0.0		Sherpa(v2.2.1)
364177		Sherpa_221_NNPDF30NNLO_Wenu_MAXHTPTV140_280_CFilterBVeto		339.8		2.8805E-01		0.9702		0.0		0.0		Sherpa(v2.2.1)
364178		Sherpa_221_NNPDF30NNLO_Wenu_MAXHTPTV140_280_BFilter		339.64		0.10898		0.9702		0.0		0.0		Sherpa(v2.2.1)
364179		Sherpa_221_NNPDF30NNLO_Wenu_MAXHTPTV280_500_CVetoBVeto		72.074		5.4830E-01		0.9702		0.0		0.0		Sherpa(v2.2.1)
364180		Sherpa_221_NNPDF30NNLO_Wenu_MAXHTPTV280_500_CFilterBVeto		72.105		3.1969E-01		0.9702		0.0		0.0		Sherpa(v2.2.1)
364181		Sherpa_221_NNPDF30NNLO_Wenu_MAXHTPTV280_500_BFilter		72.091		1.3706E-01		0.9702		0.0		0.0		Sherpa(v2.2.1)
364182		Sherpa_221_NNPDF30NNLO_Wenu_MAXHTPTV500_1000		15.047		1.0000E+00		0.9702		0.0		0.0		Sherpa(v2.2.1)
364183		Sherpa_221_NNPDF30NNLO_Wenu_MAXHTPTV1000_E_CMS		1.2344		1.0000E+00		0.9702		0.0		0.0		Sherpa(v2.2.1)
364184		Sherpa_221_NNPDF30NNLO_Wtaunu_MAXHTPTV0_70_CVetoBVeto		19155.0		8.2462E-01		0.9702		0.0		0.0		Sherpa(v2.2.1)
364185		Sherpa_221_NNPDF30NNLO_Wtaunu_MAXHTPTV0_70_CFilterBVeto		19149.0		1.3152E-01		0.9702		0.0		0.0		Sherpa(v2.2.1)
364186		Sherpa_221_NNPDF30NNLO_Wtaunu_MAXHTPTV0_70_BFilter		19144.0		4.5098E-02		0.9702		0.0		0.0		Sherpa(v2.2.1)
364187		Sherpa_221_NNPDF30NNLO_Wtaunu_MAXHTPTV70_140_CVetoBVeto		945.02		6.7562E-01		0.9702		0.0		0.0		Sherpa(v2.2.1)
364188		Sherpa_221_NNPDF30NNLO_Wtaunu_MAXHTPTV70_140_CFilterBVeto		946.23		2.4247E-01		0.9702		0.0		0.0		Sherpa(v2.2.1)
364189		Sherpa_221_NNPDF30NNLO_Wtaunu_MAXHTPTV70_140_BFilter		945.71		0.10391		0.9702		0.0		0.0		Sherpa(v2.2.1)
364190		Sherpa_221_NNPDF30NNLO_Wtaunu_MAXHTPTV140_280_CVetoBVeto		339.69		5.9884E-01		0.9702		0.0		0.0		Sherpa(v2.2.1)
364191		Sherpa_221_NNPDF30NNLO_Wtaunu_MAXHTPTV140_280_CFilterBVeto		339.84		2.8478E-01		0.9702		0.0		0.0		Sherpa(v2.2.1)
364192		Sherpa_221_NNPDF30NNLO_Wtaunu_MAXHTPTV140_280_BFilter		339.31		1.0578E-01		0.9702		0.0		0.0		Sherpa(v2.2.1)
364193		Sherpa_221_NNPDF30NNLO_Wtaunu_MAXHTPTV280_500_CVetoBVeto		72.078		5.6172E-01		0.9702		0.0		0.0		Sherpa(v2.2.1)
364194		Sherpa_221_NNPDF30NNLO_Wtaunu_MAXHTPTV280_500_CFilterBVeto		71.99		3.1863E-01		0.9702		0.0		0.0		Sherpa(v2.2.1)
364195		Sherpa_221_NNPDF30NNLO_Wtaunu_MAXHTPTV280_500_BFilter		71.945		1.3597E-01		0.9702		0.0		0.0		Sherpa(v2.2.1)
364196		Sherpa_221_NNPDF30NNLO_Wtaunu_MAXHTPTV500_1000		15.052		1.0000E+00		0.9702		0.0		0.0		Sherpa(v2.2.1)
364197		Sherpa_221_NNPDF30NNLO_Wtaunu_MAXHTPTV1000_E_CMS		1.2341		1.0000E+00		0.9702		0.0		0.0		Sherpa(v2.2.1)
364198		Sherpa_221_NN30NNLO_Zmm_Mll10_40_MAXHTPTV0_70_BVeto		2414.3		9.6536E-01		0.9751		0.0		0.0		Sherpa(v2.2.1)
364199		Sherpa_221_NN30NNLO_Zmm_Mll10_40_MAXHTPTV0_70_BFilter		2414.2		3.4445E-02		0.9751		0.0		0.0		Sherpa(v2.2.1)
364200		Sherpa_221_NN30NNLO_Zmm_Mll10_40_MAXHTPTV70_280_BVeto		50.33		8.9306E-01		0.9751		0.0		0.0		Sherpa(v2.2.1)
364201		Sherpa_221_NN30NNLO_Zmm_Mll10_40_MAXHTPTV70_280_BFilter		50.29		1.1212E-01		0.9751		0.0		0.0		Sherpa(v2.2.1)
364202		Sherpa_221_NN30NNLO_Zmm_Mll10_40_MAXHTPTV280_E_CMS_BVeto		3.2398		8.5373E-01		0.9751		0.0		0.0		Sherpa(v2.2.1)
364203		Sherpa_221_NN30NNLO_Zmm_Mll10_40_MAXHTPTV280_E_CMS_BFilter		3.2813		1.6027E-01		0.9751		0.0		0.0		Sherpa(v2.2.1)
364204		Sherpa_221_NN30NNLO_Zee_Mll10_40_MAXHTPTV0_70_BVeto		2415.3		9.6520E-01		0.9751		0.0		0.0		Sherpa(v2.2.1)
364205		Sherpa_221_NN30NNLO_Zee_Mll10_40_MAXHTPTV0_70_BFilter		2415.5		3.4696E-02		0.9751		0.0		0.0		Sherpa(v2.2.1)
364206		Sherpa_221_NN30NNLO_Zee_Mll10_40_MAXHTPTV70_280_BVeto		50.354		8.9320E-01		0.9751		0.0		0.0		Sherpa(v2.2.1)
364207		Sherpa_221_NN30NNLO_Zee_Mll10_40_MAXHTPTV70_280_BFilter		49.733		0.1087		0.9751		0.0		0.0		Sherpa(v2.2.1)
364208		Sherpa_221_NN30NNLO_Zee_Mll10_40_MAXHTPTV280_E_CMS_BVeto		3.2539		8.5485E-01		0.9751		0.0		0.0		Sherpa(v2.2.1)
364209		Sherpa_221_NN30NNLO_Zee_Mll10_40_MAXHTPTV280_E_CMS_BFilter		3.2526		1.5351E-01		0.9751		0.0		0.0		Sherpa(v2.2.1)
364210		Sherpa_221_NN30NNLO_Ztt_Mll10_40_MAXHTPTV0_70_BVeto		2416.0		9.6534E-01		0.9751		0.0		0.0		Sherpa(v2.2.1)
364211		Sherpa_221_NN30NNLO_Ztt_Mll10_40_MAXHTPTV0_70_BFilter		2414.4		3.4676E-02		0.9751		0.0		0.0		Sherpa(v2.2.1)
364212		Sherpa_221_NN30NNLO_Ztt_Mll10_40_MAXHTPTV70_280_BVeto		50.376		8.9310E-01		0.9751		0.0		0.0		Sherpa(v2.2.1)
364213		Sherpa_221_NN30NNLO_Ztt_Mll10_40_MAXHTPTV70_280_BFilter		49.709		0.10985		0.9751		0.0		0.0		Sherpa(v2.2.1)
364214		Sherpa_221_NN30NNLO_Ztt_Mll10_40_MAXHTPTV280_E_CMS_BVeto		3.2852		8.5552E-01		0.9751		0.0		0.0		Sherpa(v2.2.1)
364215		Sherpa_221_NN30NNLO_Ztt_Mll10_40_MAXHTPTV280_E_CMS_BFilter		3.2813		1.5581E-01		0.9751		0.0		0.0		Sherpa(v2.2.1)
364242		Sherpa_222_NNPDF30NNLO_WWW_3l3v_EW6		0.0071979		1.0000E+00		1.0		0.0		0.0		Sherpa(v2.2.2)
364243		Sherpa_222_NNPDF30NNLO_WWZ_4l2v_EW6		0.0017966		1.0000E+00		1.0		0.0		0.0		Sherpa(v2.2.2)
364244		Sherpa_222_NNPDF30NNLO_WWZ_2l4v_EW6		0.0035467		1.0000E+00		1.0		0.0		0.0		Sherpa(v2.2.2)
364245		Sherpa_222_NNPDF30NNLO_WZZ_5l1v_EW6		0.00018807		1.0000E+00		1.0		0.0		0.0		Sherpa(v2.2.2)
364246		Sherpa_222_NNPDF30NNLO_WZZ_3l3v_EW6		0.001668		4.4626E-01		1.0		0.0		0.0		Sherpa(v2.2.2)
364247		Sherpa_222_NNPDF30NNLO_ZZZ_6l0v_EW6		1.4508e-05		1.0000E+00		1.0		0.0		0.0		Sherpa(v2.2.2)
364248		Sherpa_222_NNPDF30NNLO_ZZZ_4l2v_EW6		0.00038533		2.2453E-01		1.0		0.0		0.0		Sherpa(v2.2.2)
364249		Sherpa_222_NNPDF30NNLO_ZZZ_2l4v_EW6		0.00038545		4.4467E-01		1.0		0.0		0.0		Sherpa(v2.2.2)
364250		Sherpa_222_NNPDF30NNLO_llll		1.2523		1.0000E+00		1.0		0.0		0.0		Sherpa(v2.2.2)
364251		Sherpa_222_NNPDF30NNLO_llll_m4l100_300_filt100_150		0.3333		1.2788E-01		1.0		0.0		0.0		Sherpa(v2.2.2)
364252		Sherpa_222_NNPDF30NNLO_llll_m4l300		0.061746		1.0		1.0		0.0		0.0		Sherpa(v2.2.2)
364253		Sherpa_222_NNPDF30NNLO_lllv		4.5765		1.0000E+00		1.0		0.0		0.0		Sherpa(v2.2.2)
364254		Sherpa_222_NNPDF30NNLO_llvv		12.501		1.0		1.0		0.0		0.0		Sherpa(v2.2.2)
364255		Sherpa_222_NNPDF30NNLO_lvvv		3.2344		1.0		1.0		0.0		0.0		Sherpa(v2.2.2)
364261		Sherpa_222_NNPDF30NNLO_lllv_3lepfilter		1.5761		2.0477E-01		1.0		0.0		0.0		Sherpa(v2.2.2)
364280		Sherpa_221_NNPDF30NNLO_Zee_Mll2Ml_MAXHTPTV280_E_CMS		46.031		1.0000E+00		0.9751		0.0		0.0		Sherpa(v2.2.1)
364281		Sherpa_221_NNPDF30NNLO_Zmumu_Mll2Ml_MAXHTPTV280_E_CMS		36.377		1.0000E+00		0.9751		0.0		0.0		Sherpa(v2.2.1)
364282		Sherpa_221_NNPDF30NNLO_Ztautau_Mll2Ml_MAXHTPTV280_E_CMS		9.1472		1.0000E+00		1.0		0.0		0.0		Sherpa(v2.2.1)
364283		Sherpa_222_NNPDF30NNLO_lllljj_EW6		0.010545		1.0000E+00		1.0		0.0		0.0		Sherpa(v2.2.2)
364358		Sherpa_221_NNPDF30NNLO_Zee_Mll2Ml_MAXHTPTV70_140		568.54		1.0000E+00		1.0		0.0		0.0		Sherpa(v2.2.1)
364359		Sherpa_221_NNPDF30NNLO_Zmumu_Mll2Ml_MAXHTPTV70_140		458.51		1.0000E+00		1.0		0.0		0.0		Sherpa(v2.2.1)
364360		Sherpa_221_NNPDF30NNLO_Ztautau_Mll2Ml_MAXHTPTV70_140		140.71		1.0000E+00		1.0		0.0		0.0		Sherpa(v2.2.1)
364361		Sherpa_221_NNPDF30NNLO_Zee_Mll2Ml_MAXHTPTV140_280		206.81		1.0000E+00		1.0		0.0		0.0		Sherpa(v2.2.1)
364362		Sherpa_221_NNPDF30NNLO_Zmumu_Mll2Ml_MAXHTPTV140_280		163.96		1.0000E+00		1.0		0.0		0.0		Sherpa(v2.2.1)
364363		Sherpa_221_NNPDF30NNLO_Ztautau_Mll2Ml_MAXHTPTV140_280		43.265		1.0000E+00		1.0		0.0		0.0		Sherpa(v2.2.1)
364500		Sherpa_222_NNPDF30NNLO_eegamma_pty_7_15		57.619		1.0000E+00		1.0		0.0		0.0		Sherpa(v2.2.2)
364501		Sherpa_222_NNPDF30NNLO_eegamma_pty_15_35		34.594		1.0000E+00		1.0		0.0		0.0		Sherpa(v2.2.2)
364502		Sherpa_222_NNPDF30NNLO_eegamma_pty_35_70		6.2904		1.0000E+00		1.0		0.0		0.0		Sherpa(v2.2.2)
364503		Sherpa_222_NNPDF30NNLO_eegamma_pty_70_140		0.49119		1.0000E+00		1.0		0.0		0.0		Sherpa(v2.2.2)
364504		Sherpa_222_NNPDF30NNLO_eegamma_pty_140_E_CMS		0.063397		1.0000E+00		1.0		0.0		0.0		Sherpa(v2.2.2)
364505		Sherpa_222_NNPDF30NNLO_mumugamma_pty_7_15		57.701		1.0000E+00		1.0		0.0		0.0		Sherpa(v2.2.2)
364506		Sherpa_222_NNPDF30NNLO_mumugamma_pty_15_35		34.588		1.0000E+00		1.0		0.0		0.0		Sherpa(v2.2.2)
364507		Sherpa_222_NNPDF30NNLO_mumugamma_pty_35_70		6.2908		1.0000E+00		1.0		0.0		0.0		Sherpa(v2.2.2)
364508		Sherpa_222_NNPDF30NNLO_mumugamma_pty_70_140		0.49355		1.0000E+00		1.0		0.0		0.0		Sherpa(v2.2.2)
364509		Sherpa_222_NNPDF30NNLO_mumugamma_pty_140_E_CMS		0.063172		1.0000E+00		1.0		0.0		0.0		Sherpa(v2.2.2)
364510		Sherpa_222_NNPDF30NNLO_tautaugamma_pty_7_15		57.619		1.0000E+00		1.0		0.0		0.0		Sherpa(v2.2.2)
364511		Sherpa_222_NNPDF30NNLO_tautaugamma_pty_15_35		34.652		1.0000E+00		1.0		0.0		0.0		Sherpa(v2.2.2)
364512		Sherpa_222_NNPDF30NNLO_tautaugamma_pty_35_70		6.294		1.0000E+00		1.0		0.0		0.0		Sherpa(v2.2.2)
364513		Sherpa_222_NNPDF30NNLO_tautaugamma_pty_70_140		0.49503		1.0000E+00		1.0		0.0		0.0		Sherpa(v2.2.2)
364514		Sherpa_222_NNPDF30NNLO_tautaugamma_pty_140_E_CMS		0.063407		1.0000E+00		1.0		0.0		0.0		Sherpa(v2.2.2)
407311		Sherpa_221_NNPDF30NNLO_6l0v_EW6		0.0001025		1.0000E+00		1.0		0.0		0.0		Sherpa(v2.2.1)
407312		Sherpa_221_NNPDF30NNLO_5l1v_EW6		0.00056763		1.0000E+00		1.0		0.0		0.0		Sherpa(v2.2.1)
407313		Sherpa_221_NNPDF30NNLO_4l2v_EW6		0.0043651		1.0000E+00		1.0		0.0		0.0		Sherpa(v2.2.1)
407314		Sherpa_221_NNPDF30NNLO_3l3v_EW6		0.015773		1.0000E+00		1.0		0.0		0.0		Sherpa(v2.2.1)
407315		Sherpa_221_NNPDF30NNLO_2l4v_EW6		0.0058087		1.0000E+00		1.0		0.0		0.0		Sherpa(v2.2.1)
407320		aMcAtNloPythia8EvtGen_MEN30NLO_A14N23LO_tta140		0.21551		1.0000E+00		1.0		0.0		0.0		MadGraph5_aMC@NLO(v2.3.3.p1)+Pythia8(v8.212)+EvtGen(v1.2.0)
407321		MadGraphPythia8EvtGen_A14NNPDF23LO_ttbarWll		0.00026641		1.0000E+00		1.0		0.0		0.0		MadGraph5_aMC@NLO(v2.3.3.p1)+Pythia8(v8.212)+EvtGen(v1.2.0)
410080		MadGraphPythia8EvtGen_A14NNPDF23_4topSM		0.0091626		1.0000E+00		1.00413615479		0.0		0.0		MadGraph5_aMC@NLO(v2.2.2.p6)+Pythia8(v8.186)+EvtGen(v1.2.0)
410081		MadGraphPythia8EvtGen_A14NNPDF23_ttbarWW		0.0080952		1.0000E+00		1.22342593851		0.0		0.0		MadGraph5_aMC@NLO(v2.2.2.p6)+Pythia8(v8.186)+EvtGen(v1.2.0)
410082		MadGraphPythia8EvtGen_A14NNPDF23LO_ttgamma_noallhad		2.9788		1.0000E+00		1.47		0.0		0.0		MadGraph5_aMC@NLO(v2.2.3.p0)+Pythia8(v8.186)+EvtGen(v1.2.0)
410083		MadGraphPythia8EvtGen_A14NNPDF23LO_ttgamma4080_noallhad		2.9783		2.8400E-01		1.47		0.0		0.0		MadGraph5_aMC@NLO(v2.2.3.p0)+Pythia8(v8.186)+EvtGen(v1.2.0)
410084		MadGraphPythia8EvtGen_A14NNPDF23LO_ttgamma80_noallhad		2.9783		1.1285E-01		1.47		0.0		0.0		MadGraph5_aMC@NLO(v2.2.3.p0)+Pythia8(v8.186)+EvtGen(v1.2.0)
410111		MadGraphPythia8EvtGen_A14NNPDF23LO_ttee_Np0		0.0088456		1.0000E+00		1.51		0.0		0.0		MadGraph5_aMC@NLO(v2.2.2.p6)+Pythia8(v8.186)+EvtGen(v1.2.0)
410112		MadGraphPythia8EvtGen_A14NNPDF23LO_ttee_Np1		0.014377		1.0000E+00		1.51		0.0		0.0		MadGraph5_aMC@NLO(v2.2.2.p6)+Pythia8(v8.186)+EvtGen(v1.2.0)
410113		MadGraphPythia8EvtGen_A14NNPDF23LO_ttmumu_Np0		0.0087974		1.0000E+00		1.51		0.0		0.0		MadGraph5_aMC@NLO(v2.2.2.p6)+Pythia8(v8.186)+EvtGen(v1.2.0)
410114		MadGraphPythia8EvtGen_A14NNPDF23LO_ttmumu_Np1		0.014411		1.0000E+00		1.51		0.0		0.0		MadGraph5_aMC@NLO(v2.2.2.p6)+Pythia8(v8.186)+EvtGen(v1.2.0)
410115		MadGraphPythia8EvtGen_A14NNPDF23LO_tttautau_Np0		0.009025		1.0000E+00		1.51		0.0		0.0		MadGraph5_aMC@NLO(v2.2.2.p6)+Pythia8(v8.186)+EvtGen(v1.2.0)
410116		MadGraphPythia8EvtGen_A14NNPDF23LO_tttautau_Np1		0.014593		1.0000E+00		1.51		0.0		0.0		MadGraph5_aMC@NLO(v2.2.2.p6)+Pythia8(v8.186)+EvtGen(v1.2.0)
410142		Sherpa_NNPDF30NNLO_ttll_mll5		0.11315		1.0000E+00		1.09		0.0		0.0		Sherpa(v2.2.0)
410144		Sherpa_NNPDF30NNLO_ttW		0.57726		1.0000E+00		1.04		0.0		0.0		Sherpa(v2.2.0)
410155		aMcAtNloPythia8EvtGen_MEN30NLO_A14N23LO_ttW		0.54822		1.0000E+00		1.096		0.0		0.0		MadGraph5_aMC@NLO(v2.3.3.p0)+Pythia8(v8.210)+EvtGen(v1.2.0)
410156		aMcAtNloPythia8EvtGen_MEN30NLO_A14N23LO_ttZnunu		0.15506		1.0000E+00		1.11		0.0		0.0		MadGraph5_aMC@NLO(v2.3.3.p0)+Pythia8(v8.210)+EvtGen(v1.2.0)
410157		aMcAtNloPythia8EvtGen_MEN30NLO_A14N23LO_ttZqq		0.52821		1.0000E+00		1.11		0.0		0.0		MadGraph5_aMC@NLO(v2.3.3.p0)+Pythia8(v8.210)+EvtGen(v1.2.0)
410218		aMcAtNloPythia8EvtGen_MEN30NLO_A14N23LO_ttee		0.036865		1.0000E+00		1.12		0.0		0.0		MadGraph5_aMC@NLO(v2.3.3.p0)+Pythia8(v8.210)+EvtGen(v1.2.0)
410219		aMcAtNloPythia8EvtGen_MEN30NLO_A14N23LO_ttmumu		0.036868		1.0000E+00		1.12		0.0		0.0		MadGraph5_aMC@NLO(v2.3.3.p0)+Pythia8(v8.210)+EvtGen(v1.2.0)
410220		aMcAtNloPythia8EvtGen_MEN30NLO_A14N23LO_tttautau		0.036555		1.0000E+00		1.12		0.0		0.0		MadGraph5_aMC@NLO(v2.3.3.p0)+Pythia8(v8.210)+EvtGen(v1.2.0)
410276		aMcAtNloPythia8EvtGen_MEN30NLO_A14N23LO_ttee_mll_1_5		0.01823		1.0000E+00		1.12		0.0		0.0		MadGraph5_aMC@NLO(v2.3.3.p1)+Pythia8(v8.212)+EvtGen(v1.6.0)
410277		aMcAtNloPythia8EvtGen_MEN30NLO_A14N23LO_ttmumu_mll_1_5		0.018224		1.0000E+00		1.12		0.0		0.0		MadGraph5_aMC@NLO(v2.3.3.p1)+Pythia8(v8.212)+EvtGen(v1.6.0)
410278		aMcAtNloPythia8EvtGen_MEN30NLO_A14N23LO_tttautau_mll_1_5		0.0019566		1.0000E+00		1.12		0.0		0.0		MadGraph5_aMC@NLO(v2.3.3.p1)+Pythia8(v8.212)+EvtGen(v1.6.0)
410408		aMcAtNloPythia8EvtGen_tWZ_Ztoll_minDR1		0.016071		1.0000E+00		1.0		0.0		0.0		MadGraph5_aMC@NLO(v2.3.3.p1)+Pythia8(v8.212)+EvtGen(v1.2.0)
410470		PhPy8EG_A14_ttbar_hdamp258p75_nonallhad		729.13		5.4386E-01		1.13975636159		0.0		0.0		Powheg+Pythia8(v8.230)+EvtGen(v1.6.0)
410471		PhPy8EG_A14_ttbar_hdamp258p75_allhad		729.77		4.5623E-01		1.13974074379		0.0		0.0		Powheg+Pythia8(v8.230)+EvtGen(v1.6.0)
410472		PhPy8EG_A14_ttbar_hdamp258p75_dil		729.34		1.0547E-01		1.13975636159		0.0		0.0		Powheg+Pythia8(v8.230)+EvtGen(v1.6.0)
410550		MadGraphPythia8EvtGen_A14_tZ_4fl_tchan_trilepton		0.020736		1.0000E+00		1.0		0.0		0.0		MadGraph5_aMC@NLO(v2.3.3.p1)+Pythia8(v8.212)+EvtGen(v1.6.0)
410560		MadGraphPythia8EvtGen_A14_tZ_4fl_tchan_noAllHad		0.24041		1.0000E+00		1.0		0.0		0.0		MadGraph+Pythia8+EvtGen
410644		PowhegPythia8EvtGen_A14_singletop_schan_lept_top		2.027		1.0000E+00		1.0170		0.0		0.0		Powheg+EvtGen(v1.6.0)
410645		PowhegPythia8EvtGen_A14_singletop_schan_lept_antitop		1.2674		1.0000E+00		1.0167		0.0		0.0		Powheg+EvtGen(v1.6.0)
410646		PowhegPythia8EvtGen_A14_Wt_DR_inclusive_top		37.936		1.0000E+00		0.9450		0.0		0.0		Powheg+EvtGen(v1.6.0)
410647		PowhegPythia8EvtGen_A14_Wt_DR_inclusive_antitop		37.905		1.0000E+00		0.9457		0.0		0.0		Powheg+EvtGen(v1.6.0)
410648		PowhegPythia8EvtGen_A14_Wt_DR_dilepton_top		3.997		1.0000E+00		0.9451		0.0		0.0		Powheg+EvtGen(v1.6.0)
410649		PowhegPythia8EvtGen_A14_Wt_DR_dilepton_antitop		3.9939		1.0000E+00		0.9458		0.0		0.0		Powheg+EvtGen(v1.6.0)
311686		MadGraphPythia8EvtGen_A14NNPDF23LO_Ypp331_M750		0.075041		1.0000E+00		1.0		0.0		0.0		MadGraph(v.2.6.2)+Pythia8+EvtGen(v.1.6.0)
311687		MadGraphPythia8EvtGen_A14NNPDF23LO_Ypp331_M850		0.036834		1.0000E+00		1.0		0.0		0.0		MadGraph(v.2.6.2)+Pythia8+EvtGen(v.1.6.0)
311688		MadGraphPythia8EvtGen_A14NNPDF23LO_Ypp331_M950		0.010681		1.0000E+00		1.0		0.0		0.0		MadGraph(v.2.6.2)+Pythia8+EvtGen(v.1.6.0)
311689		MadGraphPythia8EvtGen_A14NNPDF23LO_Ypp331_M1050		0.0065026		1.0000E+00		1.0		0.0		0.0		MadGraph(v.2.6.2)+Pythia8+EvtGen(v.1
395244		MGPy8EG_A14N23LO_C1N2N1_GGMHinoZh50_130_4LT4		6.9554		1.1800E-02		1.0		0.03969		0.0		EvtGen(v1.6.0)
395245		MGPy8EG_A14N23LO_C1N2N1_GGMHinoZh50_150_4LT4		3.8323		1.2965E-02		1.0		0.04136		0.0		EvtGen(v1.6.0)
395246		MGPy8EG_A14N23LO_C1N2N1_GGMHinoZh50_200_4LT4		1.3356		1.5577E-02		1.0		0.04744		0.0		EvtGen(v1.6.0)
395247		MGPy8EG_A14N23LO_C1N2N1_GGMHinoZh50_250_4LT4		0.57731		1.7813E-02		1.0		0.05327		0.0		EvtGen(v1.6.0)
395248		MGPy8EG_A14N23LO_C1N2N1_GGMHinoZh50_300_4LT4		0.28486		1.9822E-02		1.0		0.05869		0.0		EvtGen(v1.6.0)
395249		MGPy8EG_A14N23LO_C1N2N1_GGMHinoZh50_325_4LT4		0.20736		2.0886E-02		1.0		0.06136		0.0		EvtGen(v1.6.0)
395250		MGPy8EG_A14N23LO_C1N2N1_GGMHinoZh50_350_4LT4		0.15384		2.2008E-02		1.0		0.06406		0.0		EvtGen(v1.6.0)
395251		MGPy8EG_A14N23LO_C1N2N1_GGMHinoZh50_375_4LT4		0.11601		2.3116E-02		1.0		0.06689		0.0		EvtGen(v1.6.0)
395252		MGPy8EG_A14N23LO_C1N2N1_GGMHinoZh50_400_4LT4		0.088733		2.4084E-02		1.0		0.06975		0.0		EvtGen(v1.6.0)
395253		MGPy8EG_A14N23LO_C1N2N1_GGMHinoZh50_425_4LT4		0.068696		2.5014E-02		1.0		0.07235		0.0		EvtGen(v1.6.0)
395254		MGPy8EG_A14N23LO_C1N2N1_GGMHinoZh50_450_4LT4		0.05377		2.5826E-02		1.0		0.07483		0.0		EvtGen(v1.6.0)
395255		MGPy8EG_A14N23LO_C1N2N1_GGMHinoZh50_475_4LT4		0.04247		2.6895E-02		1.0		0.07751		0.0		EvtGen(v1.6.0)
395256		MGPy8EG_A14N23LO_C1N2N1_GGMHinoZh50_500_4LT4		0.033839		2.8110E-02		1.0		0.08026		0.0		EvtGen(v1.6.0)
395257		MGPy8EG_A14N23LO_C1N2N1_GGMHinoZh50_525_4LT4		0.027187		2.8716E-02		1.0		0.08258		0.0		EvtGen(v1.6.0)
395258		MGPy8EG_A14N23LO_C1N2N1_GGMHinoZh50_550_4LT4		0.021987		2.9517E-02		1.0		0.08493		0.0		EvtGen(v1.6.0)
396090		MGPy8EG_A14N23LO_C1N2N1_GGMHinoZh50_95_4LT4		20.487		7.1207E-03		1.0		0.03500		0.0		NULL
396091		MGPy8EG_A14N23LO_C1N2N1_GGMHinoZh50_110_4LT4		12.545		7.5828E-03		1.0		0.03739		0.0		NULL
397943		MGPy8EG_A14N23LO_C1N2N1_GGMHinoZh50_600_4LT4		0.014668		3.0224E-02		1.0		0.09007		0.0		MadGraph.2.6.1+Pythia8.230+EvtGen
397944		MGPy8EG_A14N23LO_C1N2N1_GGMHinoZh50_650_4LT4		0.0099641		3.1624E-02		1.0		0.09407		0.0		MadGraph.2.6.1+Pythia8.230+EvtGen
397945		MGPy8EG_A14N23LO_C1N2N1_GGMHinoZh50_700_4LT4		0.0068998		3.2991E-02		1.0		0.09829		0.0		MadGraph.2.6.1+Pythia8.230+EvtGen
397946		MGPy8EG_A14N23LO_C1N2N1_GGMHinoZh50_750_4LT4		0.0048731		3.4500E-02		1.0		0.10121		0.0		MadGraph.2.6.1+Pythia8.230+EvtGen
397947		MGPy8EG_A14N23LO_C1N2N1_GGMHinoZh50_800_4LT4		0.0034614		3.5830E-02		1.0		0.10762		0.0		MadGraph.2.6.1+Pythia8.230+EvtGen
413022		Sherpa_221_ttll_NLO_inc		0.12038		1.0000E+00		1.0		0.0		0.0		Sherpa
410370		aMcAtNloPythia8EvtGen_MEN30NLO_A14Var3UpN23LO_ttee		0.036894		1.0000E+00		1.0		0.0		0.0		MadGraph5_aMC@NLO(v2.3.3.p1)+Pythia8(v8.212)+EvtGen(v1.2.0)
410371		aMcAtNloPythia8EvtGen_MEN30NLO_A14Var3DownN23LO_ttee		0.036898		1.0000E+00		1.0		0.0		0.0		MadGraph5_aMC@NLO(v2.3.3.p1)+Pythia8(v8.212)+EvtGen(v1.2.0)
410372		aMcAtNloPythia8EvtGen_MEN30NLO_A14Var3UpN23LO_ttmumu		0.036899		1.0000E+00		1.0		0.0		0.0		MadGraph5_aMC@NLO(v2.3.3.p1)+Pythia8(v8.212)+EvtGen(v1.2.0)
410373		aMcAtNloPythia8EvtGen_MEN30NLO_A14Var3DownN23LO_ttmumu		0.036896		1.0000E+00		1.0		0.0		0.0		MadGraph5_aMC@NLO(v2.3.3.p1)+Pythia8(v8.212)+EvtGen(v1.2.0)
410374		aMcAtNloPythia8EvtGen_MEN30NLO_A14Var3UpN23LO_tttautau		0.036513		1.0000E+00		1.0		0.0		0.0		MadGraph5_aMC@NLO(v2.3.3.p1)+Pythia8(v8.212)+EvtGen(v1.2.0)
410375		aMcAtNloPythia8EvtGen_MEN30NLO_A14Var3DownN23LO_tttautau		0.036527		1.0000E+00		1.0		0.0		0.0		MadGraph5_aMC@NLO(v2.3.3.p1)+Pythia8(v8.212)+EvtGen(v1.2.0)
364288		Sherpa_222_NNPDF30NNLO_llll_lowMllPtComplement		1.4496		1.0000E+00		1.0		0.0		0.0		Sherpa(v2.2.2)		e6096
343637		PowhegPythiaEvtGen_P2012_ttbar_hdamp172p5_threelepton		696.23		0.026281		1.19466268331		0.0		0.0		Powheg(v2_r3026)+Pythia(v6.428)+EvtGen(v1.2.0)		e4948
410202		MadGraphPythia8EvtGen_A14NNPDF23LO_ttee_Np0_scaleUp		0.0088456		1.0000E+00		1.51		0.0		0.0		MadGraph5_aMC@NLO(v2.2.2.p6)+Pythia8(v8.186)+EvtGen(v1.2.0)
410203		MadGraphPythia8EvtGen_A14NNPDF23LO_ttee_Np0_scaleDn		0.0088456		1.0000E+00		1.51		0.0		0.0		MadGraph5_aMC@NLO(v2.2.2.p6)+Pythia8(v8.186)+EvtGen(v1.2.0)
410204		MadGraphPythia8EvtGen_A14NNPDF23LO_ttee_Np1_scaleUp		0.014377		1.0000E+00		1.51		0.0		0.0		MadGraph5_aMC@NLO(v2.2.2.p6)+Pythia8(v8.186)+EvtGen(v1.2.0)
410205		MadGraphPythia8EvtGen_A14NNPDF23LO_ttee_Np1_scaleDn		0.014377		1.0000E+00		1.51		0.0		0.0		MadGraph5_aMC@NLO(v2.2.2.p6)+Pythia8(v8.186)+EvtGen(v1.2.0)
410206		MadGraphPythia8EvtGen_A14NNPDF23LO_ttmumu_Np0_scaleUp		0.0087974		1.0000E+00		1.51		0.0		0.0		MadGraph5_aMC@NLO(v2.2.2.p6)+Pythia8(v8.186)+EvtGen(v1.2.0)
410207		MadGraphPythia8EvtGen_A14NNPDF23LO_ttmumu_Np0_scaleDn		0.0087974		1.0000E+00		1.51		0.0		0.0		MadGraph5_aMC@NLO(v2.2.2.p6)+Pythia8(v8.186)+EvtGen(v1.2.0)
410208		MadGraphPythia8EvtGen_A14NNPDF23LO_ttmumu_Np1_scaleUp		0.014411		1.0000E+00		1.51		0.0		0.0		MadGraph5_aMC@NLO(v2.2.2.p6)+Pythia8(v8.186)+EvtGen(v1.2.0)
410209		MadGraphPythia8EvtGen_A14NNPDF23LO_ttmumu_Np1_scaleDn		0.014411		1.0000E+00		1.51		0.0		0.0		MadGraph5_aMC@NLO(v2.2.2.p6)+Pythia8(v8.186)+EvtGen(v1.2.0)
410210		MadGraphPythia8EvtGen_A14NNPDF23LO_tttautau_Np0_scaleUp		0.009025		1.0000E+00		1.51		0.0		0.0		MadGraph5_aMC@NLO(v2.2.2.p6)+Pythia8(v8.186)+EvtGen(v1.2.0)
410211		MadGraphPythia8EvtGen_A14NNPDF23LO_tttautau_Np0_scaleDn		0.009025		1.0000E+00		1.51		0.0		0.0		MadGraph5_aMC@NLO(v2.2.2.p6)+Pythia8(v8.186)+EvtGen(v1.2.0)
410212		MadGraphPythia8EvtGen_A14NNPDF23LO_tttautau_Np1_scaleUp		0.014593		1.0000E+00		1.51		0.0		0.0		MadGraph5_aMC@NLO(v2.2.2.p6)+Pythia8(v8.186)+EvtGen(v1.2.0)
410213		MadGraphPythia8EvtGen_A14NNPDF23LO_tttautau_Np1_scaleDn		0.014593		1.0000E+00		1.51		0.0		0.0		MadGraph5_aMC@NLO(v2.2.2.p6)+Pythia8(v8.186)+EvtGen(v1.2.0)
413023		Sherpa_221_ttll_multileg_NLO		0.13057		1.0000E+00		1.0		0.0		0.0		Sherpa		e7504
366080		Sh_222_NN30NNLO_lllv_lowMllPtComplement_CSSKIN		2.9336		1.0000E+00		1.0		0.0		0.0		Sherpa		e7360
366079		Sh_222_NN30NNLO_lllv_lowMllPtComplement_CKKW15		2.8874		1.0000E+00		1.0		0.0		0.0		Sherpa		e7360
366078		Sh_222_NN30NNLO_lllv_lowMllPtComplement_CKKW30		3.0229		1.0000E+00		1.0		0.0		0.0		Sherpa		e7360
366077		Sh_222_NN30NNLO_lllv_lowMllPtComplement_QSF025		3.266		1.0000E+00		1.0		0.0		0.0		Sherpa		e7360
366076		Sh_222_NN30NNLO_lllv_lowMllPtComplement_QSF4		2.703		1.0000E+00		1.0		0.0		0.0		Sherpa		e7360
366075		Sh_222_NN30NNLO_llll_lowMllPtComplement_CSSKIN		1.4404		1.0000E+00		1.0		0.0		0.0		Sherpa		e7360
366074		Sh_222_NN30NNLO_llll_lowMllPtComplement_CKKW15		1.4764		1.0000E+00		1.0		0.0		0.0		Sherpa		e7360
366073		Sh_222_NN30NNLO_llll_lowMllPtComplement_CKKW30		1.3744		1.0000E+00		1.0		0.0		0.0		Sherpa		e7360
366072		Sh_222_NN30NNLO_llll_lowMllPtComplement_QSF025		1.4651		1.0000E+00		1.0		0.0		0.0		Sherpa		e7360
366071		Sh_222_NN30NNLO_llll_lowMllPtComplement_QSF4		1.3652		1.0000E+00		1.0		0.0		0.0		Sherpa		e7360
364301		Sherpa_222_NNPDF30NNLO_llvv_QSFUP		12.414		1.0000E+00		1.0		0.0		0.0		Sherpa(v2.2.2)		e6210
364300		Sherpa_222_NNPDF30NNLO_llvv_QSFDN		12.819		1.0000E+00		1.0		0.0		0.0		Sherpa(v2.2.2)		e6210
364299		Sherpa_222_NNPDF30NNLO_llvv_CSSKIN		12.502		1.0000E+00		1.0		0.0		0.0		Sherpa(v2.2.2)		e6210
364298		Sherpa_222_NNPDF30NNLO_llvv_CKKW30		12.278		1.0000E+00		1.0		0.0		0.0		Sherpa(v2.2.2)		e6210
364297		Sherpa_222_NNPDF30NNLO_llvv_CKKW15		12.675		1.0000E+00		1.0		0.0		0.0		Sherpa(v2.2.2)		e6210
364256		Sherpa_222_NNPDF30NNLO_llll_CKKW15		1.2798		1.0000E+00		1.0		0.0		0.0		Sherpa(v2.2.2)		e5917
364257		Sherpa_222_NNPDF30NNLO_llll_CKKW30		1.2108		1.0000E+00		1.0		0.0		0.0		Sherpa(v2.2.2)		e5941
364258		Sherpa_222_NNPDF30NNLO_llll_QSF025		1.268		1.0000E+00		1.0		0.0		0.0		Sherpa(v2.2.2)		e5917
364259		Sherpa_222_NNPDF30NNLO_llll_QSF4		1.2388		1.0000E+00		1.0		0.0		0.0		Sherpa(v2.2.2)		e5917
364260		Sherpa_222_NNPDF30NNLO_llll_CSSKIN		1.2473		1.0000E+00		1.0		0.0		0.0		Sherpa(v2.2.2)		e5917
364275		Sherpa_222_NNPDF30NNLO_lllv_CKKW15		4.646		1.0000E+00		1.0		0.0		0.0		Sherpa(v2.2.2)		e6018
364276		Sherpa_222_NNPDF30NNLO_lllv_CKKW30		4.4192		1.0000E+00		1.0		0.0		0.0		Sherpa(v2.2.2)		e6018
364277		Sherpa_222_NNPDF30NNLO_lllv_QSF025		4.6909		1.0000E+00		1.0		0.0		0.0		Sherpa(v2.2.2)		e6018
364278		Sherpa_222_NNPDF30NNLO_lllv_QSF4		4.4899		1.0000E+00		1.0		0.0		0.0		Sherpa(v2.2.2)		e6018
364279		Sherpa_222_NNPDF30NNLO_lllv_CSSKIN		4.5565		1.0000E+00		1.0		0.0		0.0		Sherpa(v2.2.2)		e6018
410370		aMcAtNloPythia8EvtGen_MEN30NLO_A14Var3UpN23LO_ttee		0.036894		1.0000E+00		1.0		0.0		0.0		MadGraph5_aMC@NLO(v2.3.3.p1)+Pythia8(v8.212)+EvtGen(v1.2.0)		e6113
410371		aMcAtNloPythia8EvtGen_MEN30NLO_A14Var3DownN23LO_ttee		0.036898		1.0000E+00		1.0		0.0		0.0		MadGraph5_aMC@NLO(v2.3.3.p1)+Pythia8(v8.212)+EvtGen(v1.2.0)		e6113
410372		aMcAtNloPythia8EvtGen_MEN30NLO_A14Var3UpN23LO_ttmumu		0.036901		1.0000E+00		1.0		0.0		0.0		MadGraph5_aMC@NLO(v2.3.3.p1)+Pythia8(v8.212)+EvtGen(v1.2.0)		e6125
410373		aMcAtNloPythia8EvtGen_MEN30NLO_A14Var3DownN23LO_ttmumu		0.036896		1.0000E+00		1.0		0.0		0.0		MadGraph5_aMC@NLO(v2.3.3.p1)+Pythia8(v8.212)+EvtGen(v1.2.0)		e6113
410374		aMcAtNloPythia8EvtGen_MEN30NLO_A14Var3UpN23LO_tttautau		0.036513		1.0000E+00		1.0		0.0		0.0		MadGraph5_aMC@NLO(v2.3.3.p1)+Pythia8(v8.212)+EvtGen(v1.2.0)		e6113
410375		aMcAtNloPythia8EvtGen_MEN30NLO_A14Var3DownN23LO_tttautau		0.036517		1.0000E+00		1.0		0.0		0.0		MadGraph5_aMC@NLO(v2.3.3.p1)+Pythia8(v8.212)+EvtGen(v1.2.0)		e6113
346343		PhPy8EG_A14NNPDF23_NNPDF30ME_ttH125_allhad		0.23844		1.0000E+00		1.0		0.0		0.0		Powheg+Pythia8(v.230)+EvtGen(v.1.6.0)		e7148
346344		PhPy8EG_A14NNPDF23_NNPDF30ME_ttH125_semilep		0.52458		4.3842E-01		1.0		0.0		0.0		Powheg+Pythia8(v.230)+EvtGen(v.1.6.0)		e7148
346345		PhPy8EG_A14NNPDF23_NNPDF30ME_ttH125_dilep		0.054667		1.0000E+00		1.0		0.0		0.0		Powheg+Pythia8(v.230)+EvtGen(v.1.6.0)		e7148
500463          MGPy8EG_A14NNPDF23LO_ttWZ               0.0024652               1.0000E+00              1.0             0.0             0.0             MadGraph(v.2.6.7p3.atlas5)+Pythia8(v.240p3)+EvtGen(v.1.7.0)             e8041
500462          MGPy8EG_A14NNPDF23LO_ttZZ               0.0014943               1.0000E+00              1.0             0.0             0.0             MadGraph(v.2.6.7p3.atlas5)+Pythia8(v.240p3)+EvtGen(v.1.7.0)             e8041
500461          MGPy8EG_A14NNPDF23LO_ttWH               0.001138                1.0000E+00              1.0             0.0             0.0             MadGraph(v.2.6.7p3.atlas5)+Pythia8(v.240p3)+EvtGen(v.1.7.0)             e8041
500460          MGPy8EG_A14NNPDF23LO_ttHH               0.00074042              1.0000E+00              1.0             0.0             0.0             MadGraph(v.2.6.7p3.atlas5)+Pythia8(v.240p3)+EvtGen(v.1.7.0)             e8041

345217          PowhegPy8EG_NNPDF30_AZNLO_ZH125J_Zinc_MINLO_tautau              0.055438                1.0000E+00              1.0             0.0             0.0             Powheg+Pythia8(v8.212)+EvtGen(v1.6.0)           e5808

346511          aMcAtNloPythia8EvtGen_tWH125_ZZ4l               0.016728                1.0000E+00              1.0             0.0             0.0             aMcAtNlo+Pythia8(v.235)+EvtGen(v.1.6.0)         e7427
346415          aMcAtNloPythia8EvtGen_tHjb125_5fl_ZZ4l          0.072644                1.0000E+00              1.0             0.0             0.0             aMcAtNlo+Pythia8.230+EvtGen             e7273
346414          aMcAtNloPythia8EvtGen_tHjb125_4fl_ZZ4l          0.060642                1.0000E+00              1.0             0.0             0.0             aMcAtNlo+Pythia8.230+EvtGen             e7273

