### 397503.MGPy8EG_A14N23LO_Wino_1300_10_LLE12k
397503   157   0.0001156450   1.  1.  0.1621860003 
### 397504.MGPy8EG_A14N23LO_Wino_1300_100_LLE12k
397504   157   0.0001156450   1.  1.  0.1621860003 
### 397505.MGPy8EG_A14N23LO_Wino_1300_1290_LLE12k
397505   157   0.0001156450   1.  1.  0.1621860003 
### 397506.MGPy8EG_A14N23LO_Wino_1500_10_LLE12k
397506   157   0.0000396228   1.  1.  0.1583217239 
### 397507.MGPy8EG_A14N23LO_Wino_1500_100_LLE12k
397507   157   0.0000396228   1.  1.  0.1583217239 
### 397508.MGPy8EG_A14N23LO_Wino_1500_1590_LLE12k
397508   157   0.0000396228   1.  1.  0.1583217239 
### 397509.MGPy8EG_A14N23LO_Wino_1700_10_LLE12k
397509   157   0.0000144992   1.  1.  0.1723412326 
### 397510.MGPy8EG_A14N23LO_Wino_1700_50_LLE12k
397510   157   0.0000144992   1.  1.  0.1723412326 
### 397511.MGPy8EG_A14N23LO_Wino_1700_200_LLE12k
397511   157   0.0000144992   1.  1.  0.1723412326 
### 397512.MGPy8EG_A14N23LO_Wino_1700_800_LLE12k
397512   157   0.0000144992   1.  1.  0.1723412326 
### 397513.MGPy8EG_A14N23LO_Wino_1700_1600_LLE12k
397513   157   0.0000144992   1.  1.  0.1723412326 
### 397514.MGPy8EG_A14N23LO_Wino_1700_1690_LLE12k
397514   157   0.0000144992   1.  1.  0.1723412326 
### 397515.MGPy8EG_A14N23LO_Wino_1800_10_LLE12k
397515   157   0.0000088942   1.  1.  0.1745305930 
### 397516.MGPy8EG_A14N23LO_Wino_1800_50_LLE12k
397516   157   0.0000088942   1.  1.  0.1745305930 
### 397517.MGPy8EG_A14N23LO_Wino_1800_200_LLE12k
397517   157   0.0000088942   1.  1.  0.1745305930 
### 397518.MGPy8EG_A14N23LO_Wino_1800_900_LLE12k
397518   157   0.0000088942   1.  1.  0.1745305930 
### 397519.MGPy8EG_A14N23LO_Wino_1800_1700_LLE12k
397519   157   0.0000088942   1.  1.  0.1745305930 
### 397520.MGPy8EG_A14N23LO_Wino_1800_1790_LLE12k
397520   157   0.0000088942   1.  1.  0.1745305930 
### 397521.MGPy8EG_A14N23LO_Wino_1900_10_LLE12k
397521   157   0.0000054347   1.  1.  0.1892877055 
### 397522.MGPy8EG_A14N23LO_Wino_1900_50_LLE12k
397522   157   0.0000054347   1.  1.  0.1892877055 
### 397523.MGPy8EG_A14N23LO_Wino_1900_200_LLE12k
397523   157   0.0000054347   1.  1.  0.1892877055 
### 397524.MGPy8EG_A14N23LO_Wino_1900_1000_LLE12k
397524   157   0.0000054347   1.  1.  0.1892877055 
### 397525.MGPy8EG_A14N23LO_Wino_1900_1800_LLE12k
397525   157   0.0000054347   1.  1.  0.1892877055 
### 397526.MGPy8EG_A14N23LO_Wino_1900_1890_LLE12k
397526   157   0.0000054347   1.  1.  0.1892877055 
### 397527.MGPy8EG_A14N23LO_Wino_800_10_LLEi33
397527   157   0.0022119700   1.  1.  0.1108496047 
### 397528.MGPy8EG_A14N23LO_Wino_800_50_LLEi33
397528   157   0.0022119700   1.  1.  0.1108496047 
### 397529.MGPy8EG_A14N23LO_Wino_800_100_LLEi33
397529   157   0.0022119700   1.  1.  0.1108496047 
### 397530.MGPy8EG_A14N23LO_Wino_800_790_LLEi33
397530   157   0.0022119700   1.  1.  0.1108496047 
### 397531.MGPy8EG_A14N23LO_Wino_1000_10_LLEi33
397531   157   0.0006218660   1.  1.  0.1239824978 
### 397532.MGPy8EG_A14N23LO_Wino_1000_50_LLEi33
397532   157   0.0006218660   1.  1.  0.1239824978 
### 397533.MGPy8EG_A14N23LO_Wino_1000_100_LLEi33
397533   157   0.0006218660   1.  1.  0.1239824978 
### 397534.MGPy8EG_A14N23LO_Wino_1000_990_LLEi33
397534   157   0.0006218660   1.  1.  0.1239824978 
### 397535.MGPy8EG_A14N23LO_Wino_1100_100_LLEi33
397535   157   0.0003426260   1.  1.  0.1248218174 
### 397536.MGPy8EG_A14N23LO_Wino_1100_500_LLEi33
397536   157   0.0003426260   1.  1.  0.1248218174 
### 397537.MGPy8EG_A14N23LO_Wino_1100_1000_LLEi33
397537   157   0.0003426260   1.  1.  0.1248218174 
### 397538.MGPy8EG_A14N23LO_Wino_1100_1090_LLEi33
397538   157   0.0003426260   1.  1.  0.1248218174 
### 397539.MGPy8EG_A14N23LO_Wino_1200_100_LLEi33
397539   157   0.0001960440   1.  1.  0.1347325090 
### 397540.MGPy8EG_A14N23LO_Wino_1200_600_LLEi33
397540   157   0.0001960440   1.  1.  0.1347325090 
### 397541.MGPy8EG_A14N23LO_Wino_1200_1100_LLEi33
397541   157   0.0001960440   1.  1.  0.1347325090 
### 397542.MGPy8EG_A14N23LO_Wino_1200_1190_LLEi33
397542   157   0.0001960440   1.  1.  0.1347325090 
### 397543.MGPy8EG_A14N23LO_Wino_1300_100_LLEi33
397543   157   0.0001156450   1.  1.  0.1621860003 
### 397544.MGPy8EG_A14N23LO_Wino_1300_700_LLEi33
397544   157   0.0001156450   1.  1.  0.1621860003 
### 397545.MGPy8EG_A14N23LO_Wino_1300_1200_LLEi33
397545   157   0.0001156450   1.  1.  0.1621860003 
### 397546.MGPy8EG_A14N23LO_Wino_1300_1290_LLEi33
397546   157   0.0001156450   1.  1.  0.1621860003 

### 397503.MGPy8EG_A14N23LO_Wino_1300_10_LLE12k
397503   127   0.0000605883   1.  1.  0.1817265050 
### 397504.MGPy8EG_A14N23LO_Wino_1300_100_LLE12k
397504   127   0.0000605883   1.  1.  0.1817265050 
### 397505.MGPy8EG_A14N23LO_Wino_1300_1290_LLE12k
397505   127   0.0000605883   1.  1.  0.1817265050 
### 397506.MGPy8EG_A14N23LO_Wino_1500_10_LLE12k
397506   127   0.0000200469   1.  1.  0.2329861475 
### 397507.MGPy8EG_A14N23LO_Wino_1500_100_LLE12k
397507   127   0.0000200469   1.  1.  0.2329861475 
### 397508.MGPy8EG_A14N23LO_Wino_1500_1590_LLE12k
397508   127   0.0000200469   1.  1.  0.2329861475 
### 397509.MGPy8EG_A14N23LO_Wino_1700_10_LLE12k
397509   127   0.0000071886   1.  1.  0.2604428654 
### 397510.MGPy8EG_A14N23LO_Wino_1700_50_LLE12k
397510   127   0.0000071886   1.  1.  0.2604428654 
### 397511.MGPy8EG_A14N23LO_Wino_1700_200_LLE12k
397511   127   0.0000071886   1.  1.  0.2604428654 
### 397512.MGPy8EG_A14N23LO_Wino_1700_800_LLE12k
397512   127   0.0000071886   1.  1.  0.2604428654 
### 397513.MGPy8EG_A14N23LO_Wino_1700_1600_LLE12k
397513   127   0.0000071886   1.  1.  0.2604428654 
### 397514.MGPy8EG_A14N23LO_Wino_1700_1690_LLE12k
397514   127   0.0000071886   1.  1.  0.2604428654 
### 397515.MGPy8EG_A14N23LO_Wino_1800_10_LLE12k
397515   127   0.0000043716   1.  1.  0.2856940251 
### 397516.MGPy8EG_A14N23LO_Wino_1800_50_LLE12k
397516   127   0.0000043716   1.  1.  0.2856940251 
### 397517.MGPy8EG_A14N23LO_Wino_1800_200_LLE12k
397517   127   0.0000043716   1.  1.  0.2856940251 
### 397518.MGPy8EG_A14N23LO_Wino_1800_900_LLE12k
397518   127   0.0000043716   1.  1.  0.2856940251 
### 397519.MGPy8EG_A14N23LO_Wino_1800_1700_LLE12k
397519   127   0.0000043716   1.  1.  0.2856940251 
### 397520.MGPy8EG_A14N23LO_Wino_1800_1790_LLE12k
397520   127   0.0000043716   1.  1.  0.2856940251 
### 397521.MGPy8EG_A14N23LO_Wino_1900_10_LLE12k
397521   127   0.0000026396   1.  1.  0.3180686833 
### 397522.MGPy8EG_A14N23LO_Wino_1900_50_LLE12k
397522   127   0.0000026396   1.  1.  0.3180686833 
### 397523.MGPy8EG_A14N23LO_Wino_1900_200_LLE12k
397523   127   0.0000026396   1.  1.  0.3180686833 
### 397524.MGPy8EG_A14N23LO_Wino_1900_1000_LLE12k
397524   127   0.0000026396   1.  1.  0.3180686833 
### 397525.MGPy8EG_A14N23LO_Wino_1900_1800_LLE12k
397525   127   0.0000026396   1.  1.  0.3180686833 
### 397526.MGPy8EG_A14N23LO_Wino_1900_1890_LLE12k
397526   127   0.0000026396   1.  1.  0.3180686833 
### 397527.MGPy8EG_A14N23LO_Wino_800_10_LLEi33
397527   127   0.0012175000   1.  1.  0.1438784394 
### 397528.MGPy8EG_A14N23LO_Wino_800_50_LLEi33
397528   127   0.0012175000   1.  1.  0.1438784394 
### 397529.MGPy8EG_A14N23LO_Wino_800_100_LLEi33
397529   127   0.0012175000   1.  1.  0.1438784394 
### 397530.MGPy8EG_A14N23LO_Wino_800_790_LLEi33
397530   127   0.0012175000   1.  1.  0.1438784394 
### 397531.MGPy8EG_A14N23LO_Wino_1000_10_LLEi33
397531   127   0.0003290020   1.  1.  0.1585786713 
### 397532.MGPy8EG_A14N23LO_Wino_1000_50_LLEi33
397532   127   0.0003290020   1.  1.  0.1585786713 
### 397533.MGPy8EG_A14N23LO_Wino_1000_100_LLEi33
397533   127   0.0003290020   1.  1.  0.1585786713 
### 397534.MGPy8EG_A14N23LO_Wino_1000_990_LLEi33
397534   127   0.0003290020   1.  1.  0.1585786713 
### 397535.MGPy8EG_A14N23LO_Wino_1100_100_LLEi33
397535   127   0.0001809220   1.  1.  0.1994356684 
### 397536.MGPy8EG_A14N23LO_Wino_1100_500_LLEi33
397536   127   0.0001809220   1.  1.  0.1994356684 
### 397537.MGPy8EG_A14N23LO_Wino_1100_1000_LLEi33
397537   127   0.0001809220   1.  1.  0.1994356684 
### 397538.MGPy8EG_A14N23LO_Wino_1100_1090_LLEi33
397538   127   0.0001809220   1.  1.  0.1994356684 
### 397539.MGPy8EG_A14N23LO_Wino_1200_100_LLEi33
397539   127   0.0001006870   1.  1.  0.1673383853 
### 397540.MGPy8EG_A14N23LO_Wino_1200_600_LLEi33
397540   127   0.0001006870   1.  1.  0.1673383853 
### 397541.MGPy8EG_A14N23LO_Wino_1200_1100_LLEi33
397541   127   0.0001006870   1.  1.  0.1673383853 
### 397542.MGPy8EG_A14N23LO_Wino_1200_1190_LLEi33
397542   127   0.0001006870   1.  1.  0.1673383853 
### 397543.MGPy8EG_A14N23LO_Wino_1300_100_LLEi33
397543   127   0.0000605883   1.  1.  0.1817265050 
### 397544.MGPy8EG_A14N23LO_Wino_1300_700_LLEi33
397544   127   0.0000605883   1.  1.  0.1817265050 
### 397545.MGPy8EG_A14N23LO_Wino_1300_1200_LLEi33
397545   127   0.0000605883   1.  1.  0.1817265050 
### 397546.MGPy8EG_A14N23LO_Wino_1300_1290_LLEi33
397546   127   0.0000605883   1.  1.  0.1817265050 
### 397503.MGPy8EG_A14N23LO_Wino_1300_10_LLE12k
397503   125   0.0001801500   1.  1.  0.1273766306 
### 397504.MGPy8EG_A14N23LO_Wino_1300_100_LLE12k
397504   125   0.0001801500   1.  1.  0.1273766306 
### 397505.MGPy8EG_A14N23LO_Wino_1300_1290_LLE12k
397505   125   0.0001801500   1.  1.  0.1273766306 
### 397506.MGPy8EG_A14N23LO_Wino_1500_10_LLE12k
397506   125   0.0000598541   1.  1.  0.1498178070 
### 397507.MGPy8EG_A14N23LO_Wino_1500_100_LLE12k
397507   125   0.0000598541   1.  1.  0.1498178070 
### 397508.MGPy8EG_A14N23LO_Wino_1500_1590_LLE12k
397508   125   0.0000598541   1.  1.  0.1498178070 
### 397509.MGPy8EG_A14N23LO_Wino_1700_10_LLE12k
397509   125   0.0000200153   1.  1.  0.2488761098 
### 397510.MGPy8EG_A14N23LO_Wino_1700_50_LLE12k
397510   125   0.0000200153   1.  1.  0.2488761098 
### 397511.MGPy8EG_A14N23LO_Wino_1700_200_LLE12k
397511   125   0.0000200153   1.  1.  0.2488761098 
### 397512.MGPy8EG_A14N23LO_Wino_1700_800_LLE12k
397512   125   0.0000200153   1.  1.  0.2488761098 
### 397513.MGPy8EG_A14N23LO_Wino_1700_1600_LLE12k
397513   125   0.0000200153   1.  1.  0.2488761098 
### 397514.MGPy8EG_A14N23LO_Wino_1700_1690_LLE12k
397514   125   0.0000200153   1.  1.  0.2488761098 
### 397515.MGPy8EG_A14N23LO_Wino_1800_10_LLE12k
397515   125   0.0000117395   1.  1.  0.2658026321 
### 397516.MGPy8EG_A14N23LO_Wino_1800_50_LLE12k
397516   125   0.0000117395   1.  1.  0.2658026321 
### 397517.MGPy8EG_A14N23LO_Wino_1800_200_LLE12k
397517   125   0.0000117395   1.  1.  0.2658026321 
### 397518.MGPy8EG_A14N23LO_Wino_1800_900_LLE12k
397518   125   0.0000117395   1.  1.  0.2658026321 
### 397519.MGPy8EG_A14N23LO_Wino_1800_1700_LLE12k
397519   125   0.0000117395   1.  1.  0.2658026321 
### 397520.MGPy8EG_A14N23LO_Wino_1800_1790_LLE12k
397520   125   0.0000117395   1.  1.  0.2658026321 
### 397521.MGPy8EG_A14N23LO_Wino_1900_10_LLE12k
397521   125   0.0000067578   1.  1.  0.3213284758 
### 397522.MGPy8EG_A14N23LO_Wino_1900_50_LLE12k
397522   125   0.0000067578   1.  1.  0.3213284758 
### 397523.MGPy8EG_A14N23LO_Wino_1900_200_LLE12k
397523   125   0.0000067578   1.  1.  0.3213284758 
### 397524.MGPy8EG_A14N23LO_Wino_1900_1000_LLE12k
397524   125   0.0000067578   1.  1.  0.3213284758 
### 397525.MGPy8EG_A14N23LO_Wino_1900_1800_LLE12k
397525   125   0.0000067578   1.  1.  0.3213284758 
### 397526.MGPy8EG_A14N23LO_Wino_1900_1890_LLE12k
397526   125   0.0000067578   1.  1.  0.3213284758 
### 397527.MGPy8EG_A14N23LO_Wino_800_10_LLEi33
397527   125   0.0035411100   1.  1.  0.1099127110 
### 397528.MGPy8EG_A14N23LO_Wino_800_50_LLEi33
397528   125   0.0035411100   1.  1.  0.1099127110 
### 397529.MGPy8EG_A14N23LO_Wino_800_100_LLEi33
397529   125   0.0035411100   1.  1.  0.1099127110 
### 397530.MGPy8EG_A14N23LO_Wino_800_790_LLEi33
397530   125   0.0035411100   1.  1.  0.1099127110 
### 397531.MGPy8EG_A14N23LO_Wino_1000_10_LLEi33
397531   125   0.0010145100   1.  1.  0.1216823885 
### 397532.MGPy8EG_A14N23LO_Wino_1000_50_LLEi33
397532   125   0.0010145100   1.  1.  0.1216823885 
### 397533.MGPy8EG_A14N23LO_Wino_1000_100_LLEi33
397533   125   0.0010145100   1.  1.  0.1216823885 
### 397534.MGPy8EG_A14N23LO_Wino_1000_990_LLEi33
397534   125   0.0010145100   1.  1.  0.1216823885 
### 397535.MGPy8EG_A14N23LO_Wino_1100_100_LLEi33
397535   125   0.0005594500   1.  1.  0.1270919653 
### 397536.MGPy8EG_A14N23LO_Wino_1100_500_LLEi33
397536   125   0.0005594500   1.  1.  0.1270919653 
### 397537.MGPy8EG_A14N23LO_Wino_1100_1000_LLEi33
397537   125   0.0005594500   1.  1.  0.1270919653 
### 397538.MGPy8EG_A14N23LO_Wino_1100_1090_LLEi33
397538   125   0.0005594500   1.  1.  0.1270919653 
### 397539.MGPy8EG_A14N23LO_Wino_1200_100_LLEi33
397539   125   0.0003156700   1.  1.  0.1317454937 
### 397540.MGPy8EG_A14N23LO_Wino_1200_600_LLEi33
397540   125   0.0003156700   1.  1.  0.1317454937 
### 397541.MGPy8EG_A14N23LO_Wino_1200_1100_LLEi33
397541   125   0.0003156700   1.  1.  0.1317454937 
### 397542.MGPy8EG_A14N23LO_Wino_1200_1190_LLEi33
397542   125   0.0003156700   1.  1.  0.1317454937 
### 397543.MGPy8EG_A14N23LO_Wino_1300_100_LLEi33
397543   125   0.0001801500   1.  1.  0.1273766306 
### 397544.MGPy8EG_A14N23LO_Wino_1300_700_LLEi33
397544   125   0.0001801500   1.  1.  0.1273766306 
### 397545.MGPy8EG_A14N23LO_Wino_1300_1200_LLEi33
397545   125   0.0001801500   1.  1.  0.1273766306 
### 397546.MGPy8EG_A14N23LO_Wino_1300_1290_LLEi33
397546   125   0.0001801500   1.  1.  0.1273766306 

### 449826.MGPy8EG_A14N23LO_Wino_1300_directLLE12k
449826   127   0.0000605883   1.0000000000  1.  0.1817265050 
449826   157   0.0001156450   1.0000000000  1.  0.1621860003 
449826   125   0.0001801500   1.0000000000  1.  0.1273766306 
### 449827.MGPy8EG_A14N23LO_Wino_1600_directLLE12k
449827   127   0.0000120888   1.0000000000  1.  0.2380054265 
449827   157   0.0000239083   1.0000000000  1.  0.1651535241 
449827   125   0.0000347174   1.0000000000  1.  0.1933166078 
### 449828.MGPy8EG_A14N23LO_Wino_1800_directLLE12k
449828   127   0.0000043716   1.0000000000  1.  0.2856940251 
449828   157   0.0000088942   1.0000000000  1.  0.1745305930 
449828   125   0.0000117395   1.0000000000  1.  0.2658026321 
### 449832.MGPy8EG_A14N23LO_Wino_1300_200_LLE12k
449832   127   0.0000605883   1.0000000000  1.  0.1817265050 
449832   157   0.0001156450   1.0000000000  1.  0.1621860003 
449832   125   0.0001801500   1.0000000000  1.  0.1273766306 
### 449833.MGPy8EG_A14N23LO_Wino_1300_800_LLE12k
449833   127   0.0000605883   1.0000000000  1.  0.1817265050 
449833   157   0.0001156450   1.0000000000  1.  0.1621860003 
449833   125   0.0001801500   1.0000000000  1.  0.1273766306 
### 449834.MGPy8EG_A14N23LO_Wino_1500_200_LLE12k
449834   127   0.0000200469   1.0000000000  1.  0.2329861475 
449834   157   0.0000396228   1.0000000000  1.  0.1583217239 
449834   125   0.0000598541   1.0000000000  1.  0.1498178070 
### 449835.MGPy8EG_A14N23LO_Wino_1500_800_LLE12k
449835   127   0.0000200469   1.0000000000  1.  0.2329861475 
449835   157   0.0000396228   1.0000000000  1.  0.1583217239 
449835   125   0.0000598541   1.0000000000  1.  0.1498178070 
### 449836.MGPy8EG_A14N23LO_Wino_1500_1200_LLE12k
449836   127   0.0000200469   1.0000000000  1.  0.2329861475 
449836   157   0.0000396228   1.0000000000  1.  0.1583217239 
449836   125   0.0000598541   1.0000000000  1.  0.1498178070 
### 449837.MGPy8EG_A14N23LO_Wino_1700_1200_LLE12k
449837   127   0.0000071886   1.0000000000  1.  0.2604428654 
449837   157   0.0000144992   1.0000000000  1.  0.1723412326 
449837   125   0.0000200153   1.0000000000  1.  0.2488761098 
### 449838.MGPy8EG_A14N23LO_Wino_1800_1200_LLE12k
449838   127   0.0000043716   1.0000000000  1.  0.2856940251 
449838   157   0.0000088942   1.0000000000  1.  0.1745305930 
449838   125   0.0000117395   1.0000000000  1.  0.2658026321 
### 449839.MGPy8EG_A14N23LO_Wino_1000_500_LLEi33
449839   127   0.0003290020   1.0000000000  1.  0.1585786713 
449839   157   0.0006218660   1.0000000000  1.  0.1239824978 
449839   125   0.0010145100   1.0000000000  1.  0.1216823885 
### 449840.MGPy8EG_A14N23LO_Wino_1000_700_LLEi33
449840   127   0.0003290020   1.0000000000  1.  0.1585786713 
449840   157   0.0006218660   1.0000000000  1.  0.1239824978 
449840   125   0.0010145100   1.0000000000  1.  0.1216823885 
### 449841.MGPy8EG_A14N23LO_Wino_1100_700_LLEi33
449841   127   0.0001809220   1.0000000000  1.  0.1994356684 
449841   157   0.0003426260   1.0000000000  1.  0.1248218174 
449841   125   0.0005594500   1.0000000000  1.  0.1270919653 
### 449842.MGPy8EG_A14N23LO_Wino_1200_500_LLEi33
449842   127   0.0001006870   1.0000000000  1.  0.1673383853 
449842   157   0.0001960440   1.0000000000  1.  0.1347325090 
449842   125   0.0003156700   1.0000000000  1.  0.1317454937 
### 449843.MGPy8EG_A14N23LO_Wino_1200_700_LLEi33
449843   127   0.0001006870   1.0000000000  1.  0.1673383853 
449843   157   0.0001960440   1.0000000000  1.  0.1347325090 
449843   125   0.0003156700   1.0000000000  1.  0.1317454937 
### 449844.MGPy8EG_A14N23LO_Wino_1200_1000_LLEi33
449844   127   0.0001006870   1.0000000000  1.  0.1673383853 
449844   157   0.0001960440   1.0000000000  1.  0.1347325090 
449844   125   0.0003156700   1.0000000000  1.  0.1317454937 
### 449845.MGPy8EG_A14N23LO_Wino_1300_500_LLEi33
449845   127   0.0000605883   1.0000000000  1.  0.1817265050 
449845   157   0.0001156450   1.0000000000  1.  0.1621860003 
449845   125   0.0001801500   1.0000000000  1.  0.1273766306 
### 449846.MGPy8EG_A14N23LO_Wino_1300_1000_LLEi33
449846   127   0.0000605883   1.0000000000  1.  0.1817265050 
449846   157   0.0001156450   1.0000000000  1.  0.1621860003 
449846   125   0.0001801500   1.0000000000  1.  0.1273766306 
### 449847.MGPy8EG_A14N23LO_Wino_1400_100_LLEi33
449847   127   0.0000303342   1.0000000000  1.  0.2046175604 
449847   157   0.0000686671   1.0000000000  1.  0.1667144819 
449847   125   0.0001008700   1.0000000000  1.  0.1270328145 
### 449848.MGPy8EG_A14N23LO_Wino_1400_500_LLEi33
449848   127   0.0000303342   1.0000000000  1.  0.2046175604 
449848   157   0.0000686671   1.0000000000  1.  0.1667144819 
449848   125   0.0001008700   1.0000000000  1.  0.1270328145 
### 449849.MGPy8EG_A14N23LO_Wino_1400_700_LLEi33
449849   127   0.0000303342   1.0000000000  1.  0.2046175604 
449849   157   0.0000686671   1.0000000000  1.  0.1667144819 
449849   125   0.0001008700   1.0000000000  1.  0.1270328145 
### 449850.MGPy8EG_A14N23LO_Wino_1400_1000_LLEi33
449850   127   0.0000303342   1.0000000000  1.  0.2046175604 
449850   157   0.0000686671   1.0000000000  1.  0.1667144819 
449850   125   0.0001008700   1.0000000000  1.  0.1270328145 
### 449851.MGPy8EG_A14N23LO_Wino_1400_1390_LLEi33
449851   127   0.0000303342   1.0000000000  1.  0.2046175604 
449851   157   0.0000686671   1.0000000000  1.  0.1667144819 
449851   125   0.0001008700   1.0000000000  1.  0.1270328145 
